<svg xmlns="http://www.w3.org/2000/svg" width="197.915" height="561.815" viewBox="0 0 197.915 561.815">
  <g id="Group_2627" data-name="Group 2627" transform="translate(-31.22 -138)">
    <g id="Group_2605" data-name="Group 2605" transform="translate(0 -59.162)">
      <g id="Group_2602" data-name="Group 2602" transform="translate(31.22 354.162)" opacity="0.372">
        <path id="Path_922" data-name="Path 922" d="M-596.037,754.878l3.431-1.33a.33.33,0,0,0,.211-.313.33.33,0,0,0-.221-.307l-3.472-1.216a10.178,10.178,0,0,1-6.126-5.929l-1.33-3.431a.33.33,0,0,0-.313-.211.33.33,0,0,0-.306.221l-1.217,3.472a10.178,10.178,0,0,1-5.928,6.126l-3.431,1.329a.331.331,0,0,0-.211.313.331.331,0,0,0,.221.306l3.473,1.216a10.179,10.179,0,0,1,6.126,5.929l1.33,3.431a.331.331,0,0,0,.313.211.33.33,0,0,0,.306-.221l1.217-3.472A10.177,10.177,0,0,1-596.037,754.878Z" transform="translate(663.875 -701.042)" fill="#0082f5"/>
        <path id="Path_923" data-name="Path 923" d="M-638.168,531.063l-.91,2.6a7.616,7.616,0,0,1-4.437,4.584l-2.567.995a.247.247,0,0,0-.158.235.247.247,0,0,0,.165.229l2.6.911a7.617,7.617,0,0,1,4.585,4.437l.995,2.568a.248.248,0,0,0,.235.158.247.247,0,0,0,.229-.165l.911-2.6a7.617,7.617,0,0,1,4.436-4.584l2.568-1a.247.247,0,0,0,.158-.234.247.247,0,0,0-.165-.229l-2.6-.91a7.618,7.618,0,0,1-4.584-4.437l-.995-2.568a.247.247,0,0,0-.235-.158A.247.247,0,0,0-638.168,531.063Z" transform="translate(689.076 -530.898)" fill="#0082f5"/>
        <path id="Path_924" data-name="Path 924" d="M-454.888,681.6l-.577,1.646a4.825,4.825,0,0,1-2.81,2.9l-1.626.63a.157.157,0,0,0-.1.149.156.156,0,0,0,.1.145l1.646.577a4.825,4.825,0,0,1,2.9,2.81l.63,1.627a.156.156,0,0,0,.148.1.157.157,0,0,0,.145-.1l.577-1.646a4.825,4.825,0,0,1,2.81-2.9l1.626-.631a.156.156,0,0,0,.1-.148.157.157,0,0,0-.1-.145l-1.646-.577a4.826,4.826,0,0,1-2.9-2.811l-.63-1.626a.157.157,0,0,0-.148-.1A.157.157,0,0,0-454.888,681.6Z" transform="translate(539.072 -652.192)" fill="#0082f5"/>
        <path id="Path_925" data-name="Path 925" d="M-708.4,979.741l-.577,1.647a4.824,4.824,0,0,1-2.81,2.9l-1.626.631a.156.156,0,0,0-.1.148.156.156,0,0,0,.1.145l1.646.577a4.826,4.826,0,0,1,2.9,2.81l.63,1.627a.157.157,0,0,0,.149.1.157.157,0,0,0,.145-.1l.577-1.646a4.826,4.826,0,0,1,2.811-2.9l1.626-.63a.157.157,0,0,0,.1-.149.157.157,0,0,0-.1-.145l-1.646-.577a4.825,4.825,0,0,1-2.9-2.81l-.63-1.627a.156.156,0,0,0-.149-.1A.156.156,0,0,0-708.4,979.741Z" transform="translate(743.257 -892.328)" fill="#0082f5"/>
        <path id="Path_926" data-name="Path 926" d="M-861.293,646.457l-.577,1.646a4.823,4.823,0,0,1-2.81,2.9l-1.626.63a.156.156,0,0,0-.1.149.156.156,0,0,0,.1.145l1.646.577a4.826,4.826,0,0,1,2.9,2.811l.63,1.627a.156.156,0,0,0,.148.1.156.156,0,0,0,.145-.1l.577-1.646a4.825,4.825,0,0,1,2.811-2.9l1.626-.63a.157.157,0,0,0,.1-.149.157.157,0,0,0-.1-.145l-1.646-.577a4.824,4.824,0,0,1-2.9-2.811l-.63-1.626a.156.156,0,0,0-.148-.1A.156.156,0,0,0-861.293,646.457Z" transform="translate(866.406 -623.889)" fill="#0082f5"/>
        <path id="Path_927" data-name="Path 927" d="M-392.759,889.241l-.725,2.07a6.07,6.07,0,0,1-3.535,3.653l-2.046.793a.2.2,0,0,0-.126.187.2.2,0,0,0,.132.183l2.07.725a6.068,6.068,0,0,1,3.653,3.535l.792,2.045a.2.2,0,0,0,.187.126.2.2,0,0,0,.183-.132l.725-2.07a6.07,6.07,0,0,1,3.535-3.653l2.046-.793a.2.2,0,0,0,.126-.187.2.2,0,0,0-.132-.183l-2.071-.725a6.07,6.07,0,0,1-3.653-3.535l-.793-2.046a.2.2,0,0,0-.187-.126A.2.2,0,0,0-392.759,889.241Z" transform="translate(490.094 -819.414)" fill="#0082f5"/>
      </g>
      <g id="Group_2411" data-name="Group 2411" transform="translate(50.399 464.764) rotate(-22)" opacity="0.372">
        <g id="Group_2402" data-name="Group 2402" transform="translate(40.908 7.809)">
          <rect id="Rectangle_1262" data-name="Rectangle 1262" width="10.769" height="7.092" transform="translate(4.563 2.486)" fill="#d2d2d2"/>
          <rect id="Rectangle_1263" data-name="Rectangle 1263" width="19.895" height="4.325" transform="translate(0 0)" fill="#d2d2d2"/>
        </g>
        <g id="Group_2410" data-name="Group 2410" transform="translate(0 0)">
          <path id="Path_1701" data-name="Path 1701" d="M35.871,0A35.871,35.871,0,1,1,0,35.871,35.871,35.871,0,0,1,35.871,0Z" transform="translate(0 50.729) rotate(-45)" fill="#d2d2d2"/>
          <ellipse id="Ellipse_311" data-name="Ellipse 311" cx="29.461" cy="29.461" rx="29.461" ry="29.461" transform="translate(15.359 72.748) rotate(-76.905)" fill="#fff"/>
          <g id="Group_2409" data-name="Group 2409" transform="translate(24.483 24.368)">
            <g id="Group_2408" data-name="Group 2408">
              <g id="Group_2405" data-name="Group 2405" transform="translate(7.634 7.78)">
                <g id="Group_2403" data-name="Group 2403">
                  <path id="Path_1691" data-name="Path 1691" d="M303.762-77.776a.739.739,0,0,1-.524-.217l-1.23-1.23a.741.741,0,0,1,0-1.048.741.741,0,0,1,1.048,0l1.23,1.231a.74.74,0,0,1,0,1.048A.739.739,0,0,1,303.762-77.776Z" transform="translate(-301.791 80.489)" fill="gray"/>
                  <path id="Path_1692" data-name="Path 1692" d="M383.767,2.228a.737.737,0,0,1-.524-.217L382.012.781a.741.741,0,0,1,1.048-1.048l1.23,1.23a.741.741,0,0,1-.524,1.265Z" transform="translate(-346.989 35.29)" fill="gray"/>
                </g>
                <g id="Group_2404" data-name="Group 2404">
                  <path id="Path_1693" data-name="Path 1693" d="M302.532,2.228a.741.741,0,0,1-.524-1.265l1.23-1.23A.741.741,0,0,1,304.286.781l-1.23,1.231A.739.739,0,0,1,302.532,2.228Z" transform="translate(-301.791 35.29)" fill="gray"/>
                  <path id="Path_1694" data-name="Path 1694" d="M382.536-77.776a.739.739,0,0,1-.524-.217.741.741,0,0,1,0-1.048l1.231-1.231a.741.741,0,0,1,1.048,0,.742.742,0,0,1,0,1.048l-1.23,1.23A.739.739,0,0,1,382.536-77.776Z" transform="translate(-346.989 80.489)" fill="gray"/>
                </g>
              </g>
              <g id="Group_2406" data-name="Group 2406" transform="translate(24.673)">
                <ellipse id="Ellipse_312" data-name="Ellipse 312" cx="1.696" cy="1.696" rx="1.696" ry="1.696" fill="#161429"/>
                <ellipse id="Ellipse_313" data-name="Ellipse 313" cx="1.696" cy="1.696" rx="1.696" ry="1.696" transform="translate(0 49.346)" fill="#161429"/>
              </g>
              <g id="Group_2407" data-name="Group 2407" transform="translate(0 24.673)">
                <path id="Path_1695" data-name="Path 1695" d="M285.94-41.659a1.7,1.7,0,0,1,1.7,1.7,1.7,1.7,0,0,1-1.7,1.7,1.7,1.7,0,0,1-1.7-1.7A1.7,1.7,0,0,1,285.94-41.659Z" transform="translate(-284.244 41.659)" fill="#161429"/>
                <path id="Path_1696" data-name="Path 1696" d="M399.365-41.659a1.7,1.7,0,0,1,1.7,1.7,1.7,1.7,0,0,1-1.7,1.7,1.7,1.7,0,0,1-1.7-1.7A1.7,1.7,0,0,1,399.365-41.659Z" transform="translate(-348.323 41.659)" fill="#161429"/>
              </g>
            </g>
            <path id="Path_1697" data-name="Path 1697" d="M352.644-73.026,340.536-58.835a1.9,1.9,0,0,0-.544,1.479,1.907,1.907,0,0,0,2.051,1.751,1.905,1.905,0,0,0,1.665-1.319l9.358-15.8A.26.26,0,0,0,352.644-73.026Z" transform="translate(-315.735 84.106)" fill="#0089e1"/>
          </g>
        </g>
      </g>
    </g>
    <g id="Group_2603" data-name="Group 2603" transform="translate(-18 -49.86)">
      <g id="Group_2599" data-name="Group 2599" transform="translate(-197 -160)" opacity="0.372">
        <path id="Path_1109" data-name="Path 1109" d="M1360.715,420.7l8.83-.565a2.338,2.338,0,0,0,2.427-2.253l.97-26.495a2.338,2.338,0,0,0-2.334-2.427h-64.1a2.339,2.339,0,0,0-2.3,2.737l5.058,29.574a2.337,2.337,0,0,0,2.46,1.94l5.857-.4-4.3,17.018,24.729-18.278L1356.1,421" transform="translate(-935.942 396.9)" fill="#2dca00"/>
        <rect id="Rectangle_806" data-name="Rectangle 806" width="51.239" height="2.385" rx="1.193" transform="translate(378.921 797.467)" fill="#fff"/>
        <rect id="Rectangle_807" data-name="Rectangle 807" width="31.744" height="2.385" rx="1.193" transform="translate(379.468 803)" fill="#fff"/>
      </g>
      <g id="Group_2600" data-name="Group 2600" transform="translate(-206 -15)">
        <g id="Group_1271" data-name="Group 1271" transform="translate(330.626 683.743)" opacity="0.1" style="isolation: isolate">
          <circle id="Ellipse_153" data-name="Ellipse 153" cx="28.614" cy="28.614" r="28.614" transform="translate(0 40.466) rotate(-45)" fill="#0082f5"/>
        </g>
        <g id="Group_1273" data-name="Group 1273" transform="translate(353.029 706.974)">
          <path id="Path_1117" data-name="Path 1117" d="M4246.94-482.263a26.684,26.684,0,0,0,19.455-6.355,61.685,61.685,0,0,0-2.354-7.415,17.234,17.234,0,0,0-8.122-9.024c.029-.044.066-.085.094-.13a15.4,15.4,0,0,0,2.141-8.347,13.383,13.383,0,0,0-2.089-7.9,9.019,9.019,0,0,0-7.8-3.817,9.005,9.005,0,0,0-7.3,5.478c-1.185,2.76-1.107,5.789-.916,8.724a14.806,14.806,0,0,0,1.668,6.043,22.739,22.739,0,0,0-6.118,5.639c-1.946,2.449-1.869,2.565-3.111,5.464-.611,1.426-1.217,2.9-1.747,4.524A26.648,26.648,0,0,0,4246.94-482.263Z" transform="translate(-4230.743 525.269)" fill="#fff"/>
        </g>
      </g>
    </g>
    <g id="Group_2607" data-name="Group 2607" transform="translate(15 -24.203)">
      <g id="Group_2601" data-name="Group 2601" transform="translate(-271 -513.048)" opacity="0.372">
        <circle id="Ellipse_146" data-name="Ellipse 146" cx="11.721" cy="11.721" r="11.721" transform="translate(461.693 675.251)" fill="#2dca00"/>
        <g id="Group_1050" data-name="Group 1050" transform="translate(465.756 683.309)">
          <path id="Path_915" data-name="Path 915" d="M-811,1729.02l-2.78-5.14a.646.646,0,0,1,.261-.876.646.646,0,0,1,.876.261l2.123,3.927,11.481-7.209a.646.646,0,0,1,.891.2.646.646,0,0,1-.2.891Z" transform="translate(813.857 -1719.884)" fill="#fff"/>
        </g>
      </g>
      <g id="Group_2598" data-name="Group 2598" transform="translate(-88 65.427)" opacity="0.372">
        <g id="Group_1294" data-name="Group 1294" transform="translate(179.818 120.237)">
          <g id="Group_604" data-name="Group 604" transform="translate(0 4.734)">
            <path id="Path_432" data-name="Path 432" d="M3714.366,171.7l121.875,32.657V128.181L3714.366,95.525Z" transform="translate(-3714.366 -95.525)" fill="#d7e7ee"/>
          </g>
          <g id="Group_623" data-name="Group 623" transform="translate(16.205 0)">
            <g id="Group_607" data-name="Group 607">
              <g id="Group_605" data-name="Group 605" transform="translate(0 13.168)">
                <path id="Path_451" data-name="Path 451" d="M3783.9,134.281a2.1,2.1,0,0,1-1.556-2.122,1.43,1.43,0,0,1,1.9-1.187,2.1,2.1,0,0,1,1.555,2.122A1.429,1.429,0,0,1,3783.9,134.281Zm.3-2.828a1.014,1.014,0,0,0-1.3.612,1.028,1.028,0,0,0-.053.229,1.49,1.49,0,0,0,1.1,1.5,1.014,1.014,0,0,0,1.3-.612,1,1,0,0,0,.053-.229A1.49,1.49,0,0,0,3784.2,131.453Z" transform="translate(-3782.346 -130.906)" fill="#d8d8d8"/>
              </g>
              <g id="Group_606" data-name="Group 606" transform="translate(0.711)">
                <path id="Path_452" data-name="Path 452" d="M3786.289,90.894c-.4-.107-.818-.518-.937-2.75a35.4,35.4,0,0,1,.2-5.267,32.951,32.951,0,0,1,.889-5.082c.567-2.047,1.049-2.213,1.447-2.106s.818.518.936,2.75a35.179,35.179,0,0,1-.2,5.267c-.069.654-.151,1.3-.244,1.916l-.752-.234c.092-.607.173-1.242.24-1.885a35.982,35.982,0,0,0,.214-4.835,7.529,7.529,0,0,0-.28-2.139,5.879,5.879,0,0,0-.7,1.873,34.021,34.021,0,0,0-.788,4.679,36.145,36.145,0,0,0-.213,4.835,6.685,6.685,0,0,0,.31,2.214l.575.482A.639.639,0,0,1,3786.289,90.894Z" transform="translate(-3785.329 -75.666)" fill="#a3a2a2"/>
              </g>
            </g>
            <g id="Group_610" data-name="Group 610" transform="translate(17.05 4.606)">
              <g id="Group_608" data-name="Group 608" transform="translate(0 13.168)">
                <path id="Path_453" data-name="Path 453" d="M3855.43,153.6a2.1,2.1,0,0,1-1.556-2.122,1.431,1.431,0,0,1,1.9-1.188,2.1,2.1,0,0,1,1.555,2.122A1.43,1.43,0,0,1,3855.43,153.6Zm.3-2.828a1.014,1.014,0,0,0-1.3.612,1.075,1.075,0,0,0-.053.23,1.488,1.488,0,0,0,1.1,1.5,1.013,1.013,0,0,0,1.3-.613,1.049,1.049,0,0,0,.053-.229,1.488,1.488,0,0,0-1.1-1.5Z" transform="translate(-3853.872 -150.226)" fill="#d8d8d8"/>
              </g>
              <g id="Group_609" data-name="Group 609" transform="translate(0.711)">
                <path id="Path_454" data-name="Path 454" d="M3857.816,110.216c-.4-.107-.82-.518-.936-2.749a35.336,35.336,0,0,1,.2-5.267,33.094,33.094,0,0,1,.887-5.082c.567-2.047,1.05-2.213,1.447-2.106s.82.518.936,2.749a35.174,35.174,0,0,1-.2,5.267c-.068.653-.15,1.3-.244,1.916l-.752-.234c.091-.608.172-1.242.239-1.884a36.108,36.108,0,0,0,.214-4.836,7.487,7.487,0,0,0-.281-2.139,5.969,5.969,0,0,0-.7,1.873,34.025,34.025,0,0,0-.788,4.679,36.313,36.313,0,0,0-.214,4.835,6.718,6.718,0,0,0,.311,2.214l.575.482A.641.641,0,0,1,3857.816,110.216Z" transform="translate(-3856.856 -94.988)" fill="#a3a2a2"/>
              </g>
            </g>
            <g id="Group_613" data-name="Group 613" transform="translate(34.101 9.211)">
              <g id="Group_611" data-name="Group 611" transform="translate(0 13.168)">
                <path id="Path_455" data-name="Path 455" d="M3926.957,172.923a2.1,2.1,0,0,1-1.555-2.122,1.429,1.429,0,0,1,1.9-1.188,2.1,2.1,0,0,1,1.556,2.122A1.43,1.43,0,0,1,3926.957,172.923Zm.3-2.828a1.013,1.013,0,0,0-1.3.612.941.941,0,0,0-.053.229,1.489,1.489,0,0,0,1.1,1.5,1.013,1.013,0,0,0,1.349-.842,1.489,1.489,0,0,0-1.1-1.5Z" transform="translate(-3925.4 -169.548)" fill="#d8d8d8"/>
              </g>
              <g id="Group_612" data-name="Group 612" transform="translate(0.711)">
                <path id="Path_456" data-name="Path 456" d="M3929.344,129.536c-.4-.107-.82-.518-.937-2.749a35.275,35.275,0,0,1,.2-5.267,33.063,33.063,0,0,1,.889-5.082c.567-2.047,1.05-2.213,1.448-2.106s.817.518.936,2.749a35.143,35.143,0,0,1-.2,5.267c-.068.654-.15,1.3-.244,1.916l-.751-.234c.092-.607.172-1.241.24-1.884a36.108,36.108,0,0,0,.213-4.836,7.486,7.486,0,0,0-.28-2.139,5.934,5.934,0,0,0-.7,1.873,34.173,34.173,0,0,0-.788,4.679,36.19,36.19,0,0,0-.213,4.836,6.691,6.691,0,0,0,.31,2.214l.576.482A.64.64,0,0,1,3929.344,129.536Z" transform="translate(-3928.383 -114.308)" fill="#a3a2a2"/>
              </g>
            </g>
            <g id="Group_616" data-name="Group 616" transform="translate(51.152 13.817)">
              <g id="Group_614" data-name="Group 614" transform="translate(0 13.168)">
                <path id="Path_457" data-name="Path 457" d="M3998.486,192.245a2.1,2.1,0,0,1-1.555-2.122,1.43,1.43,0,0,1,1.9-1.187,2.1,2.1,0,0,1,1.556,2.122A1.431,1.431,0,0,1,3998.486,192.245Zm.3-2.828a1.014,1.014,0,0,0-1.3.613,1.062,1.062,0,0,0-.053.229,1.489,1.489,0,0,0,1.1,1.5,1.013,1.013,0,0,0,1.3-.612.971.971,0,0,0,.053-.229A1.488,1.488,0,0,0,3998.784,189.417Z" transform="translate(-3996.929 -188.87)" fill="#d8d8d8"/>
              </g>
              <g id="Group_615" data-name="Group 615" transform="translate(0.711)">
                <path id="Path_458" data-name="Path 458" d="M4000.872,148.857c-.4-.107-.819-.518-.937-2.749a35.41,35.41,0,0,1,.2-5.267,33.068,33.068,0,0,1,.889-5.082c.567-2.046,1.05-2.213,1.448-2.106s.819.518.936,2.749a35.343,35.343,0,0,1-.2,5.267c-.069.654-.151,1.3-.244,1.916l-.752-.234c.092-.608.171-1.242.239-1.884a36.11,36.11,0,0,0,.213-4.836,7.5,7.5,0,0,0-.28-2.139,5.907,5.907,0,0,0-.7,1.873,33.948,33.948,0,0,0-.788,4.679,36.187,36.187,0,0,0-.213,4.836,6.656,6.656,0,0,0,.311,2.214l.574.482A.641.641,0,0,1,4000.872,148.857Z" transform="translate(-3999.912 -133.629)" fill="#a3a2a2"/>
              </g>
            </g>
            <g id="Group_619" data-name="Group 619" transform="translate(68.203 18.423)">
              <g id="Group_617" data-name="Group 617" transform="translate(0 13.168)">
                <path id="Path_459" data-name="Path 459" d="M4070.015,211.565a2.1,2.1,0,0,1-1.555-2.122,1.43,1.43,0,0,1,1.9-1.188,2.1,2.1,0,0,1,1.556,2.122A1.43,1.43,0,0,1,4070.015,211.565Zm.3-2.828a1.015,1.015,0,0,0-1.3.613,1,1,0,0,0-.053.229,1.49,1.49,0,0,0,1.1,1.5,1.014,1.014,0,0,0,1.3-.612,1.055,1.055,0,0,0,.053-.23,1.49,1.49,0,0,0-1.1-1.5Z" transform="translate(-4068.457 -208.191)" fill="#d8d8d8"/>
              </g>
              <g id="Group_618" data-name="Group 618" transform="translate(0.711)">
                <path id="Path_460" data-name="Path 460" d="M4072.4,168.18c-.4-.107-.818-.518-.937-2.749a35.4,35.4,0,0,1,.2-5.267,33.181,33.181,0,0,1,.889-5.082c.567-2.046,1.05-2.213,1.448-2.106s.82.518.937,2.749a35.337,35.337,0,0,1-.2,5.267c-.07.654-.151,1.3-.245,1.916l-.752-.234c.092-.608.173-1.242.24-1.884a36.19,36.19,0,0,0,.213-4.836,7.5,7.5,0,0,0-.28-2.139,5.894,5.894,0,0,0-.7,1.873,34.174,34.174,0,0,0-.789,4.679,35.946,35.946,0,0,0-.213,4.835,6.664,6.664,0,0,0,.31,2.214l.576.482A.641.641,0,0,1,4072.4,168.18Z" transform="translate(-4071.44 -152.952)" fill="#a3a2a2"/>
              </g>
            </g>
            <g id="Group_622" data-name="Group 622" transform="translate(85.253 23.028)">
              <g id="Group_620" data-name="Group 620" transform="translate(0 13.168)">
                <path id="Path_461" data-name="Path 461" d="M4141.54,230.885a2.1,2.1,0,0,1-1.556-2.122,1.431,1.431,0,0,1,1.9-1.188,2.1,2.1,0,0,1,1.555,2.122A1.429,1.429,0,0,1,4141.54,230.885Zm.3-2.828a1.014,1.014,0,0,0-1.3.613,1.048,1.048,0,0,0-.053.229,1.489,1.489,0,0,0,1.1,1.5,1.014,1.014,0,0,0,1.3-.612,1,1,0,0,0,.053-.23A1.488,1.488,0,0,0,4141.837,228.057Z" transform="translate(-4139.982 -227.51)" fill="#d8d8d8"/>
              </g>
              <g id="Group_621" data-name="Group 621" transform="translate(0.711 0)">
                <path id="Path_462" data-name="Path 462" d="M4143.926,187.5c-.4-.107-.82-.518-.937-2.749a35.344,35.344,0,0,1,.2-5.267,33.064,33.064,0,0,1,.887-5.082c.567-2.046,1.05-2.213,1.447-2.106s.82.518.938,2.749a35.468,35.468,0,0,1-.2,5.267c-.068.654-.15,1.3-.244,1.916l-.751-.234c.091-.607.171-1.241.24-1.884a36.189,36.189,0,0,0,.212-4.836,7.468,7.468,0,0,0-.28-2.139,5.894,5.894,0,0,0-.7,1.873,33.942,33.942,0,0,0-.79,4.679,36.435,36.435,0,0,0-.213,4.835,6.719,6.719,0,0,0,.309,2.214l.575.482A.639.639,0,0,1,4143.926,187.5Z" transform="translate(-4142.966 -172.27)" fill="#a3a2a2"/>
              </g>
            </g>
          </g>
          <g id="Group_624" data-name="Group 624" transform="translate(7.557 18.082)">
            <path id="Path_474" data-name="Path 474" d="M3875.945,293.889l-.066,3.9a6.352,6.352,0,0,0,4.646,5.76l1.615.44c2.608.711,4.756-.718,4.8-3.189l.067-3.992a6.353,6.353,0,0,0-4.944-5.831l-1.616-.343C3877.955,290.1,3875.985,291.528,3875.945,293.889Z" transform="translate(-3844.934 -257.385)" fill="#c3d0de"/>
            <path id="Path_476" data-name="Path 476" d="M4148.434,447.464l-.066,3.9c-.042,2.471-2.19,3.9-4.8,3.189l-1.616-.439a6.351,6.351,0,0,1-4.645-5.76l.066-3.992c.044-2.582,2.379-4,5.1-3.1l1.613.536A6.339,6.339,0,0,1,4148.434,447.464Z" transform="translate(-4044.043 -371.983)" fill="#c3d0de"/>
            <path id="Path_479" data-name="Path 479" d="M3939.692,393.255l.066-3.9c.042-2.471,2.191-3.9,4.8-3.189l1.614.439a6.352,6.352,0,0,1,4.647,5.76l-.067,3.993c-.044,2.582-2.379,4-5.1,3.1l-1.614-.536A6.342,6.342,0,0,1,3939.692,393.255Z" transform="translate(-3893.535 -330.096)" fill="#c3d0de"/>
            <path id="Path_480" data-name="Path 480" d="M3746.067,340.566l.066-3.9c.042-2.471,2.191-3.9,4.8-3.189l1.616.44a6.353,6.353,0,0,1,4.646,5.76l-.068,3.992c-.044,2.582-2.379,4-5.1,3.1l-1.614-.536A6.341,6.341,0,0,1,3746.067,340.566Z" transform="translate(-3746.066 -289.967)" fill="#38c800"/>
            <path id="Path_483" data-name="Path 483" d="M3767.452,154.894h0a1.224,1.224,0,0,0,1.688-1.122l0-.161a2.232,2.232,0,0,0-1.635-2.026h0a1.224,1.224,0,0,0-1.688,1.122l0,.161A2.234,2.234,0,0,0,3767.452,154.894Z" transform="translate(-3761.109 -151.521)" fill="#241352" opacity="0.11"/>
            <path id="Path_484" data-name="Path 484" d="M3831.567,172.34h0a1.224,1.224,0,0,0,1.688-1.122l0-.161a2.232,2.232,0,0,0-1.635-2.027h0a1.224,1.224,0,0,0-1.688,1.122l0,.16A2.235,2.235,0,0,0,3831.567,172.34Z" transform="translate(-3809.939 -164.809)" fill="#241352" opacity="0.11"/>
            <path id="Path_485" data-name="Path 485" d="M3896.244,189.94h0a1.225,1.225,0,0,0,1.689-1.122l0-.16a2.236,2.236,0,0,0-1.636-2.027h0a1.223,1.223,0,0,0-1.687,1.122l0,.16A2.235,2.235,0,0,0,3896.244,189.94Z" transform="translate(-3859.199 -178.213)" fill="#241352" opacity="0.11"/>
            <path id="Path_486" data-name="Path 486" d="M3960.919,207.537h0a1.224,1.224,0,0,0,1.688-1.122l0-.161a2.235,2.235,0,0,0-1.636-2.027h0a1.224,1.224,0,0,0-1.688,1.122l0,.16A2.234,2.234,0,0,0,3960.919,207.537Z" transform="translate(-3908.457 -191.615)" fill="#241352" opacity="0.11"/>
            <path id="Path_487" data-name="Path 487" d="M4029.495,226.2h0a1.224,1.224,0,0,0,1.688-1.122l0-.161a2.234,2.234,0,0,0-1.635-2.027h0a1.224,1.224,0,0,0-1.688,1.122l0,.16A2.233,2.233,0,0,0,4029.495,226.2Z" transform="translate(-3960.686 -205.828)" fill="#241352" opacity="0.11"/>
            <path id="Path_488" data-name="Path 488" d="M4094.171,243.8h0a1.223,1.223,0,0,0,1.688-1.122l0-.16a2.234,2.234,0,0,0-1.635-2.027h0a1.224,1.224,0,0,0-1.688,1.122l0,.16A2.233,2.233,0,0,0,4094.171,243.8Z" transform="translate(-4009.946 -219.232)" fill="#241352" opacity="0.11"/>
            <path id="Path_489" data-name="Path 489" d="M4159.4,261.549h0a1.224,1.224,0,0,0,1.688-1.122l0-.16a2.236,2.236,0,0,0-1.635-2.027h0a1.224,1.224,0,0,0-1.688,1.122l0,.161A2.233,2.233,0,0,0,4159.4,261.549Z" transform="translate(-4059.622 -232.752)" fill="#241352" opacity="0.11"/>
          </g>
        </g>
        <g id="Group_1268" data-name="Group 1268" transform="translate(187.696 144.206)">
          <path id="Path_316" data-name="Path 316" d="M4142.884,292.278a11.272,11.272,0,0,1-5.15-1.749c-4.589-2.65-6.917-6.206-6.917-10.568,0-2.461.872-4.32,2.458-5.236s3.635-.741,5.764.49a16.359,16.359,0,0,1,7.4,12.812c0,1.865-.575,3.144-1.714,3.8A3.634,3.634,0,0,1,4142.884,292.278Zm-7.375-16.488a2.78,2.78,0,0,0-1.412.358c-1.055.609-1.636,1.961-1.636,3.81,0,3.734,2.052,6.811,6.095,9.147,2.378,1.373,4.378,1.856,5.345,1.3.591-.341.891-1.14.891-2.375a14.561,14.561,0,0,0-6.576-11.391A5.559,5.559,0,0,0,4135.509,275.79Z" transform="translate(-4039.421 -250.8)" fill="#38c800"/>
          <path id="Path_317" data-name="Path 317" d="M4165.74,285.4a.823.823,0,0,1-.638-.3c-4.061-4.962-12.136-8.584-12.215-8.62a.823.823,0,0,1,.667-1.505c.345.153,8.51,3.815,12.822,9.082a.823.823,0,0,1-.635,1.344Z" transform="translate(-4055.872 -251.384)" fill="#38c800"/>
          <path id="Path_315" data-name="Path 315" d="M3941.82,324.007l-3.247-5.27a.884.884,0,0,1,1.5-.937l.006.01,2.38,3.864,7.522-3.95a.884.884,0,0,1,.836,1.558l-.015.008Z" transform="translate(-3892.902 -283.732)" fill="#38c800"/>
          <path id="Path_463" data-name="Path 463" d="M4151.105,290.636l-.062,3.639c-.043,2.544-2.256,4.014-4.942,3.283l-1.334-.363a6.539,6.539,0,0,1-4.785-5.93l.063-3.719c.045-2.658,2.45-4.12,5.247-3.191l1.334.443A6.526,6.526,0,0,1,4151.105,290.636Z" transform="translate(-4046.401 -258.363)" fill="#241352" opacity="0.11"/>
          <path id="Path_464" data-name="Path 464" d="M4086.429,273.693l-.05,2.977c-.047,2.733-2.423,4.312-5.307,3.527l-.614-.167a7.024,7.024,0,0,1-5.139-6.37l.051-3.014c.049-2.855,2.631-4.426,5.637-3.427l.613.2A7.009,7.009,0,0,1,4086.429,273.693Z" transform="translate(-3997.152 -245.296)" fill="#241352" opacity="0.11"/>
          <path id="Path_465" data-name="Path 465" d="M4010.659,252.477l-.066,3.9a6.353,6.353,0,0,0,4.646,5.76l1.616.439c2.608.711,4.756-.718,4.8-3.189l.068-3.993a6.356,6.356,0,0,0-4.944-5.831l-1.616-.343C4012.67,248.688,4010.7,250.116,4010.659,252.477Z" transform="translate(-3947.856 -231.731)" fill="#241352" opacity="0.11"/>
          <path id="Path_466" data-name="Path 466" d="M3942.362,236.166l.066-3.9c.042-2.471,2.19-3.9,4.8-3.189l1.615.44a6.353,6.353,0,0,1,4.646,5.76l-.068,3.992c-.044,2.582-2.379,4-5.1,3.1l-1.613-.536A6.336,6.336,0,0,1,3942.362,236.166Z" transform="translate(-3895.889 -216.34)" fill="#241352" opacity="0.11"/>
          <path id="Path_467" data-name="Path 467" d="M3748.734,183.48l.067-3.9c.042-2.471,2.19-3.9,4.8-3.189l1.615.439a6.353,6.353,0,0,1,4.647,5.76l-.068,3.993c-.045,2.582-2.378,4-5.1,3.1l-1.613-.536A6.339,6.339,0,0,1,3748.734,183.48Z" transform="translate(-3748.419 -176.213)" fill="#241352" opacity="0.11"/>
          <path id="Path_468" data-name="Path 468" d="M3877.261,216.18l-.067,3.9a6.353,6.353,0,0,0,4.647,5.76l1.615.439c2.608.711,4.757-.718,4.8-3.189l.068-3.993a6.357,6.357,0,0,0-4.945-5.831l-1.616-.343C3879.271,212.391,3877.3,213.818,3877.261,216.18Z" transform="translate(-3846.256 -204.086)" fill="#241352" opacity="0.11"/>
          <path id="Path_469" data-name="Path 469" d="M3813.016,198.7l-.066,3.9a6.354,6.354,0,0,0,4.647,5.76l1.615.439c2.608.711,4.757-.718,4.8-3.189l.068-3.993a6.355,6.355,0,0,0-4.944-5.831l-1.616-.343C3815.027,194.909,3813.056,196.336,3813.016,198.7Z" transform="translate(-3797.327 -190.771)" fill="#241352" opacity="0.11"/>
          <path id="Path_470" data-name="Path 470" d="M4149.782,368.087l-.067,3.9c-.043,2.471-2.19,3.9-4.8,3.189l-1.616-.44a6.35,6.35,0,0,1-4.645-5.76l.067-3.992c.044-2.582,2.379-4,5.1-3.1l1.614.536A6.342,6.342,0,0,1,4149.782,368.087Z" transform="translate(-4045.39 -317.415)" fill="#241352" opacity="0.11"/>
          <path id="Path_471" data-name="Path 471" d="M4085.09,350.489l-.067,3.9c-.041,2.471-2.19,3.9-4.8,3.189l-1.615-.439a6.352,6.352,0,0,1-4.646-5.76l.068-3.993c.043-2.582,2.378-4,5.1-3.1l1.614.536A6.339,6.339,0,0,1,4085.09,350.489Z" transform="translate(-3996.119 -304.011)" fill="#241352" opacity="0.11"/>
          <path id="Path_472" data-name="Path 472" d="M4009.341,330.188l-.066,3.9a6.35,6.35,0,0,0,4.646,5.76l1.615.44c2.609.711,4.757-.718,4.8-3.189l.068-3.992a6.355,6.355,0,0,0-4.944-5.831l-1.617-.343C4011.352,326.4,4009.381,327.826,4009.341,330.188Z" transform="translate(-3946.852 -290.917)" fill="#241352" opacity="0.11"/>
          <path id="Path_473" data-name="Path 473" d="M3747.414,261.2l.066-3.9c.042-2.471,2.191-3.9,4.8-3.189l1.615.44a6.353,6.353,0,0,1,4.647,5.76l-.068,3.992c-.044,2.582-2.38,4-5.1,3.1l-1.613-.536A6.341,6.341,0,0,1,3747.414,261.2Z" transform="translate(-3747.413 -235.404)" fill="#241352" opacity="0.11"/>
          <path id="Path_475" data-name="Path 475" d="M3811.7,276.407l-.066,3.9a6.351,6.351,0,0,0,4.647,5.76l1.614.44c2.608.711,4.757-.718,4.8-3.189l.068-3.992a6.356,6.356,0,0,0-4.945-5.831l-1.617-.343C3813.707,272.618,3811.737,274.046,3811.7,276.407Z" transform="translate(-3796.322 -249.957)" fill="#241352" opacity="0.11"/>
          <path id="Path_477" data-name="Path 477" d="M4083.742,429.86l-.066,3.9c-.042,2.471-2.191,3.9-4.8,3.189l-1.615-.44a6.352,6.352,0,0,1-4.646-5.76l.067-3.993c.044-2.582,2.379-4,5.1-3.1l1.613.536A6.337,6.337,0,0,1,4083.742,429.86Z" transform="translate(-3995.093 -364.462)" fill="#241352" opacity="0.11"/>
          <path id="Path_478" data-name="Path 478" d="M4007.992,409.563l-.066,3.9a6.354,6.354,0,0,0,4.647,5.76l1.615.439c2.608.711,4.757-.718,4.8-3.189l.067-3.992a6.353,6.353,0,0,0-4.944-5.831l-1.616-.343C4010,405.774,4008.033,407.2,4007.992,409.563Z" transform="translate(-3945.825 -351.371)" fill="#241352" opacity="0.11"/>
          <path id="Path_481" data-name="Path 481" d="M3874.594,373.263l-.066,3.9a6.353,6.353,0,0,0,4.646,5.76l1.616.44c2.607.711,4.756-.718,4.8-3.189l.067-3.992a6.356,6.356,0,0,0-4.944-5.831L3879.1,370C3876.6,369.474,3874.634,370.9,3874.594,373.263Z" transform="translate(-3844.225 -323.724)" fill="#241352" opacity="0.11"/>
          <path id="Path_482" data-name="Path 482" d="M3810.35,355.782l-.067,3.9a6.353,6.353,0,0,0,4.647,5.76l1.615.44c2.609.711,4.757-.718,4.8-3.189l.065-3.991a6.356,6.356,0,0,0-4.944-5.831l-1.617-.343C3812.36,351.994,3810.388,353.422,3810.35,355.782Z" transform="translate(-3795.295 -310.411)" fill="#241352" opacity="0.11"/>
        </g>
      </g>
    </g>
  </g>
</svg>
