<svg xmlns="http://www.w3.org/2000/svg" width="136.236" height="552.187" viewBox="0 0 136.236 552.187">
  <g id="Group_2630" data-name="Group 2630" transform="translate(-658.392 -155.659)">
    <g id="Group_2612" data-name="Group 2612" transform="translate(-576 66.705)">
      <g id="Group_2594" data-name="Group 2594" transform="translate(1234.392 560.093)" opacity="0.527">
        <path id="Path_913" data-name="Path 913" d="M-962.5,1252.377a3.417,3.417,0,0,0-2.9-4.212l-64.039-11.781a3.418,3.418,0,0,0-4.212,2.9l-1.309,7.115,71.154,13.091Z" transform="translate(1044.199 -1231.231)" fill="#0082f5"/>
        <path id="Path_914" data-name="Path 914" d="M-1065.712,1236.382l64.039,11.782a3.417,3.417,0,0,1,2.9,4.212l-10.472,56.923a3.417,3.417,0,0,1-4.212,2.9l-64.039-11.781a3.418,3.418,0,0,1-2.9-4.212l10.473-56.923A3.418,3.418,0,0,1-1065.712,1236.382Z" transform="translate(1080.472 -1231.23)" fill="#0082f5" opacity="0.1"/>
        <g id="Group_1047" data-name="Group 1047" transform="translate(24.124 0)">
          <rect id="Rectangle_729" data-name="Rectangle 729" width="14.47" height="7.235" transform="translate(17.789 17.503) rotate(-79.576)" fill="#0082f5"/>
          <rect id="Rectangle_730" data-name="Rectangle 730" width="14.47" height="7.235" transform="translate(35.577 20.776) rotate(-79.576)" fill="#0082f5"/>
          <rect id="Rectangle_731" data-name="Rectangle 731" width="14.47" height="7.235" transform="translate(0 14.231) rotate(-79.576)" fill="#0082f5"/>
        </g>
        <g id="Group_1048" data-name="Group 1048" transform="translate(15.615 24.904)" opacity="0.26">
          <rect id="Rectangle_732" data-name="Rectangle 732" width="7.235" height="7.235" transform="translate(5.236 7.115) rotate(-79.576)" fill="#0082f5"/>
          <rect id="Rectangle_733" data-name="Rectangle 733" width="7.235" height="7.235" transform="translate(23.025 10.388) rotate(-79.576)" fill="#0082f5"/>
          <rect id="Rectangle_734" data-name="Rectangle 734" width="7.235" height="7.235" transform="translate(40.813 13.661) rotate(-79.576)" fill="#0082f5"/>
          <rect id="Rectangle_735" data-name="Rectangle 735" width="7.235" height="7.235" transform="translate(2.618 21.346) rotate(-79.576)" fill="#0082f5"/>
          <rect id="Rectangle_736" data-name="Rectangle 736" width="7.235" height="7.235" transform="translate(20.407 24.619) rotate(-79.576)" fill="#0082f5"/>
          <rect id="Rectangle_737" data-name="Rectangle 737" width="7.235" height="7.235" transform="translate(38.486 27.945) rotate(-79.576)" fill="#0082f5"/>
          <rect id="Rectangle_738" data-name="Rectangle 738" width="7.235" height="7.235" transform="translate(0 35.577) rotate(-79.576)" fill="#0082f5"/>
          <rect id="Rectangle_739" data-name="Rectangle 739" width="7.235" height="7.235" transform="translate(17.854 38.494) rotate(-79.576)" fill="#0082f5"/>
          <rect id="Rectangle_740" data-name="Rectangle 740" width="7.235" height="7.235" transform="translate(36.269 41.882) rotate(-79.576)" fill="#0082f5"/>
        </g>
      </g>
      <g id="Group_2595" data-name="Group 2595" transform="translate(1290.334 492.796)" opacity="0.527">
        <path id="Path_922" data-name="Path 922" d="M-600.4,751.942l2.64-1.023a.254.254,0,0,0,.162-.241.254.254,0,0,0-.17-.236l-2.672-.936a7.832,7.832,0,0,1-4.714-4.562l-1.023-2.64a.254.254,0,0,0-.241-.162.254.254,0,0,0-.236.17l-.936,2.672a7.832,7.832,0,0,1-4.562,4.714l-2.64,1.023a.255.255,0,0,0-.162.241.255.255,0,0,0,.17.236l2.672.936A7.832,7.832,0,0,1-607.4,756.7l1.023,2.64a.254.254,0,0,0,.241.162.254.254,0,0,0,.236-.17l.936-2.672A7.83,7.83,0,0,1-600.4,751.942Z" transform="translate(652.596 -710.517)" fill="#0082f5"/>
        <path id="Path_923" data-name="Path 923" d="M-640.029,531.025l-.7,2a5.86,5.86,0,0,1-3.414,3.528l-1.975.766a.19.19,0,0,0-.121.181.19.19,0,0,0,.127.176l2,.7a5.861,5.861,0,0,1,3.528,3.414l.765,1.976a.19.19,0,0,0,.181.121.19.19,0,0,0,.176-.127l.7-2a5.861,5.861,0,0,1,3.414-3.527l1.976-.766a.189.189,0,0,0,.121-.18.19.19,0,0,0-.127-.176l-2-.7a5.861,5.861,0,0,1-3.527-3.414l-.766-1.976a.19.19,0,0,0-.181-.121A.19.19,0,0,0-640.029,531.025Z" transform="translate(679.201 -530.898)" fill="#0082f5"/>
        <path id="Path_924" data-name="Path 924" d="M-456.067,681.573l-.444,1.267a3.712,3.712,0,0,1-2.162,2.234l-1.251.485a.121.121,0,0,0-.077.114.12.12,0,0,0,.081.112l1.266.444a3.712,3.712,0,0,1,2.234,2.162l.485,1.252a.12.12,0,0,0,.114.077.121.121,0,0,0,.112-.081l.444-1.267a3.712,3.712,0,0,1,2.163-2.234l1.251-.485a.12.12,0,0,0,.077-.114.121.121,0,0,0-.08-.112l-1.267-.444a3.714,3.714,0,0,1-2.235-2.163l-.485-1.251a.121.121,0,0,0-.114-.077A.121.121,0,0,0-456.067,681.573Z" transform="translate(520.843 -658.947)" fill="#0082f5"/>
        <path id="Path_925" data-name="Path 925" d="M-709.575,979.716l-.444,1.267a3.712,3.712,0,0,1-2.162,2.234l-1.251.485a.12.12,0,0,0-.077.114.12.12,0,0,0,.08.112l1.267.444a3.713,3.713,0,0,1,2.234,2.162l.485,1.252a.121.121,0,0,0,.114.077.121.121,0,0,0,.112-.081l.444-1.267a3.713,3.713,0,0,1,2.163-2.235l1.251-.485a.12.12,0,0,0,.077-.114.121.121,0,0,0-.081-.112l-1.267-.444a3.713,3.713,0,0,1-2.235-2.162l-.485-1.252a.12.12,0,0,0-.114-.077A.12.12,0,0,0-709.575,979.716Z" transform="translate(736.399 -912.457)" fill="#0082f5"/>
        <path id="Path_926" data-name="Path 926" d="M-862.472,646.433l-.444,1.267a3.711,3.711,0,0,1-2.162,2.234l-1.251.485a.12.12,0,0,0-.077.114.12.12,0,0,0,.081.112l1.266.444a3.713,3.713,0,0,1,2.235,2.163l.485,1.252a.12.12,0,0,0,.114.077.12.12,0,0,0,.112-.081l.444-1.267A3.713,3.713,0,0,1-859.507,651l1.251-.485a.121.121,0,0,0,.077-.114.121.121,0,0,0-.081-.112l-1.266-.444a3.712,3.712,0,0,1-2.235-2.163l-.485-1.251a.12.12,0,0,0-.114-.077A.12.12,0,0,0-862.472,646.433Z" transform="translate(866.406 -629.068)" fill="#0082f5"/>
        <path id="Path_927" data-name="Path 927" d="M-394.242,889.21l-.558,1.593a4.671,4.671,0,0,1-2.72,2.811l-1.574.61a.152.152,0,0,0-.1.144.152.152,0,0,0,.1.141l1.593.558a4.67,4.67,0,0,1,2.811,2.72l.61,1.574a.151.151,0,0,0,.144.1.151.151,0,0,0,.141-.1l.558-1.593a4.671,4.671,0,0,1,2.72-2.811l1.574-.61a.151.151,0,0,0,.1-.144.151.151,0,0,0-.1-.141l-1.594-.558a4.671,4.671,0,0,1-2.811-2.72l-.61-1.574a.152.152,0,0,0-.144-.1A.151.151,0,0,0-394.242,889.21Z" transform="translate(469.137 -835.482)" fill="#0082f5"/>
      </g>
    </g>
    <g id="Group_2614" data-name="Group 2614" transform="translate(-579 17.155)">
      <g id="Group_2597" data-name="Group 2597" transform="translate(1324.815 367.092)" opacity="0.527">
        <circle id="Ellipse_146" data-name="Ellipse 146" cx="9.369" cy="9.369" r="9.369" transform="translate(0)" fill="#2dca00"/>
        <g id="Group_1050" data-name="Group 1050" transform="translate(3.248 6.442)">
          <path id="Path_915" data-name="Path 915" d="M-811.573,1727.187l-2.222-4.109a.517.517,0,0,1,.209-.7.517.517,0,0,1,.7.209l1.7,3.14,9.178-5.763a.516.516,0,0,1,.712.163.516.516,0,0,1-.163.712Z" transform="translate(813.857 -1719.884)" fill="#fff"/>
        </g>
      </g>
      <path id="Path_1731" data-name="Path 1731" d="M4047.813-524.007a4.585,4.585,0,0,0-4.845-.745l-6.571-7.513a6.57,6.57,0,0,0,1.4-4.82l9.528-2.414a5.41,5.41,0,0,0,1.32,1.727,5.466,5.466,0,0,0,7.7-.524,5.466,5.466,0,0,0-.524-7.7,5.466,5.466,0,0,0-7.7.525,5.432,5.432,0,0,0-1.338,3.356l-9.806,2.484a6.576,6.576,0,0,0-1.4-1.705,6.6,6.6,0,0,0-9.3.633,6.6,6.6,0,0,0,.634,9.3,6.6,6.6,0,0,0,7.344.9l6.63,7.581a4.586,4.586,0,0,0,.9,5.827,4.584,4.584,0,0,0,6.461-.44A4.585,4.585,0,0,0,4047.813-524.007Z" transform="translate(-2787.027 862.188)" fill="#dfedfa" opacity="0.667"/>
    </g>
    <g id="Group_2613" data-name="Group 2613" transform="translate(699.564 166.638) rotate(-16)" opacity="0.527">
      <g id="Group_1275" data-name="Group 1275" transform="translate(10.707 7.616)">
        <path id="Path_1119" data-name="Path 1119" d="M4498.563-421.166a6.4,6.4,0,0,1,7.373-.38l-9.473,7.458A6.4,6.4,0,0,1,4498.563-421.166Z" transform="translate(-4496.126 422.535)" fill="#0082f5"/>
      </g>
      <g id="Group_1276" data-name="Group 1276">
        <path id="Rectangle_808" data-name="Rectangle 808" d="M4.681,0h6.63a0,0,0,0,1,0,0V15.245a0,0,0,0,1,0,0H4.681A4.681,4.681,0,0,1,0,10.564V4.681A4.681,4.681,0,0,1,4.681,0Z" transform="matrix(-0.619, -0.786, 0.786, -0.619, 34.875, 49.043)" fill="#dfedfa"/>
        <rect id="Rectangle_809" data-name="Rectangle 809" width="6.165" height="15.245" transform="translate(31.692 45) rotate(-128.214)" fill="#0082f5"/>
        <path id="Path_1120" data-name="Path 1120" d="M4464.439-420.369l31.382-24.707a41.01,41.01,0,0,0,8.451,30.693l-11.981,9.431A41.015,41.015,0,0,0,4464.439-420.369Z" transform="translate(-4464.439 445.076)" fill="#dfedfa"/>
        <path id="Path_1121" data-name="Path 1121" d="M4517.785-321.387l-14.73,9.5a1.47,1.47,0,0,1-1.809-.407l-3.661-4.658a1.47,1.47,0,0,1,.5-2.226l15.947-6.971Z" transform="translate(-4486.175 366.335)" fill="#0082f5"/>
      </g>
    </g>
  </g>
</svg>
