<?xml version="1.0" encoding="UTF-8" standalone="no"?>
<!-- Generator: Adobe Illustrator 19.0.0, SVG Export Plug-In . SVG Version: 6.00 Build 0)  -->

<svg
   xmlns:dc="http://purl.org/dc/elements/1.1/"
   xmlns:cc="http://creativecommons.org/ns#"
   xmlns:rdf="http://www.w3.org/1999/02/22-rdf-syntax-ns#"
   xmlns:svg="http://www.w3.org/2000/svg"
   xmlns="http://www.w3.org/2000/svg"
   xmlns:sodipodi="http://sodipodi.sourceforge.net/DTD/sodipodi-0.dtd"
   xmlns:inkscape="http://www.inkscape.org/namespaces/inkscape"
   version="1.1"
   id="Layer_1"
   x="0px"
   y="0px"
   viewBox="0 0 512.00001 1024"
   xml:space="preserve"
   sodipodi:docname="left-chevron.svg"
   width="512"
   height="1024"
   inkscape:version="0.92.4 (5da689c313, 2019-01-14)"><metadata
   id="metadata11"><rdf:RDF><cc:Work
       rdf:about=""><dc:format>image/svg+xml</dc:format><dc:type
         rdf:resource="http://purl.org/dc/dcmitype/StillImage" /><dc:title></dc:title></cc:Work></rdf:RDF></metadata><defs
   id="defs9" /><sodipodi:namedview
   pagecolor="#ffffff"
   bordercolor="#666666"
   borderopacity="1"
   objecttolerance="10"
   gridtolerance="10"
   guidetolerance="10"
   inkscape:pageopacity="0"
   inkscape:pageshadow="2"
   inkscape:window-width="1600"
   inkscape:window-height="836"
   id="namedview7"
   showgrid="false"
   inkscape:zoom="0.46126093"
   inkscape:cx="255.8205"
   inkscape:cy="515.97693"
   inkscape:window-x="0"
   inkscape:window-y="0"
   inkscape:window-maximized="1"
   inkscape:current-layer="Layer_1" />
<g
   id="g4"
   transform="matrix(1.455614,0,0,1.9957612,-55.852352,2.886238)">
		<path
   d="M 148.32,255.76 386.08,18 c 4.053,-4.267 3.947,-10.987 -0.213,-15.04 -4.16,-3.947 -10.667,-3.947 -14.827,0 L 125.707,248.293 c -4.16,4.16 -4.16,10.88 0,15.04 L 371.04,508.667 c 4.267,4.053 10.987,3.947 15.04,-0.213 3.947,-4.16 3.947,-10.667 0,-14.827 z"
   id="path2"
   inkscape:connector-curvature="0"
   style="fill:#707070" />

</g>
</svg>