<svg xmlns="http://www.w3.org/2000/svg" xmlns:xlink="http://www.w3.org/1999/xlink" width="223.227" height="193.999" viewBox="0 0 223.227 193.999">
  <defs>
    <clipPath id="clip-path">
      <path id="Path_4091" data-name="Path 4091" d="M233.17,241.606l94.535-35.94a101.147,101.147,0,0,1,6.6,35.94c0,55.482-45.655,101.137-101.137,101.137S132.033,297.088,132.033,241.606a101.145,101.145,0,0,1,16.438-55.268Z" transform="translate(-132.033 -186.338)" fill="#553ac7"/>
    </clipPath>
  </defs>
  <g id="Group_9969" data-name="Group 9969" transform="translate(-233.385 -171.269)">
    <g id="Group_9905" data-name="Group 9905" transform="translate(126 34.83)">
      <g id="Group_9888" data-name="Group 9888" transform="translate(128.339 171.527)">
        <path id="Path_4090" data-name="Path 4090" d="M233.17,241.606l94.535-35.94a101.147,101.147,0,0,1,6.6,35.94c0,55.482-45.655,101.137-101.137,101.137S132.033,297.088,132.033,241.606a101.145,101.145,0,0,1,16.438-55.268Z" transform="translate(-132.033 -186.338)" fill="#0089e1"/>
        <g id="Group_9887" data-name="Group 9887" clip-path="url(#clip-path)">
          <path id="Path_4166" data-name="Path 4166" d="M11.519,0c6.362,0,11.519,51.671,11.519,115.41s-5.157,115.41-11.519,115.41S0,179.149,0,115.41,5.157,0,11.519,0Z" transform="translate(2.742 108.689) rotate(-89.753)" fill="#0e76b9"/>
        </g>
      </g>
      <g id="Group_9899" data-name="Group 9899" transform="translate(140.999 139.582)">
        <g id="Group_9898" data-name="Group 9898" transform="translate(0 26.089)">
          <path id="Path_4108" data-name="Path 4108" d="M309.266,181.12s-2.775,22.945,2.669,42.675c8.271,29.967,26.7,39.68,26.7,39.68l-115.833-14.8s-17.735-9.193-26.625-25.08c-6.717-12-11.1-30.562-11.1-30.562Z" transform="translate(-160.439 -178.933)" fill="#d7e7ee"/>
          <path id="Path_4109" data-name="Path 4109" d="M305.707,178.692s-5.661,24.874-2.257,50.874,18.1,46.835,18.1,46.835L201.182,263.168a66.9,66.9,0,0,1-19.66-30.887c-5.481-19.35,0-41.672,0-41.672Z" transform="translate(-158.66 -178.213)" fill="#f0f4f6"/>
          <path id="Path_4110" data-name="Path 4110" d="M292.926,178.01l-.814,3.884L270.4,284.756,150.038,271.523l4.459-19.5,5.087-22.189,5.932-25.86,3.225-14.05Z" transform="translate(-150.038 -178.01)" fill="#fff"/>
          <path id="Path_4111" data-name="Path 4111" d="M213.158,262.324,156.379,273.9l5.087-22.189,47.859,3.977Z" transform="translate(-151.92 -199.887)" fill="#d7e7ee"/>
          <path id="Path_4113" data-name="Path 4113" d="M277.183,234.074v-.643l-10.24-.012,4.5-20.686,10.616-.35-.021-.642-10.454.344,3.953-18.165-.628-.137-3.988,18.324-19.628.647,3.753-17.28-.628-.137-3.787,17.439-18.572.612,3.573-16.443-.629-.136-3.607,16.6-20.083.661,3.467-15.543-.627-.14-3.5,15.7-19.047.627,3.18-14.678-.629-.136-3.214,14.836-8.606.284.021.642,8.445-.278-3.886,17.938-8.517-.01v.643l8.378.01L183.2,250.481l-8.411-.369-.028.643,8.3.364-3.749,17.3.628.136,3.772-17.41,18.492.811-4.011,17.98.628.14,4.036-18.092,19.969.875-4.07,18.732.628.136,4.093-18.84,18.269.8L237.528,273.1l.628.137,4.24-19.521,19.286.846L257.3,274.7l.628.137,4.4-20.238,11.217.492.028-.643-11.107-.487,4.329-19.894Zm-6.4-21.318-4.5,20.663L246.81,233.4l4.343-19.994Zm-20.291.668L246.153,233.4l-18.437-.021,4.2-19.339Zm-19.234.634-4.2,19.316-20.046-.023,4.157-18.632Zm-39.793,1.311,19.043-.627-4.152,18.609-18.783-.022Zm-7.613,35.141,3.583-16.538,18.779.022-3.865,17.327Zm19.148.84,3.872-17.355,20.049.023-3.956,18.208Zm20.617.9,3.962-18.236,18.436.021-4.13,19.015Zm38.207,1.676-19.286-.846,4.135-19.044,19.474.022Z" transform="translate(-157.375 -182.692)" fill="#67abdf"/>
          <g id="Group_9897" data-name="Group 9897" transform="translate(70.185 32.892)">
            <path id="Path_4114" data-name="Path 4114" d="M323.405,232.064a2.374,2.374,0,1,1-2.356-2.392A2.374,2.374,0,0,1,323.405,232.064Z" transform="translate(-270.272 -226.236)" fill="#fff"/>
            <path id="Path_4115" data-name="Path 4115" d="M314.36,241.653a1.187,1.187,0,1,1-1.178-1.2A1.187,1.187,0,0,1,314.36,241.653Z" transform="translate(-268.292 -229.437)" fill="#fff"/>
            <path id="Path_4116" data-name="Path 4116" d="M253.431,292.9a1.791,1.791,0,1,1-1.778-1.805A1.791,1.791,0,0,1,253.431,292.9Z" transform="translate(-249.848 -244.468)" fill="#fff"/>
            <path id="Path_4117" data-name="Path 4117" d="M273.517,225.924a1.13,1.13,0,1,1-1.122-1.138A1.131,1.131,0,0,1,273.517,225.924Z" transform="translate(-256.202 -224.786)" fill="#fff"/>
          </g>
        </g>
        <g id="Group_9896" data-name="Group 9896" transform="translate(59.386 20.467)">
          <g id="Group_9891" data-name="Group 9891" transform="translate(0 4.36)">
            <path id="Path_4097" data-name="Path 4097" d="M240.313,167.922a1.578,1.578,0,1,1-1.079-2.228A1.776,1.776,0,0,1,240.313,167.922Z" transform="translate(-235.312 -155.084)" fill="#adeca2"/>
            <g id="Group_9890" data-name="Group 9890">
              <path id="Path_4098" data-name="Path 4098" d="M246.178,156.258l-2.088.316c-.309-2.187-1.856-3.846-3.713-3.846-2.081,0-3.776,2.088-3.776,4.662a1.815,1.815,0,0,0,.021.338,4.917,4.917,0,0,0,1.463,3.354,1.055,1.055,0,0,1,.042,1.491,1.054,1.054,0,0,1-1.491.042,7.071,7.071,0,0,1-2.117-4.564c-.021-.218-.028-.436-.028-.661,0-3.734,2.644-6.772,5.886-6.772C243.288,150.618,245.714,153.065,246.178,156.258Z" transform="translate(-234.491 -150.618)" fill="#67abdf"/>
            </g>
            <path id="Path_4099" data-name="Path 4099" d="M238.925,151.756c.195.3-.053.806-.556,1.136s-1.068.357-1.264.06.053-.807.556-1.137S238.729,151.458,238.925,151.756Z" transform="translate(-235.247 -150.894)" fill="#fff"/>
            <path id="Path_4100" data-name="Path 4100" d="M237.44,154.627a.457.457,0,1,1-.584-.068A.42.42,0,0,1,237.44,154.627Z" transform="translate(-235.127 -151.762)" fill="#fff"/>
          </g>
          <g id="Group_9893" data-name="Group 9893" transform="translate(14.879 2.18)">
            <path id="Path_4101" data-name="Path 4101" d="M261.474,164.826A1.578,1.578,0,1,1,260.4,162.6,1.775,1.775,0,0,1,261.474,164.826Z" transform="translate(-256.473 -151.985)" fill="#adeca2"/>
            <g id="Group_9892" data-name="Group 9892">
              <path id="Path_4102" data-name="Path 4102" d="M267.324,153.038l-2.081.323c-.345-2.131-1.877-3.734-3.706-3.734-2.081,0-3.776,2.088-3.776,4.662a1.212,1.212,0,0,0,.014.225,4.976,4.976,0,0,0,1.47,3.474,1.055,1.055,0,0,1-.724,1.821,1.04,1.04,0,0,1-.724-.3,7.1,7.1,0,0,1-2.124-4.676q-.021-.274-.021-.548c0-3.734,2.644-6.772,5.886-6.772C264.413,147.518,266.818,149.9,267.324,153.038Z" transform="translate(-255.651 -147.518)" fill="#67abdf"/>
            </g>
            <path id="Path_4103" data-name="Path 4103" d="M260.3,149.177a.649.649,0,1,1-.828-.1A.595.595,0,0,1,260.3,149.177Z" transform="translate(-256.692 -147.946)" fill="#fff"/>
          </g>
          <g id="Group_9895" data-name="Group 9895" transform="translate(29.759)">
            <path id="Path_4104" data-name="Path 4104" d="M282.636,161.729a1.578,1.578,0,1,1-1.079-2.229A1.776,1.776,0,0,1,282.636,161.729Z" transform="translate(-277.633 -148.886)" fill="#adeca2"/>
            <g id="Group_9894" data-name="Group 9894">
              <path id="Path_4105" data-name="Path 4105" d="M288.47,149.825v.007l-2.088.316a4.047,4.047,0,0,0-3.678-3.621c-2.088,0-3.783,2.1-3.783,4.662a.606.606,0,0,0,.007.113,5.019,5.019,0,0,0,1.477,3.586,1.055,1.055,0,1,1-1.449,1.533,7.109,7.109,0,0,1-2.131-4.8c-.007-.148-.014-.288-.014-.436,0-3.734,2.644-6.772,5.893-6.772C285.538,144.418,287.921,146.746,288.47,149.825Z" transform="translate(-276.811 -144.418)" fill="#67abdf"/>
            </g>
            <path id="Path_4106" data-name="Path 4106" d="M280.818,146.226c.136.207.01.532-.283.724a.566.566,0,0,1-.777-.027c-.136-.207-.009-.532.283-.724A.565.565,0,0,1,280.818,146.226Z" transform="translate(-277.669 -144.906)" fill="#fff"/>
            <path id="Path_4107" data-name="Path 4107" d="M282.4,146.374c.07.106,0,.272-.146.371a.29.29,0,0,1-.4-.013c-.07-.107,0-.273.145-.371A.291.291,0,0,1,282.4,146.374Z" transform="translate(-278.302 -144.974)" fill="#fff"/>
          </g>
        </g>
      </g>
      <g id="Group_9903" data-name="Group 9903" transform="translate(119.587 136.439)">
        <path id="Path_4118" data-name="Path 4118" d="M240.754,258.6a6.517,6.517,0,0,0-5.123-3.281c-2.247-.317-5.385-.06-7.068,1.635a.9.9,0,0,0,.854,1.493c.858-.2,1.636-.612,2.5-.828a9.134,9.134,0,0,1,2.624-.276,5.494,5.494,0,0,1,4.094,1.78c1.86,2.406.477,6.106-1.117,8.263a13.371,13.371,0,0,1-7.251,4.789c-3.117.835-7.526.606-8.795-2.987-1.478-4.189,2.436-7.427,4.942-10.124.067-.072-.018-.2-.108-.143-3.244,2.113-6.629,5.472-6.3,9.692.339,4.377,4.933,6.2,8.787,5.74a15.423,15.423,0,0,0,9.762-5.145C240.921,266.423,242.493,262.1,240.754,258.6Z" transform="translate(-149.385 -171.689)" fill="#47c431"/>
        <g id="Group_9902" data-name="Group 9902">
          <path id="Path_4119" data-name="Path 4119" d="M231.984,264.38l.287,2.813a1.6,1.6,0,0,1-2.062,1.711l-2.711-.8c.752-.514,1.536-1.11,2.321-1.761S231.339,265.024,231.984,264.38Z" transform="translate(-151.616 -174.414)" fill="#001552"/>
          <path id="Path_4120" data-name="Path 4120" d="M226.933,250.084l.56,5.556.459,4.5c-.645.644-1.375,1.305-2.166,1.96s-1.57,1.247-2.321,1.761l-4.341-1.279-5.21-1.534,6.054-5.962Z" transform="translate(-147.585 -170.171)" fill="#feafab"/>
          <path id="Path_4121" data-name="Path 4121" d="M143.295,149.069l58.439,70.469c.853,1.029-.286,3.444-2.626,5.932a24.108,24.108,0,0,1-4.471,3.708c-2.873,1.835-5.463,2.512-6.316,1.483l-58.439-70.469Z" transform="translate(-122.643 -140.188)" fill="#6e6e6e"/>
          <path id="Path_4122" data-name="Path 4122" d="M134.353,159.615l60.284,72.693c-2.873,1.835-5.463,2.512-6.316,1.483l-58.439-70.469Z" transform="translate(-122.643 -143.318)" fill="#0a81cc"/>
          <path id="Path_4123" data-name="Path 4123" d="M140.711,154.342l60.284,72.693a24.109,24.109,0,0,1-4.471,3.708L136.24,158.05Z" transform="translate(-124.53 -141.753)" fill="#67abdf"/>
          <path id="Path_4124" data-name="Path 4124" d="M147.069,149.069l58.439,70.469c.853,1.029-.286,3.444-2.626,5.932L142.6,152.777Z" transform="translate(-126.417 -140.188)" fill="#8cc8f5"/>
          <path id="Path_4125" data-name="Path 4125" d="M135.018,152.7c-3.705,3.072-6.036,6.373-5.208,7.372l.319.384.579.7.319.384c.828,1,4.5-.681,8.208-3.754s6.037-6.374,5.208-7.373l-.319-.384-.579-.7-.319-.384C142.4,147.947,138.723,149.628,135.018,152.7Z" transform="translate(-122.572 -140.066)" fill="#fff"/>
          <path id="Path_4126" data-name="Path 4126" d="M139.906,152.109a.186.186,0,0,1-.035.042c-.127.155-.26.309-.394.457s-.288.323-.436.478c-.218.232-.436.45-.661.668-.436.429-.914.858-1.413,1.273-2.763,2.292-5.625,3.657-7.362,3.657a1.821,1.821,0,0,1-1.16-.331,6.658,6.658,0,0,1-3.024-4.416l6.308-5.232,6.308-5.232a6.468,6.468,0,0,1,1.575.879,6.554,6.554,0,0,1,2.208,2.9l-.007.007C142.339,148.242,141.558,150.1,139.906,152.109Z" transform="translate(-121.318 -138.527)" fill="#feafab"/>
          <g id="Group_9900" data-name="Group 9900" transform="translate(9.335 5.826)">
            <path id="Path_4127" data-name="Path 4127" d="M142.115,152.48a.186.186,0,0,1-.035.042c-.127.155-.26.309-.394.457s-.288.323-.436.478c-.218.232-.436.45-.661.668a24.193,24.193,0,0,1-5.161,3.776,1.758,1.758,0,1,1-1.617-3.122,20.785,20.785,0,0,0,3.748-2.637c1.885-1.652,3.818-3.994,4.064-6.758a1.723,1.723,0,0,1,.2-.661,6.554,6.554,0,0,1,2.208,2.9l-.007.007C144.548,148.613,143.767,150.469,142.115,152.48Z" transform="translate(-132.863 -144.724)" fill="#fed3d1"/>
          </g>
          <path id="Path_4128" data-name="Path 4128" d="M135.9,144.269a17.209,17.209,0,0,1-4.043,4.592c-3.171,2.63-6.483,3.966-7.826,3.249l-.007.007-.105-.063c-.007,0-.007,0-.007-.007a12.891,12.891,0,0,1-4.149-4.135l.014-.007c-.858-1.413,1.231-4.831,4.81-7.805s7.334-4.388,8.565-3.291l.014-.007a9.517,9.517,0,0,1,.8.795,13.346,13.346,0,0,1,2.489,4.043.007.007,0,0,0,.007.007c.028.077.042.12.042.12l-.007.007A3.473,3.473,0,0,1,135.9,144.269Z" transform="translate(-119.587 -136.439)" fill="#feafab"/>
          <path id="Path_4129" data-name="Path 4129" d="M131.979,138.258c.844,1.017-1.1,4.021-4.344,6.71s-6.555,4.045-7.4,3.028,1.1-4.021,4.344-6.71S131.136,137.242,131.979,138.258Z" transform="translate(-119.721 -136.879)" fill="#fb7880"/>
          <g id="Group_9901" data-name="Group 9901" transform="translate(6.632 1.157)">
            <path id="Path_4130" data-name="Path 4130" d="M138.7,144.757a22.217,22.217,0,0,1-6.772,6.427,1.915,1.915,0,0,1-.977.267,1.932,1.932,0,0,1-.977-3.6c1.878-1.111,6.666-4.817,6.666-8.832v-.183a1.9,1.9,0,0,1,.127-.752,13.345,13.345,0,0,1,2.489,4.043.007.007,0,0,0,.007.007c.028.077.042.12.042.12l-.007.007A3.473,3.473,0,0,1,138.7,144.757Z" transform="translate(-129.018 -138.084)" fill="#fed3d1"/>
          </g>
        </g>
      </g>
    </g>
    <g id="Group_9966" data-name="Group 9966" transform="translate(-176.964 68.517)">
      <g id="Group_9911" data-name="Group 9911" transform="translate(410.349 211.474)">
        <g id="Group_9906" data-name="Group 9906" transform="translate(1.847 2.358)">
          <path id="Path_4136" data-name="Path 4136" d="M431.7,270.983a7.327,7.327,0,0,1-.035-1.562c4.207-2.394,15.063-11.368,15.063-40.225h-33.4c0,28.867,10.862,37.836,15.067,40.227a7.316,7.316,0,0,1-.045,1.563c-4.237,2.429-15.021,11.438-15.021,40.2h33.4C446.731,282.41,435.934,273.406,431.7,270.983Z" transform="translate(-413.328 -229.196)" fill="#d7e7ee"/>
        </g>
        <g id="Group_9907" data-name="Group 9907" transform="translate(12.4 37.778)">
          <path id="Path_4137" data-name="Path 4137" d="M430.352,288.175s1.045-2.679,4.832-1.575,5.827,1.465,7.464-.267c0,0-1.508,2.672-6.148,4.724A8.7,8.7,0,0,1,430.352,288.175Z" transform="translate(-430.352 -286.333)" fill="#0089e1"/>
        </g>
        <path id="Path_4138" data-name="Path 4138" d="M422.216,305.49a7.827,7.827,0,0,1,7.3,0c3.6,2.093,7.853-1.6,7.853-1.6a73.7,73.7,0,0,1,9.291,34.761h-33.4S411.408,315.126,422.216,305.49Z" transform="translate(-411.408 -255.227)" fill="#0089e1"/>
        <g id="Group_9908" data-name="Group 9908" transform="translate(0.919 1.431)">
          <path id="Path_4139" data-name="Path 4139" d="M447.09,311.547H411.832v-.927c0-12.549,2.028-22.779,6.028-30.407a30.248,30.248,0,0,1,5.125-7.183,20.9,20.9,0,0,1,3.922-3.17q.016-.232.015-.463c-2.173-1.334-5.866-4.3-9.025-10.3-4.024-7.634-6.064-17.887-6.064-30.474V227.7H447.09v.927c0,12.584-2.039,22.835-6.06,30.469-3.16,6-6.856,8.967-9.029,10.3q0,.231.011.461a20.916,20.916,0,0,1,3.917,3.165,30.233,30.233,0,0,1,5.127,7.181c4,7.629,6.034,17.862,6.034,30.417Zm-33.4-1.854h31.542c-.1-11.827-2.053-21.454-5.817-28.628-3.16-6.02-6.833-8.753-8.741-9.846l-.4-.228-.06-.456a8.257,8.257,0,0,1-.039-1.76l.042-.486.424-.242c1.907-1.085,5.581-3.8,8.747-9.815,3.782-7.179,5.747-16.822,5.843-28.677H413.69c.1,11.858,2.063,21.5,5.847,28.683,3.167,6.01,6.84,8.727,8.748,9.812l.427.243.038.49a8.244,8.244,0,0,1-.051,1.762l-.062.451-.4.227c-1.908,1.095-5.581,3.829-8.74,9.852C415.741,288.247,413.787,297.871,413.69,309.693Z" transform="translate(-411.832 -227.701)" fill="#cacaca"/>
        </g>
        <g id="Group_9909" data-name="Group 9909">
          <rect id="Rectangle_5574" data-name="Rectangle 5574" width="37.096" height="2.358" fill="#0089e1"/>
        </g>
        <g id="Group_9910" data-name="Group 9910" transform="translate(0 81.992)">
          <rect id="Rectangle_5575" data-name="Rectangle 5575" width="37.096" height="3.285" fill="#0089e1"/>
        </g>
      </g>
      <g id="Group_9912" data-name="Group 9912" transform="translate(419.011 188.786)">
        <path id="Path_4140" data-name="Path 4140" d="M426.592,201.224l-2.271-12.01,2.216-.419,2.271,12.01Zm.984,5.209-.431-2.288,2.216-.419.431,2.288Z" transform="translate(-424.321 -188.795)" fill="#fff"/>
      </g>
      <g id="Group_9913" data-name="Group 9913" transform="translate(428.425 188.772)">
        <path id="Path_4141" data-name="Path 4141" d="M440.119,200.913l1.407-12.141,2.24.259-1.407,12.141Zm-.612,5.265.27-2.312,2.24.259-.269,2.313Z" transform="translate(-439.507 -188.772)" fill="#fff"/>
      </g>
      <g id="Group_9914" data-name="Group 9914" transform="translate(433.438 188.915)">
        <path id="Path_4142" data-name="Path 4142" d="M449.2,200.648,452.918,189l2.149.685-3.714,11.645Zm-1.612,5.05.709-2.218,2.148.685-.709,2.218Z" transform="translate(-447.593 -189.003)" fill="#fff"/>
      </g>
    </g>
  </g>
</svg>
