<svg id="Group_1824" data-name="Group 1824" xmlns="http://www.w3.org/2000/svg" width="100" height="23.613" viewBox="0 0 100 23.613">
  <path id="Path_211" data-name="Path 211" d="M42.525,197.323q1.113-.127,2.087-.215t2.163-.089a14.894,14.894,0,0,1,2.744.253,7.433,7.433,0,0,1,2.441.9,5.051,5.051,0,0,1,1.758,1.746,5.3,5.3,0,0,1,.671,2.795,5.737,5.737,0,0,1-.253,1.783,5.451,5.451,0,0,1-.645,1.353,5.546,5.546,0,0,1-.848,1,5.9,5.9,0,0,1-.86.67l-.43.279,4.426,7.689q-.506.05-1.062.1c-.37.034-.75.05-1.138.05a11.855,11.855,0,0,1-1.9-.151l-4.755-8.448.607-.3q.355-.176.86-.455a5.3,5.3,0,0,0,.974-.7,3.824,3.824,0,0,0,.8-1.012,3.349,3.349,0,0,0-.582-3.744,3.592,3.592,0,0,0-2.352-.746,6.207,6.207,0,0,0-1.012.076v15.353q-.455.051-.91.089t-.885.038q-.43,0-.91-.025t-.986-.1Z" transform="translate(-42.525 -197.019)" fill="#80b500"/>
  <path id="Path_212" data-name="Path 212" d="M125.89,205.935h3.84V218.29h-3.84Zm3.967-3.436a1.929,1.929,0,0,1-2.072,1.921,1.934,1.934,0,1,1,.025-3.866,1.926,1.926,0,0,1,2.047,1.945" transform="translate(-111.737 -199.957)" fill="#80b500"/>
  <path id="Path_213" data-name="Path 213" d="M164.3,236.1a3.022,3.022,0,0,0-.076-.708,2.105,2.105,0,0,0-2.072-1.692c-1.39,0-2.526,1.263-2.526,3.512,0,1.844.909,3.284,2.526,3.284a2.086,2.086,0,0,0,2.021-1.567,3.249,3.249,0,0,0,.126-1.01Zm3.942-5.028c-.051.784-.1,1.819-.1,3.664v6.9c0,2.375-.48,4.321-1.87,5.558a7.62,7.62,0,0,1-5.028,1.517,9.624,9.624,0,0,1-4.446-.96l.758-2.906a7.593,7.593,0,0,0,3.587.935,2.949,2.949,0,0,0,3.209-3.259v-.808H164.3a3.951,3.951,0,0,1-3.335,1.617c-3.058,0-5.23-2.476-5.23-6.039,0-3.966,2.577-6.493,5.609-6.493a3.723,3.723,0,0,1,3.385,1.743h.051l.126-1.466Z" transform="translate(-136.627 -225.094)" fill="#80b500"/>
  <path id="Path_214" data-name="Path 214" d="M240.015,199.355h3.84V206.4h.05a4.622,4.622,0,0,1,1.516-1.264,4.309,4.309,0,0,1,2-.48c2.451,0,4.32,1.693,4.32,5.407v7.226H247.9v-6.8c0-1.617-.556-2.729-2-2.729a2.043,2.043,0,0,0-1.92,1.339,2.445,2.445,0,0,0-.126.859v7.327h-3.84Z" transform="translate(-206.687 -198.961)" fill="#80b500"/>
  <path id="Path_215" data-name="Path 215" d="M318.177,211.48v3.537h2.754v2.83h-2.754v4.472c0,1.491.354,2.173,1.516,2.173a6.272,6.272,0,0,0,1.136-.1l.025,2.906a7.549,7.549,0,0,1-2.5.328,4,4,0,0,1-2.881-1.061,5.121,5.121,0,0,1-1.061-3.664v-5.053H312.77v-2.83h1.642v-2.678Z" transform="translate(-267.164 -209.04)" fill="#80b500"/>
  <path id="Path_216" data-name="Path 216" d="M376.211,219.921a10.96,10.96,0,0,1-4.371.733c-5.887,0-8.918-3.663-8.918-8.514,0-5.811,4.144-9.046,9.3-9.046a10.042,10.042,0,0,1,4.194.759l-.784,3.057a8.3,8.3,0,0,0-3.234-.632c-3.057,0-5.432,1.844-5.432,5.635,0,3.41,2.021,5.558,5.457,5.558a9.613,9.613,0,0,0,3.208-.556Z" transform="translate(-308.852 -202.069)" fill="#2b8ac9"/>
  <path id="Path_217" data-name="Path 217" d="M445.332,237.237c0,2.123.885,3.714,2.527,3.714,1.491,0,2.451-1.491,2.451-3.714,0-1.845-.707-3.714-2.451-3.714-1.845,0-2.527,1.9-2.527,3.714m8.944-.127a6.2,6.2,0,0,1-6.518,6.594,6.052,6.052,0,0,1-6.392-6.366c0-3.992,2.628-6.544,6.594-6.544a6.007,6.007,0,0,1,6.316,6.316" transform="translate(-374.058 -225.094)" fill="#2b8ac9"/>
  <path id="Path_218" data-name="Path 218" d="M523.954,235.013c0-1.541-.05-2.855-.1-3.941h3.234l.177,1.668h.076a4.283,4.283,0,0,1,3.739-1.946,3.5,3.5,0,0,1,3.386,2.1h.05a5.533,5.533,0,0,1,1.592-1.491,4.456,4.456,0,0,1,2.35-.606c2.375,0,4.168,1.668,4.168,5.356v7.276h-3.739v-6.721c0-1.794-.581-2.829-1.819-2.829a1.878,1.878,0,0,0-1.769,1.339,3.193,3.193,0,0,0-.152.985v7.226h-3.74V236.5c0-1.566-.555-2.627-1.768-2.627a1.954,1.954,0,0,0-1.794,1.39,2.547,2.547,0,0,0-.152.96v7.2h-3.739Z" transform="translate(-442.625 -225.094)" fill="#2b8ac9"/>
</svg>
