<svg xmlns="http://www.w3.org/2000/svg" xmlns:xlink="http://www.w3.org/1999/xlink" width="119.241" height="113.067" viewBox="0 0 119.241 113.067">
  <defs>
    <clipPath id="clip-path">
      <rect id="Rectangle_1250" data-name="Rectangle 1250" width="46.669" height="38.168" rx="12" fill="none"/>
    </clipPath>
  </defs>
  <g id="Group_2401" data-name="Group 2401" transform="translate(-332.338 -3047.261)">
    <g id="Group_2398" data-name="Group 2398" transform="translate(332.338 3050.868)">
      <g id="Group_2175" data-name="Group 2175" transform="translate(0 43.617)" opacity="0.632">
        <g id="Group_2156" data-name="Group 2156">
          <g id="Group_2144" data-name="Group 2144">
            <g id="Group_2138" data-name="Group 2138" transform="translate(0 4.483)">
              <path id="Path_1565" data-name="Path 1565" d="M334.5,254.657H242.588a2.338,2.338,0,0,1-2.335-2.336V195.632a2.338,2.338,0,0,1,2.335-2.336H334.5a2.338,2.338,0,0,1,2.335,2.336v56.689A2.338,2.338,0,0,1,334.5,254.657Zm-91.914-61.092a2.07,2.07,0,0,0-2.068,2.068v56.689a2.071,2.071,0,0,0,2.068,2.068H334.5a2.07,2.07,0,0,0,2.067-2.068V195.632a2.07,2.07,0,0,0-2.067-2.068Z" transform="translate(-240.253 -193.297)" fill="#b0b0af"/>
            </g>
            <g id="Group_2139" data-name="Group 2139" transform="translate(5.453)">
              <rect id="Rectangle_1228" data-name="Rectangle 1228" width="96.317" height="61.093" rx="3.652" fill="#f0f0f0"/>
            </g>
            <g id="Group_2143" data-name="Group 2143" transform="translate(11.858 2.505)">
              <g id="Group_2140" data-name="Group 2140">
                <circle id="Ellipse_307" data-name="Ellipse 307" cx="1.218" cy="1.218" r="1.218" fill="#b3b3b3"/>
              </g>
              <g id="Group_2141" data-name="Group 2141" transform="translate(4.053 0)">
                <circle id="Ellipse_308" data-name="Ellipse 308" cx="1.218" cy="1.218" r="1.218" fill="#b3b3b3"/>
              </g>
              <g id="Group_2142" data-name="Group 2142" transform="translate(8.107)">
                <circle id="Ellipse_309" data-name="Ellipse 309" cx="1.218" cy="1.218" r="1.218" fill="#b3b3b3"/>
              </g>
            </g>
          </g>
          <g id="Group_2155" data-name="Group 2155" transform="translate(13.001 6.736)">
            <g id="Group_2145" data-name="Group 2145" transform="translate(43.486 27.891)">
              <path id="Path_1566" data-name="Path 1566" d="M364.327,261.891H335.152a1.2,1.2,0,0,1-1.2-1.2V244.5a1.2,1.2,0,0,1,1.2-1.2h29.175a1.205,1.205,0,0,1,1.2,1.2v16.186A1.205,1.205,0,0,1,364.327,261.891Zm-29.175-18.318a.929.929,0,0,0-.928.928v16.186a.929.929,0,0,0,.928.928h29.175a.93.93,0,0,0,.928-.928V244.5a.93.93,0,0,0-.928-.928Z" transform="translate(-333.949 -243.297)" fill="#a5a5a5"/>
            </g>
            <g id="Group_2147" data-name="Group 2147" transform="translate(0 6.313)">
              <g id="Group_2146" data-name="Group 2146">
                <path id="Path_1567" data-name="Path 1567" d="M294.005,247.074H263.022a1.205,1.205,0,0,1-1.2-1.2V208.708a1.2,1.2,0,0,1,1.2-1.2h30.984a1.2,1.2,0,0,1,1.2,1.2V245.87A1.205,1.205,0,0,1,294.005,247.074ZM263.022,207.78a.929.929,0,0,0-.928.928V245.87a.93.93,0,0,0,.928.928h30.984a.93.93,0,0,0,.928-.928V208.708a.929.929,0,0,0-.928-.928Z" transform="translate(-261.818 -207.505)" fill="#b3b3b3"/>
              </g>
            </g>
            <g id="Group_2154" data-name="Group 2154" transform="translate(44.211)">
              <g id="Group_2148" data-name="Group 2148">
                <path id="Path_1568" data-name="Path 1568" d="M356.753,219.67H336.314a1.164,1.164,0,0,1-1.163-1.162V198.2a1.163,1.163,0,0,1,1.163-1.162h20.439a1.163,1.163,0,0,1,1.163,1.162v20.311A1.164,1.164,0,0,1,356.753,219.67Zm-20.439-22.375a.9.9,0,0,0-.9.9v20.311a.9.9,0,0,0,.9.9h20.439a.9.9,0,0,0,.9-.9V198.2a.9.9,0,0,0-.9-.9Z" transform="translate(-335.151 -197.034)" fill="#b3b3b3"/>
              </g>
              <g id="Group_2153" data-name="Group 2153" transform="translate(3.367 6.263)">
                <g id="Group_2149" data-name="Group 2149" transform="translate(0 7.411)">
                  <path id="Path_1569" data-name="Path 1569" d="M355.234,222.051H341.9a1.168,1.168,0,1,1,0-2.337h13.33a1.168,1.168,0,0,1,0,2.337Zm-13.33-2.076a.908.908,0,0,0,0,1.815h13.33a.908.908,0,0,0,0-1.815Z" transform="translate(-340.736 -219.714)" fill="#b3b3b3"/>
                </g>
                <g id="Group_2152" data-name="Group 2152">
                  <g id="Group_2150" data-name="Group 2150" transform="translate(0 0.577)">
                    <path id="Path_1570" data-name="Path 1570" d="M355.234,210.716H341.9a1.169,1.169,0,0,1,0-2.337h13.33a1.169,1.169,0,0,1,0,2.337ZM341.9,208.64a.908.908,0,0,0,0,1.815h13.33a.908.908,0,0,0,0-1.815Z" transform="translate(-340.736 -208.379)" fill="#b3b3b3"/>
                  </g>
                  <g id="Group_2151" data-name="Group 2151" transform="translate(2.351)">
                    <path id="Path_1571" data-name="Path 1571" d="M348.127,209.168a1.746,1.746,0,1,1-1.746-1.746A1.746,1.746,0,0,1,348.127,209.168Z" transform="translate(-344.636 -207.422)" fill="#a5a5a5"/>
                  </g>
                </g>
              </g>
            </g>
          </g>
        </g>
        <g id="Group_2164" data-name="Group 2164" transform="translate(70.352 31.231)">
          <g id="Group_2159" data-name="Group 2159" transform="translate(0 0)">
            <g id="Group_2157" data-name="Group 2157">
              <path id="Rectangle_1229" data-name="Rectangle 1229" d="M0,0H7.8A1.881,1.881,0,0,1,9.686,1.881v6A1.881,1.881,0,0,1,7.8,9.763H1.881A1.881,1.881,0,0,1,0,7.882V0A0,0,0,0,1,0,0Z" transform="translate(9.686 9.763) rotate(180)" fill="#a5a5a5"/>
            </g>
            <g id="Group_2158" data-name="Group 2158" transform="translate(6.79 8.188)">
              <path id="Path_1572" data-name="Path 1572" d="M371.106,251.246v3.4l-2.9-3.4Z" transform="translate(-368.21 -251.246)" fill="#a5a5a5"/>
            </g>
          </g>
          <g id="Group_2163" data-name="Group 2163" transform="translate(2.606 2.236)">
            <g id="Group_2161" data-name="Group 2161" transform="translate(1.508)">
              <g id="Group_2160" data-name="Group 2160">
                <path id="Path_1573" data-name="Path 1573" d="M363.8,245.707c.821.014,1.653.025,2.407-.027.239-.016.446-.4.156-.516a.537.537,0,0,0,.3-.26.256.256,0,0,0-.145-.339c.285.071.4-.382.175-.527a.663.663,0,0,0,.24-.385.386.386,0,0,0-.173-.4.63.63,0,0,0-.3-.051l-1.024-.007a2.367,2.367,0,0,0-.151-1.586c-.082-.141-.3-.311-.476-.2s-.118.355-.11.515a1.806,1.806,0,0,1-.931,1.646S363.811,244.985,363.8,245.707Z" transform="translate(-363.772 -241.372)" fill="#fdfdfd"/>
              </g>
            </g>
            <g id="Group_2162" data-name="Group 2162" transform="translate(0 2.196)">
              <rect id="Rectangle_1230" data-name="Rectangle 1230" width="1.241" height="2.136" fill="#fdfdfd"/>
            </g>
          </g>
        </g>
        <g id="Group_2171" data-name="Group 2171" transform="translate(9.726 8.453)">
          <g id="Group_2167" data-name="Group 2167">
            <g id="Group_2166" data-name="Group 2166">
              <g id="Group_2165" data-name="Group 2165">
                <path id="Rectangle_1231" data-name="Rectangle 1231" d="M2.977,0h9.374a2.977,2.977,0,0,1,2.977,2.977v9.5a2.977,2.977,0,0,1-2.977,2.977H3.816A3.816,3.816,0,0,1,0,11.635V2.977A2.977,2.977,0,0,1,2.977,0Z" fill="#858585"/>
              </g>
            </g>
          </g>
          <g id="Group_2170" data-name="Group 2170" transform="translate(2.019 5.227)">
            <g id="Group_2168" data-name="Group 2168" transform="translate(0 0.286)">
              <path id="Path_1574" data-name="Path 1574" d="M259.915,214.106l-.18-.225,4.3-3.442,1.533,1.7,4.107-3.113.174.23-4.317,3.273-1.528-1.7Z" transform="translate(-259.735 -209.027)" fill="#fff"/>
            </g>
            <g id="Group_2169" data-name="Group 2169" transform="translate(9.201)">
              <path id="Path_1575" data-name="Path 1575" d="M275.958,209.817l-.285-.042.111-.759-.787-.183.065-.281,1.046.243Z" transform="translate(-274.997 -208.553)" fill="#fff"/>
            </g>
          </g>
        </g>
        <g id="Group_2172" data-name="Group 2172" transform="translate(20.942 35.858)">
          <rect id="Rectangle_1232" data-name="Rectangle 1232" width="4.239" height="16.281" fill="#858585"/>
        </g>
        <g id="Group_2173" data-name="Group 2173" transform="translate(27.297 32)">
          <rect id="Rectangle_1233" data-name="Rectangle 1233" width="4.239" height="20.138" fill="#858585"/>
        </g>
        <g id="Group_2174" data-name="Group 2174" transform="translate(33.944 28.528)">
          <rect id="Rectangle_1234" data-name="Rectangle 1234" width="4.239" height="23.611" fill="#858585"/>
        </g>
      </g>
      <g id="Group_2179" data-name="Group 2179" transform="translate(19.647 -6)">
        <g id="Group_2177" data-name="Group 2177" transform="translate(79.681 26.345)">
          <path id="Path_1577" data-name="Path 1577" d="M401.985,162.1l2.731-2.821h2.936a.8.8,0,0,0,.827-.775v-3.834a.8.8,0,0,0-.827-.775h-7.363a.8.8,0,0,0-.826.775v3.895a.8.8,0,0,0,.811.774l1.712.033Zm5.667-7.937a.524.524,0,0,1,.539.507v3.834a.524.524,0,0,1-.539.508h-3.065l-2.314,2.39v-2.292l-1.994-.037a.526.526,0,0,1-.528-.508v-3.895a.523.523,0,0,1,.538-.507Z" transform="translate(-399.463 -153.898)" fill="#c4c4c4"/>
        </g>
      </g>
    </g>
    <g id="Group_2424" data-name="Group 2424" transform="translate(364.521 3046.016)">
      <path id="Union_15" data-name="Union 15" d="M40.833,43.1,2.146,42.964A2.03,2.03,0,0,1,0,41.052a2.244,2.244,0,0,1,0-.245L.11,10.717h0l.015-4.3a1.727,1.727,0,0,1,0-.244,2.029,2.029,0,0,1,1.808-1.89h0l.025,0,.036,0H2l.034,0h.037c.047,0,.095,0,.142,0l.068,0L8.727,4.3,8.742,0l4.3.015-.015,4.3,6.448.023.015-4.3,4.3.013-.015,4.3,6.448.023.015-4.3,4.3.015-.015,4.3,6.449.023a1.964,1.964,0,0,1,.245,0,2.047,2.047,0,0,1,.266.034h0l.043.009.01,0,.033.008.019,0,.02.005.033.009.009,0a2.031,2.031,0,0,1,1.466,1.837,2.22,2.22,0,0,1,0,.244l-.121,34.39A2.03,2.03,0,0,1,41.079,43.1q-.061,0-.123,0T40.833,43.1Z" transform="translate(13.129 11.09)" fill="#fff" stroke="rgba(0,0,0,0)" stroke-miterlimit="10" stroke-width="1"/>
      <g id="Group_1049" data-name="Group 1049" transform="translate(0 19.927) rotate(-22)">
        <path id="Path_913" data-name="Path 913" d="M41.423,17.624a2.03,2.03,0,0,0-.951-2.71,2,2,0,0,0-.227-.093L4.426.2a2.032,2.032,0,0,0-2.8,1.178L0,5.358,39.8,21.6Z" transform="translate(11.569 1.343)" fill="#0082f5"/>
        <path id="Path_914" data-name="Path 914" d="M16,.2,51.817,14.822a2.03,2.03,0,0,1,1.178,2.8L40,49.464a2.03,2.03,0,0,1-2.8,1.178L1.378,36.021a2.031,2.031,0,0,1-1.27-2.576A2.062,2.062,0,0,1,.2,33.218l13-31.839A2.03,2.03,0,0,1,15.771.108,2.071,2.071,0,0,1,16,.2Z" transform="translate(0 1.343)" fill="#0087e4" opacity="0.1" style="isolation: isolate"/>
        <g id="Group_1047" data-name="Group 1047" transform="translate(20.341 0)">
          <rect id="Rectangle_729" data-name="Rectangle 729" width="8.597" height="4.299" transform="translate(9.95 12.021) rotate(-67.798)" fill="#0082f5"/>
          <rect id="Rectangle_730" data-name="Rectangle 730" width="8.597" height="4.299" transform="translate(19.9 16.082) rotate(-67.798)" fill="#0082f5"/>
          <rect id="Rectangle_731" data-name="Rectangle 731" width="8.597" height="4.299" transform="translate(0 7.96) rotate(-67.798)" fill="#0082f5"/>
        </g>
      </g>
    </g>
    <rect id="Rectangle_740" data-name="Rectangle 740" width="4.299" height="4.299" transform="translate(408.136 3093.507) rotate(-89.798)" fill="#0082f5"/>
    <rect id="Rectangle_740-2" data-name="Rectangle 740" width="4.299" height="4.299" transform="translate(400.136 3086.507) rotate(-89.798)" fill="#0082f5" opacity="0.154"/>
    <rect id="Rectangle_740-3" data-name="Rectangle 740" width="4.299" height="4.299" transform="translate(391.136 3080.507) rotate(-89.798)" fill="#0082f5" opacity="0.154"/>
    <rect id="Rectangle_740-4" data-name="Rectangle 740" width="4.299" height="4.299" transform="translate(382.136 3074.507) rotate(-89.798)" fill="#0082f5" opacity="0.154"/>
    <g id="Group_2432" data-name="Group 2432" transform="translate(404.91 3082.654)">
      <g id="Group_2251" data-name="Group 2251" transform="translate(9.232 7.202)">
        <rect id="Rectangle_1244" data-name="Rectangle 1244" width="33.922" height="31.142" rx="2.594" transform="translate(0.131 0.131)" fill="#fff"/>
        <path id="Path_1614" data-name="Path 1614" d="M454.864,226.84h-31.2a1.494,1.494,0,0,1-1.492-1.492v-28.42a1.494,1.494,0,0,1,1.492-1.492h31.2a1.493,1.493,0,0,1,1.492,1.492v28.42A1.494,1.494,0,0,1,454.864,226.84Zm-31.2-31.142a1.231,1.231,0,0,0-1.229,1.229v28.42a1.231,1.231,0,0,0,1.229,1.229h31.2a1.231,1.231,0,0,0,1.23-1.229v-28.42a1.231,1.231,0,0,0-1.23-1.229Z" transform="translate(-422.172 -195.436)" fill="#858585"/>
      </g>
      <g id="Group_2252" data-name="Group 2252" transform="translate(9.363 7.333)">
        <path id="Rectangle_1245" data-name="Rectangle 1245" d="M.972,0H32.951a.972.972,0,0,1,.972.972v3.4a0,0,0,0,1,0,0H0a0,0,0,0,1,0,0V.972A.972.972,0,0,1,.972,0Z" fill="#afafaf"/>
      </g>
      <g id="Group_2256" data-name="Group 2256" transform="translate(10.871 9.064)">
        <g id="Group_2253" data-name="Group 2253">
          <rect id="Rectangle_1246" data-name="Rectangle 1246" width="0.979" height="0.979" rx="0.489" fill="#fff"/>
        </g>
        <g id="Group_2254" data-name="Group 2254" transform="translate(1.449)">
          <rect id="Rectangle_1247" data-name="Rectangle 1247" width="0.979" height="0.979" rx="0.489" fill="#fff"/>
        </g>
        <g id="Group_2255" data-name="Group 2255" transform="translate(2.899)">
          <rect id="Rectangle_1248" data-name="Rectangle 1248" width="0.979" height="0.979" rx="0.489" fill="#fff"/>
        </g>
      </g>
      <g id="Group_2257" data-name="Group 2257" transform="translate(15.667 8.964)">
        <rect id="Rectangle_1249" data-name="Rectangle 1249" width="16.874" height="1.184" rx="0.592" fill="#fff"/>
      </g>
      <g id="Group_2320" data-name="Group 2320" transform="translate(0 0)">
        <g id="Group_2319" data-name="Group 2319" clip-path="url(#clip-path)">
          <g id="Group_2318" data-name="Group 2318" transform="translate(6.023 0.235)">
            <g id="Group_2277" data-name="Group 2277" transform="translate(13.583)">
              <g id="Group_2260" data-name="Group 2260" transform="translate(5.682)">
                <g id="Group_2258" data-name="Group 2258" transform="translate(1.06)">
                  <path id="Path_1615" data-name="Path 1615" d="M458.51,185.879a2.071,2.071,0,1,1,.369-3.222A2.324,2.324,0,0,1,458.51,185.879Z" transform="translate(-454.791 -182.16)" fill="#1c1927"/>
                </g>
                <g id="Group_2259" data-name="Group 2259" transform="translate(0 2.548)">
                  <path id="Path_1616" data-name="Path 1616" d="M455.869,188.566a1.549,1.549,0,1,1-1.549-1.55A1.549,1.549,0,0,1,455.869,188.566Z" transform="translate(-452.771 -187.016)" fill="#df7246"/>
                </g>
              </g>
              <g id="Group_2261" data-name="Group 2261" transform="translate(0.519 2.443)">
                <path id="Path_1617" data-name="Path 1617" d="M442.935,191.013a4.528,4.528,0,0,0,4.511,4.2,4.442,4.442,0,0,0,4.137-4.479,3.916,3.916,0,0,0-4.573-3.857C444.761,187.273,442.844,188.732,442.935,191.013Z" transform="translate(-442.932 -186.815)" fill="#1c1927"/>
              </g>
              <g id="Group_2265" data-name="Group 2265" transform="translate(3.404 8.183)">
                <g id="Group_2263" data-name="Group 2263">
                  <g id="Group_2262" data-name="Group 2262">
                    <path id="Path_1618" data-name="Path 1618" d="M451.651,202.674l-.185-4.92-3.036.134.184,4.92a1.52,1.52,0,0,0,1.586,1.451h0A1.519,1.519,0,0,0,451.651,202.674Z" transform="translate(-448.43 -197.754)" fill="#966150"/>
                  </g>
                </g>
                <g id="Group_2264" data-name="Group 2264" transform="translate(0.093 0.222)">
                  <path id="Path_1619" data-name="Path 1619" d="M451.668,198.177s-.176,3.641-2.984,3.694l-.077-1.817Z" transform="translate(-448.607 -198.177)" fill="#1c1927"/>
                </g>
              </g>
              <g id="Group_2266" data-name="Group 2266" transform="translate(0.906 3.621)">
                <path id="Path_1620" data-name="Path 1620" d="M446.843,196.893h0a2.688,2.688,0,0,1-3.061-2.49l-.111-2.8a2.807,2.807,0,0,1,1.921-2.545l2.638.628a1.293,1.293,0,0,1,1.339,1.237l.111,2.786A3.253,3.253,0,0,1,446.843,196.893Z" transform="translate(-443.67 -189.06)" fill="#966150"/>
              </g>
              <g id="Group_2273" data-name="Group 2273" transform="translate(1.109 6.426)">
                <g id="Group_2267" data-name="Group 2267" transform="translate(2.625 0.902)">
                  <path id="Path_1621" data-name="Path 1621" d="M449.061,196.385a.234.234,0,1,0,.207-.259A.234.234,0,0,0,449.061,196.385Z" transform="translate(-449.059 -196.124)" fill="#262127"/>
                </g>
                <g id="Group_2268" data-name="Group 2268" transform="translate(0.48 0.97)">
                  <path id="Path_1622" data-name="Path 1622" d="M444.974,196.513a.234.234,0,1,0,.207-.259A.234.234,0,0,0,444.974,196.513Z" transform="translate(-444.972 -196.253)" fill="#262127"/>
                </g>
                <g id="Group_2269" data-name="Group 2269" transform="translate(1.27 1.433)">
                  <path id="Path_1623" data-name="Path 1623" d="M446.9,198.257a.462.462,0,0,1-.249-.066.394.394,0,0,1-.177-.26l.036-.7a.1.1,0,0,1,.11-.1.1.1,0,0,1,.1.11l-.036.671h0a.218.218,0,0,0,.081.1.423.423,0,0,0,.335,0,.1.1,0,1,1,.063.2A.886.886,0,0,1,446.9,198.257Z" transform="translate(-446.477 -197.136)" fill="#7c473d"/>
                </g>
                <g id="Group_2270" data-name="Group 2270" transform="translate(2.144)">
                  <path id="Path_1624" data-name="Path 1624" d="M449.461,194.833a.244.244,0,0,1-.044,0l-1.061,0a.215.215,0,1,1,0-.429l1.062,0a.215.215,0,0,1,.042.425Z" transform="translate(-448.142 -194.405)" fill="#262127"/>
                </g>
                <g id="Group_2271" data-name="Group 2271" transform="translate(0 0.045)">
                  <path id="Path_1625" data-name="Path 1625" d="M444.963,194.917a.2.2,0,0,1-.044,0l-.649,0a.215.215,0,1,1,0-.429l.649,0a.214.214,0,0,1,.042.425Z" transform="translate(-444.057 -194.49)" fill="#262127"/>
                </g>
                <g id="Group_2272" data-name="Group 2272" transform="translate(0.992 2.933)">
                  <path id="Path_1626" data-name="Path 1626" d="M445.948,199.995h1.9a.989.989,0,0,1-1.143.645A.8.8,0,0,1,445.948,199.995Z" transform="translate(-445.948 -199.995)" fill="#fff"/>
                </g>
              </g>
              <g id="Group_2274" data-name="Group 2274" transform="translate(5.477 5.839)">
                <path id="Path_1627" data-name="Path 1627" d="M452.38,193.349s.036,1.806,1.059,1.956l.695-2.019Z" transform="translate(-452.38 -193.287)" fill="#1c1927"/>
              </g>
              <g id="Group_2275" data-name="Group 2275" transform="translate(6.081 6.774)">
                <path id="Path_1628" data-name="Path 1628" d="M455.651,196.086a1.06,1.06,0,1,1-1.1-1.017A1.06,1.06,0,0,1,455.651,196.086Z" transform="translate(-453.531 -195.068)" fill="#966150"/>
              </g>
              <g id="Group_2276" data-name="Group 2276" transform="translate(0 2.428)">
                <path id="Path_1629" data-name="Path 1629" d="M447.411,186.795s-5.519-.35-5.468,3.665h7.582l-1.024-2.729Z" transform="translate(-441.943 -186.787)" fill="#1c1927"/>
              </g>
            </g>
            <g id="Group_2294" data-name="Group 2294" transform="translate(1.866 23.432)">
              <g id="Group_2284" data-name="Group 2284" transform="translate(16.447)">
                <g id="Group_2282" data-name="Group 2282" transform="translate(0 30.773)">
                  <g id="Group_2278" data-name="Group 2278" transform="translate(0.305)">
                    <path id="Path_1630" data-name="Path 1630" d="M453.879,293.6h-2.339l.541-8.145h2.864Z" transform="translate(-451.539 -285.459)" fill="#966150"/>
                  </g>
                  <g id="Group_2281" data-name="Group 2281" transform="translate(0 6.622)">
                    <g id="Group_2279" data-name="Group 2279" transform="translate(0 1.005)">
                      <path id="Path_1631" data-name="Path 1631" d="M451.114,299.995h3.85l2.705,1.29a1.835,1.835,0,0,1,1,1.632h0l-7.707-.091Z" transform="translate(-450.958 -299.995)" fill="#262127"/>
                    </g>
                    <g id="Group_2280" data-name="Group 2280" transform="translate(2.278)">
                      <path id="Path_1632" data-name="Path 1632" d="M457.329,299.223l-.833-1.128a.981.981,0,0,0-1.19,1.179Z" transform="translate(-455.299 -298.079)" fill="#262127"/>
                    </g>
                  </g>
                </g>
                <g id="Group_2283" data-name="Group 2283" transform="translate(0.289)">
                  <path id="Path_1633" data-name="Path 1633" d="M455.521,226.815s4.588,3.259,2.684,14.123l-2.684,18.354h-4.012l.233-29.033-.233-3.443Z" transform="translate(-451.509 -226.815)" fill="#262127"/>
                </g>
              </g>
              <g id="Group_2293" data-name="Group 2293" transform="translate(0 0.033)">
                <g id="Group_2289" data-name="Group 2289" transform="translate(0 30.74)">
                  <g id="Group_2285" data-name="Group 2285" transform="translate(5.063)">
                    <path id="Path_1634" data-name="Path 1634" d="M429.262,293.6H431.6l2.339-8.145h-2.864Z" transform="translate(-429.262 -285.459)" fill="#966150"/>
                  </g>
                  <g id="Group_2288" data-name="Group 2288" transform="translate(0 6.622)">
                    <g id="Group_2286" data-name="Group 2286" transform="translate(0 1.005)">
                      <path id="Path_1635" data-name="Path 1635" d="M427.164,299.995h-3.849l-2.7,1.29a1.835,1.835,0,0,0-1,1.632h0l7.707-.091Z" transform="translate(-419.614 -299.995)" fill="#262127"/>
                    </g>
                    <g id="Group_2287" data-name="Group 2287" transform="translate(3.399)">
                      <path id="Path_1636" data-name="Path 1636" d="M426.092,299.223l.833-1.128a.981.981,0,0,1,1.19,1.179Z" transform="translate(-426.092 -298.079)" fill="#262127"/>
                    </g>
                  </g>
                </g>
                <g id="Group_2292" data-name="Group 2292" transform="translate(5.639)">
                  <g id="Group_2290" data-name="Group 2290">
                    <path id="Path_1637" data-name="Path 1637" d="M438.15,226.877s-2.039,1.852-3.537,9.991-4.253,22.159-4.253,22.159l3.832.294,8.255-25.3.554-7.139Z" transform="translate(-430.36 -226.877)" fill="#262127"/>
                  </g>
                  <g id="Group_2291" data-name="Group 2291" transform="translate(8.561 6.791)">
                    <path id="Path_1638" data-name="Path 1638" d="M449.394,242.637l-1.95-2.819-.77,10.75Z" transform="translate(-446.674 -239.818)" fill="#171618"/>
                  </g>
                </g>
              </g>
            </g>
            <g id="Group_2317" data-name="Group 2317" transform="translate(0 8.492)">
              <g id="Group_2304" data-name="Group 2304">
                <g id="Group_2300" data-name="Group 2300">
                  <g id="Group_2295" data-name="Group 2295" transform="translate(9.458 4.682)">
                    <path id="Path_1639" data-name="Path 1639" d="M434.081,213.062a3.5,3.5,0,0,0,.571-.062l8.225-1.743c1.17-.174,2.882-1.891,2.384-2.964a1.772,1.772,0,0,0-2.085-.961l-8.41,2.844Z" transform="translate(-434.081 -207.267)" fill="#966150"/>
                  </g>
                  <g id="Group_2296" data-name="Group 2296" transform="translate(2.184 2.777)">
                    <path id="Path_1640" data-name="Path 1640" d="M428.542,208.616l-7.3-4.981-1.018,1.293,6.021,5.963a2.308,2.308,0,0,0,3.474-.984h0C430.019,208.991,429.4,209.053,428.542,208.616Z" transform="translate(-420.22 -203.635)" fill="#966150"/>
                  </g>
                  <g id="Group_2299" data-name="Group 2299">
                    <g id="Group_2297" data-name="Group 2297" transform="translate(0 1.034)">
                      <path id="Path_1641" data-name="Path 1641" d="M419.237,202.609a1.654,1.654,0,1,1-.883-2.166A1.655,1.655,0,0,1,419.237,202.609Z" transform="translate(-416.057 -200.313)" fill="#966150"/>
                    </g>
                    <g id="Group_2298" data-name="Group 2298" transform="translate(0.32)">
                      <path id="Path_1642" data-name="Path 1642" d="M418.562,199.476l-1.439-1.065a.285.285,0,0,0-.392.024h0a.246.246,0,0,0,0,.334l1.331,1.4Z" transform="translate(-416.667 -198.344)" fill="#966150"/>
                    </g>
                  </g>
                </g>
                <g id="Group_2303" data-name="Group 2303" transform="translate(11.831 5.053)">
                  <g id="Group_2301" data-name="Group 2301">
                    <path id="Path_1643" data-name="Path 1643" d="M442.442,207.973a27.461,27.461,0,0,0-3.838,1.312l2.491,3.389.854-.217Z" transform="translate(-438.604 -207.973)" fill="#47c431"/>
                  </g>
                  <g id="Group_2302" data-name="Group 2302" transform="translate(1.032 1.674)">
                    <path id="Path_1644" data-name="Path 1644" d="M441.849,213.988a8.992,8.992,0,0,1,0-2.824l-1.278,1.042Z" transform="translate(-440.571 -211.164)" fill="#31ae0f"/>
                  </g>
                </g>
              </g>
              <g id="Group_2310" data-name="Group 2310" transform="translate(21.19 4.91)">
                <g id="Group_2305" data-name="Group 2305" transform="translate(1.678 1.565)">
                  <path id="Path_1645" data-name="Path 1645" d="M466.378,220.1l.743-1.359-3.741-6.224c-.483-.833-2.7-2.354-3.359-1.657a2.745,2.745,0,0,0-.078,2.657l4.59,6.124Z" transform="translate(-459.638 -210.683)" fill="#966150"/>
                </g>
                <g id="Group_2306" data-name="Group 2306" transform="translate(6.594 9.048)">
                  <path id="Path_1646" data-name="Path 1646" d="M469.057,226.731l2.168,8.662,1.649-.175-1.037-8.883a1.415,1.415,0,0,0-1.985-1.271h0A1.415,1.415,0,0,0,469.057,226.731Z" transform="translate(-469.007 -224.943)" fill="#966150"/>
                </g>
                <g id="Group_2307" data-name="Group 2307">
                  <path id="Path_1647" data-name="Path 1647" d="M457.247,207.7a7.719,7.719,0,0,1,4.557,2.67l-3.937,3.691s-2.54-2.331-.844-4.543Z" transform="translate(-456.44 -207.7)" fill="#47c431"/>
                </g>
                <g id="Group_2309" data-name="Group 2309" transform="translate(7.896 18.907)">
                  <g id="Group_2308" data-name="Group 2308">
                    <path id="Path_1648" data-name="Path 1648" d="M472.109,244.082a1.629,1.629,0,1,1-.272,2.288A1.629,1.629,0,0,1,472.109,244.082Z" transform="translate(-471.487 -243.732)" fill="#966150"/>
                  </g>
                </g>
              </g>
              <g id="Group_2316" data-name="Group 2316" transform="translate(14.082 4.35)">
                <g id="Group_2313" data-name="Group 2313" transform="translate(0 0.014)">
                  <g id="Group_2312" data-name="Group 2312">
                    <g id="Group_2311" data-name="Group 2311">
                      <path id="Path_1649" data-name="Path 1649" d="M447.533,206.662A8.841,8.841,0,0,0,443,208.072s-.545,4.588.9,6.286l.207,2.911,7.32-.033s.406-5.194,1.911-6.506l-.5-2.585A9.864,9.864,0,0,0,447.533,206.662Z" transform="translate(-442.895 -206.659)" fill="#47c431"/>
                    </g>
                  </g>
                </g>
                <g id="Group_2314" data-name="Group 2314" transform="translate(1.582)">
                  <path id="Path_1650" data-name="Path 1650" d="M445.909,207.351a8.041,8.041,0,0,1,6.333-.158l-1.223.767a4.436,4.436,0,0,1-5.11-.609Z" transform="translate(-445.909 -206.633)" fill="#966150"/>
                </g>
                <g id="Group_2315" data-name="Group 2315" transform="translate(7.448 4.694)">
                  <path id="Path_1651" data-name="Path 1651" d="M458.974,217.057l-.239.224a6.59,6.59,0,0,1-1.648-1.7l1.161,5.145Z" transform="translate(-457.088 -215.579)" fill="#38ac23"/>
                </g>
              </g>
            </g>
          </g>
        </g>
      </g>
    </g>
  </g>
</svg>
