<svg xmlns="http://www.w3.org/2000/svg" width="16" height="16" viewBox="0 0 16 16">
  <g id="Group_2438" data-name="Group 2438" transform="translate(10742 16240)">
    <rect id="Rectangle_1055" data-name="Rectangle 1055" width="4" height="4" rx="2" transform="translate(-10736 -16234)" fill="gray"/>
    <rect id="Rectangle_1056" data-name="Rectangle 1056" width="4" height="4" rx="2" transform="translate(-10742 -16240)" fill="gray"/>
    <rect id="Rectangle_1057" data-name="Rectangle 1057" width="4" height="4" rx="2" transform="translate(-10736 -16228)" fill="gray"/>
    <rect id="Rectangle_1058" data-name="Rectangle 1058" width="4" height="4" rx="2" transform="translate(-10742 -16234)" fill="gray"/>
    <rect id="Rectangle_1059" data-name="Rectangle 1059" width="4" height="4" rx="2" transform="translate(-10742 -16228)" fill="gray"/>
    <rect id="Rectangle_1060" data-name="Rectangle 1060" width="4" height="4" rx="2" transform="translate(-10730 -16240)" fill="gray"/>
    <rect id="Rectangle_1061" data-name="Rectangle 1061" width="4" height="4" rx="2" transform="translate(-10736 -16240)" fill="gray"/>
    <rect id="Rectangle_1062" data-name="Rectangle 1062" width="4" height="4" rx="2" transform="translate(-10730 -16234)" fill="gray"/>
    <rect id="Rectangle_1063" data-name="Rectangle 1063" width="4" height="4" rx="2" transform="translate(-10730 -16228)" fill="gray"/>
  </g>
</svg>
