<?xml version="1.0" encoding="utf-8"?>
<!-- Generator: Adobe Illustrator 22.0.1, SVG Export Plug-In . SVG Version: 6.00 Build 0)  -->
<svg version="1.1" id="Layer_1" xmlns="http://www.w3.org/2000/svg" xmlns:xlink="http://www.w3.org/1999/xlink" x="0px" y="0px"
	 viewBox="0 0 127.3 27" style="enable-background:new 0 0 127.3 27;" xml:space="preserve">
<style type="text/css">
	.st0{fill:#38C800;}
	.st1{fill:#0087E4;}
	.st2{enable-background:new    ;}
	.st3{fill:#373737;}
	.st4{fill:#808080;}
</style>
<g id="Group_568" transform="translate(-133.184 -613.618)">
	<g id="Group_567" transform="translate(141.112 624.89)">
		<g id="Path_427">
			<path class="st0" d="M3.2,6.6L0,3.3l1.9-1.9l1.3,1.4L6,0l1.9,1.9L3.2,6.6z"/>
		</g>
	</g>
	<g id="Path_429">
		<path class="st1" d="M156.9,625.4l-7.3,7.7c0,0,0,0-0.1,0.1c-2.8,2.9-7.4,2.9-10.3,0.1s-2.9-7.4-0.1-10.3
			c2.8-2.9,7.4-2.9,10.3-0.1c0.6,0.6,1.1,1.3,1.5,2.1l2.8-2.8c-3.3-5.2-10.1-6.7-15.3-3.4c-5.2,3.3-6.7,10.1-3.4,15.3
			c3.3,5.2,10.1,6.7,15.3,3.4c0.6-0.4,1.2-0.8,1.7-1.3c0,0,0.1-0.1,0.1-0.1l7.6-8.1L156.9,625.4z"/>
	</g>
	<g class="st2">
		<path class="st3" d="M163.2,618.8c0.6-0.1,1.3-0.1,1.8-0.2s1.2-0.1,1.9-0.1c0.8,0,1.6,0.1,2.4,0.2c0.8,0.1,1.5,0.4,2.1,0.8
			c0.6,0.4,1.1,0.9,1.5,1.5c0.4,0.6,0.6,1.4,0.6,2.4c0,0.6-0.1,1.1-0.2,1.6c-0.1,0.4-0.3,0.8-0.6,1.2c-0.2,0.3-0.5,0.6-0.7,0.9
			c-0.3,0.2-0.5,0.4-0.7,0.6l-0.4,0.2l3.9,6.7c-0.3,0-0.6,0.1-0.9,0.1c-0.3,0-0.7,0-1,0c-0.6,0-1.1,0-1.6-0.1l-4.1-7.3l0.5-0.3
			c0.2-0.1,0.5-0.2,0.7-0.4c0.3-0.2,0.6-0.4,0.8-0.6c0.3-0.2,0.5-0.5,0.7-0.9s0.3-0.8,0.3-1.2c0-0.9-0.3-1.6-0.8-2
			c-0.5-0.4-1.2-0.6-2-0.6c-0.3,0-0.6,0-0.9,0.1v13.4c-0.3,0-0.5,0.1-0.8,0.1c-0.3,0-0.5,0-0.8,0c-0.2,0-0.5,0-0.8,0
			c-0.3,0-0.6,0-0.9-0.1V618.8z"/>
	</g>
	<g class="st2">
		<path class="st3" d="M179.7,620.9c0,0.9-0.7,1.7-1.8,1.7c-1.1,0-1.7-0.7-1.7-1.7c0-0.9,0.7-1.7,1.8-1.7S179.7,619.9,179.7,620.9z
			 M176.3,634.6v-10.8h3.3v10.8H176.3z"/>
		<path class="st3" d="M192.5,633.1c0,2.1-0.4,3.8-1.7,4.8c-1.2,1-2.8,1.3-4.4,1.3c-1.4,0-2.9-0.3-3.9-0.8l0.7-2.6
			c0.7,0.4,1.8,0.8,3.1,0.8c1.6,0,2.8-0.8,2.8-2.8v-0.7h0c-0.6,0.9-1.7,1.4-2.9,1.4c-2.7,0-4.6-2.2-4.6-5.2c0-3.5,2.2-5.7,4.9-5.7
			c1.5,0,2.4,0.6,2.9,1.5h0l0.1-1.3h2.9c0,0.7-0.1,1.6-0.1,3.2V633.1z M189.2,628.2c0-0.2,0-0.4-0.1-0.6c-0.2-0.9-0.9-1.5-1.8-1.5
			c-1.2,0-2.2,1.1-2.2,3.1c0,1.6,0.8,2.9,2.2,2.9c0.9,0,1.6-0.6,1.8-1.3c0.1-0.3,0.1-0.6,0.1-0.9V628.2z"/>
		<path class="st3" d="M195.2,619h3.3v6.2h0c0.4-0.5,0.8-0.9,1.3-1.1c0.5-0.3,1.1-0.4,1.7-0.4c2.1,0,3.8,1.5,3.8,4.7v6.3h-3.3v-5.9
			c0-1.4-0.5-2.4-1.7-2.4c-0.9,0-1.4,0.6-1.7,1.2c-0.1,0.2-0.1,0.5-0.1,0.7v6.4h-3.3V619z"/>
		<path class="st3" d="M211.7,621v2.9h2.4v2.5h-2.4v3.9c0,1.3,0.3,1.9,1.3,1.9c0.5,0,0.7,0,1-0.1l0,2.5c-0.4,0.2-1.2,0.3-2.2,0.3
			c-1.1,0-2-0.4-2.5-0.9c-0.6-0.6-0.9-1.7-0.9-3.2v-4.4H207v-2.5h1.4v-2L211.7,621z"/>
	</g>
	<g class="st2">
		<path class="st4" d="M219.2,621.4h-4.5v-1.6h11v1.6h-4.5v13.2h-1.9V621.4z"/>
		<path class="st4" d="M229.1,621c0,0.7-0.5,1.2-1.2,1.2c-0.7,0-1.2-0.5-1.2-1.2s0.5-1.2,1.2-1.2C228.6,619.8,229.1,620.3,229.1,621
			z M227,634.6V624h1.9v10.6H227z"/>
		<path class="st4" d="M232.1,626.9c0-1.1,0-2-0.1-2.9h1.7l0.1,1.7h0.1c0.6-1,1.6-2,3.4-2c1.4,0,2.5,0.9,3,2.1h0
			c0.3-0.6,0.8-1.1,1.2-1.4c0.6-0.5,1.3-0.7,2.3-0.7c1.4,0,3.5,0.9,3.5,4.6v6.2h-1.9v-6c0-2.1-0.8-3.3-2.3-3.3c-1.1,0-2,0.8-2.3,1.7
			c-0.1,0.3-0.2,0.6-0.2,1v6.6h-1.9v-6.4c0-1.7-0.7-2.9-2.2-2.9c-1.2,0-2.1,1-2.4,1.9c-0.1,0.3-0.2,0.6-0.2,0.9v6.4h-1.9V626.9z"/>
		<path class="st4" d="M251.5,629.6c0,2.6,1.7,3.7,3.7,3.7c1.4,0,2.2-0.2,2.9-0.5l0.4,1.4c-0.7,0.3-1.9,0.7-3.6,0.7
			c-3.3,0-5.2-2.2-5.2-5.4c0-3.2,1.9-5.7,5-5.7c3.5,0,4.4,3,4.4,5c0,0.4,0,0.7-0.1,0.9H251.5z M257.2,628.3c0-1.2-0.5-3.1-2.7-3.1
			c-2,0-2.8,1.8-3,3.1H257.2z"/>
	</g>
</g>
</svg>
