<svg xmlns="http://www.w3.org/2000/svg" width="420.98" height="324.426" viewBox="0 0 420.98 324.426">
  <g id="Group_2473" data-name="Group 2473" transform="translate(-732 -176)">
    <g id="Group_807" data-name="Group 807" transform="translate(732 176)">
      <g id="Group_796" data-name="Group 796" transform="translate(0 10.705)">
        <g id="Group_795" data-name="Group 795">
          <g id="Group_794" data-name="Group 794">
            <rect id="Rectangle_302" data-name="Rectangle 302" width="420.98" height="0.21" transform="translate(0 275.696)" fill="#e0e0e0"/>
            <rect id="Rectangle_303" data-name="Rectangle 303" width="27.577" height="0.21" transform="translate(347.589 281.114)" fill="#e0e0e0"/>
            <rect id="Rectangle_304" data-name="Rectangle 304" width="34.45" height="0.21" transform="translate(243.62 285.686)" fill="#e0e0e0"/>
            <rect id="Rectangle_305" data-name="Rectangle 305" width="7.985" height="0.21" transform="translate(283.239 285.686)" fill="#e0e0e0"/>
            <rect id="Rectangle_306" data-name="Rectangle 306" width="32.415" height="0.21" transform="translate(78.443 283.265)" fill="#e0e0e0"/>
            <rect id="Rectangle_307" data-name="Rectangle 307" width="28.908" height="0.21" transform="translate(146.641 283.265)" fill="#e0e0e0"/>
            <rect id="Rectangle_308" data-name="Rectangle 308" width="29.4" height="0.21" transform="translate(310.037 281.114)" fill="#e0e0e0"/>
            <rect id="Rectangle_309" data-name="Rectangle 309" width="28.082" height="0.21" transform="translate(43.484 283.265)" fill="#e0e0e0"/>
            <path id="Path_741" data-name="Path 741" d="M205.594,293.1H43.013a4.812,4.812,0,0,1-4.806-4.806V59.758a4.811,4.811,0,0,1,4.806-4.805H205.594a4.811,4.811,0,0,1,4.805,4.805V288.293A4.812,4.812,0,0,1,205.594,293.1ZM43.013,55.163a4.6,4.6,0,0,0-4.6,4.595V288.293a4.6,4.6,0,0,0,4.6,4.6H205.594a4.6,4.6,0,0,0,4.595-4.6V59.758a4.6,4.6,0,0,0-4.595-4.595Z" transform="translate(-6.038 -54.953)" fill="#e0e0e0"/>
            <path id="Path_742" data-name="Path 742" d="M421.891,293.1H259.31a4.811,4.811,0,0,1-4.805-4.806V59.758a4.81,4.81,0,0,1,4.805-4.805H421.891a4.811,4.811,0,0,1,4.807,4.805V288.293A4.812,4.812,0,0,1,421.891,293.1ZM259.31,55.163a4.6,4.6,0,0,0-4.595,4.595V288.293a4.6,4.6,0,0,0,4.595,4.6H421.891a4.6,4.6,0,0,0,4.6-4.6V59.758a4.6,4.6,0,0,0-4.6-4.595Z" transform="translate(-40.222 -54.953)" fill="#e0e0e0"/>
          </g>
        </g>
      </g>
      <g id="Group_806" data-name="Group 806" transform="translate(19.26 0)">
        <g id="Group_797" data-name="Group 797">
          <path id="Path_743" data-name="Path 743" d="M139.676,127.322l17-16.763-3.55-6.893,0,0c.317-.687.608-1.378.882-2.08v0l7.413-2.261.166-23.871L154.2,73.085h0c-.264-.706-.542-1.4-.85-2.095l3.643-6.843-16.763-17L133.34,50.7h0c-.688-.317-1.382-.6-2.084-.878L128.993,42.4l-23.871-.165-2.365,7.385c-.709.259-1.4.541-2.093.848h0l-6.843-3.643-17,16.763,3.549,6.894c-.316.685-.606,1.382-.879,2.081L72.076,74.83,71.911,98.7l7.383,2.364h0c.264.706.542,1.4.85,2.1v0L76.5,110l16.763,17,6.891-3.548c.687.317,1.382.6,2.084.878h0l2.262,7.416,23.871.165,2.365-7.386c.7-.263,1.4-.544,2.092-.85Zm-10.452-27.6A17.766,17.766,0,1,1,129.4,74.6,17.766,17.766,0,0,1,129.224,99.722Z" transform="translate(-30.625 -42.239)" fill="#f0f0f0"/>
          <path id="Path_744" data-name="Path 744" d="M67.375,185.541l11.161-11.008-2.331-4.527h0c.208-.451.4-.905.578-1.366v0l4.867-1.484.109-15.676-4.849-1.553h0c-.173-.464-.355-.922-.557-1.377l2.393-4.493L67.74,132.895l-4.526,2.33h0c-.45-.208-.907-.4-1.368-.577l-1.485-4.87-15.676-.109-1.553,4.85c-.465.17-.921.355-1.374.557h0l-4.494-2.393L26.1,143.691l2.331,4.527c-.207.45-.4.908-.578,1.367l-4.87,1.485-.109,15.676,4.848,1.553h0c.173.464.355.922.557,1.377h0l-2.392,4.492L36.9,185.33,41.423,183c.451.208.907.4,1.368.577h0l1.485,4.87,15.676.109,1.553-4.85c.462-.173.922-.358,1.374-.558Zm-6.864-18.125a11.666,11.666,0,1,1,.115-16.5A11.667,11.667,0,0,1,60.511,167.417Z" transform="translate(-22.875 -56.056)" fill="#e0e0e0"/>
          <path id="Path_745" data-name="Path 745" d="M454.657,354.092l8.1-7.993-1.692-3.287h0c.152-.327.29-.658.421-.992h0l3.535-1.079.079-11.382-3.521-1.127h0c-.125-.337-.258-.669-.4-1l1.737-3.263-7.993-8.1-3.286,1.691h0c-.328-.152-.659-.289-.994-.418l-1.079-3.536-11.382-.079-1.127,3.521c-.338.124-.669.258-1,.4h0l-3.263-1.737-8.1,7.993,1.692,3.287c-.151.327-.29.659-.419.993l-3.536,1.079-.079,11.382,3.52,1.127h0c.126.337.259.669.4,1h0l-1.737,3.261,7.993,8.1,3.285-1.691c.328.151.659.288.993.418h0l1.079,3.536,11.382.079,1.128-3.522c.335-.125.668-.259,1-.4Zm-4.984-13.161a8.471,8.471,0,1,1,.083-11.979A8.472,8.472,0,0,1,449.673,340.931Z" transform="translate(-86.007 -85.113)" fill="#f0f0f0"/>
        </g>
        <g id="Group_798" data-name="Group 798" transform="translate(16.363 60.011)">
          <path id="Path_746" data-name="Path 746" d="M295.135,310H47.648a5.344,5.344,0,0,1-5.338-5.338V118.852a5.344,5.344,0,0,1,5.338-5.338H295.135a5.344,5.344,0,0,1,5.338,5.338V304.66A5.344,5.344,0,0,1,295.135,310ZM47.648,113.935a4.923,4.923,0,0,0-4.917,4.917V304.66a4.923,4.923,0,0,0,4.917,4.917H295.135a4.923,4.923,0,0,0,4.917-4.917V118.852a4.923,4.923,0,0,0-4.917-4.917Z" transform="translate(-42.31 -113.514)" fill="#e0e0e0"/>
          <path id="Path_747" data-name="Path 747" d="M55.371,124.069a2.938,2.938,0,1,1,2.938-2.938A2.941,2.941,0,0,1,55.371,124.069Zm0-5.455a2.517,2.517,0,1,0,2.517,2.517A2.52,2.52,0,0,0,55.371,118.614Z" transform="translate(-43.91 -114.253)" fill="#e0e0e0"/>
          <path id="Path_748" data-name="Path 748" d="M66.849,124.069a2.938,2.938,0,1,1,2.938-2.938A2.941,2.941,0,0,1,66.849,124.069Zm0-5.455a2.517,2.517,0,1,0,2.517,2.517A2.52,2.52,0,0,0,66.849,118.614Z" transform="translate(-45.724 -114.253)" fill="#e0e0e0"/>
          <path id="Path_749" data-name="Path 749" d="M78.327,124.069a2.938,2.938,0,1,1,2.938-2.938A2.941,2.941,0,0,1,78.327,124.069Zm0-5.455a2.517,2.517,0,1,0,2.517,2.517A2.52,2.52,0,0,0,78.327,118.614Z" transform="translate(-47.538 -114.253)" fill="#e0e0e0"/>
        </g>
        <g id="Group_805" data-name="Group 805" transform="translate(114.024 23.821)">
          <g id="Group_801" data-name="Group 801">
            <g id="Group_800" data-name="Group 800">
              <g id="Group_799" data-name="Group 799">
                <rect id="Rectangle_310" data-name="Rectangle 310" width="257.742" height="196.063" rx="6.09" transform="translate(0.842 0.842)" fill="#e0e0e0"/>
                <path id="Path_750" data-name="Path 750" d="M411.759,268.278H164.271a5.976,5.976,0,0,1-5.969-5.97V76.5a5.976,5.976,0,0,1,5.969-5.969H411.759a5.976,5.976,0,0,1,5.969,5.969V262.308A5.977,5.977,0,0,1,411.759,268.278ZM164.271,72.215a4.291,4.291,0,0,0-4.286,4.286V262.308a4.291,4.291,0,0,0,4.286,4.286H411.759a4.291,4.291,0,0,0,4.286-4.286V76.5a4.291,4.291,0,0,0-4.286-4.286Z" transform="translate(-158.302 -70.531)" fill="#e0e0e0"/>
              </g>
              <path id="Path_751" data-name="Path 751" d="M159.3,87.278V264.955a5.143,5.143,0,0,0,5.128,5.128H411.917a5.143,5.143,0,0,0,5.128-5.128V87.278Z" transform="translate(-158.46 -73.178)" fill="#f0f0f0"/>
              <rect id="Rectangle_311" data-name="Rectangle 311" width="255.849" height="169.167" transform="translate(1.789 20.919)" fill="#fff"/>
              <path id="Path_752" data-name="Path 752" d="M408.907,251.109H171.161a.085.085,0,0,1-.085-.085V108.389a.085.085,0,0,1,.085-.085H408.907a.085.085,0,0,1,.085.085V251.024A.086.086,0,0,1,408.907,251.109Zm-237.661-.171H408.821V108.474H171.246Z" transform="translate(-160.321 -76.501)" fill="#e6e6e6"/>
              <path id="Path_753" data-name="Path 753" d="M172.089,81.942a3.068,3.068,0,1,1,3.068-3.068A3.072,3.072,0,0,1,172.089,81.942Zm0-5.455a2.387,2.387,0,1,0,2.386,2.387A2.39,2.39,0,0,0,172.089,76.487Z" transform="translate(-159.996 -71.365)" fill="#fff"/>
              <path id="Path_754" data-name="Path 754" d="M183.567,81.942a3.068,3.068,0,1,1,3.068-3.068A3.072,3.072,0,0,1,183.567,81.942Zm0-5.455a2.387,2.387,0,1,0,2.386,2.387A2.39,2.39,0,0,0,183.567,76.487Z" transform="translate(-161.81 -71.365)" fill="#fff"/>
              <path id="Path_755" data-name="Path 755" d="M195.045,81.942a3.068,3.068,0,1,1,3.068-3.068A3.071,3.071,0,0,1,195.045,81.942Zm0-5.455a2.387,2.387,0,1,0,2.387,2.387A2.39,2.39,0,0,0,195.045,76.487Z" transform="translate(-163.624 -71.365)" fill="#fff"/>
              <rect id="Rectangle_312" data-name="Rectangle 312" width="257.742" height="0.682" transform="translate(0.842 13.76)" fill="#e0e0e0"/>
            </g>
          </g>
          <g id="Group_804" data-name="Group 804" transform="translate(16.674 37.722)">
            <rect id="Rectangle_313" data-name="Rectangle 313" width="117.906" height="120.173" transform="translate(218.955 120.173) rotate(180)" fill="#f0f0f0"/>
            <g id="Group_802" data-name="Group 802">
              <rect id="Rectangle_314" data-name="Rectangle 314" width="77.846" height="39.093" transform="translate(77.846 39.093) rotate(180)" fill="#f0f0f0"/>
            </g>
            <g id="Group_803" data-name="Group 803" transform="translate(0 53.716)">
              <rect id="Rectangle_315" data-name="Rectangle 315" width="77.846" height="98.649" transform="translate(77.846 98.649) rotate(180)" fill="#f0f0f0"/>
            </g>
          </g>
        </g>
      </g>
    </g>
    <ellipse id="Ellipse_71" data-name="Ellipse 71" cx="163.247" cy="9.534" rx="163.247" ry="9.534" transform="translate(779.243 481.358)" fill="#f5f5f5"/>
    <g id="Group_812" data-name="Group 812" transform="translate(783.36 221.932)">
      <g id="Group_808" data-name="Group 808" transform="translate(0 0)">
        <path id="Path_756" data-name="Path 756" d="M371.17,96.793H69.1a8.12,8.12,0,0,0-8.1,8.091V306.5a8.121,8.121,0,0,0,8.1,8.091H371.17a8.119,8.119,0,0,0,8.091-8.091V104.884A8.118,8.118,0,0,0,371.17,96.793Z" transform="translate(-61 -96.793)" fill="#ace7a8"/>
        <path id="Path_757" data-name="Path 757" d="M371.17,96.793H69.1a8.12,8.12,0,0,0-8.1,8.091V306.5a8.121,8.121,0,0,0,8.1,8.091H371.17a8.119,8.119,0,0,0,8.091-8.091V104.884A8.118,8.118,0,0,0,371.17,96.793Z" transform="translate(-61 -96.793)" fill="#e0e0e0"/>
      </g>
      <path id="Path_758" data-name="Path 758" d="M123.864,111.727H81.1a2.947,2.947,0,0,1,0-5.894h42.762a2.947,2.947,0,1,1,0,5.894ZM81.1,106.675a2.1,2.1,0,0,0,0,4.21h42.762a2.1,2.1,0,0,0,0-4.21Z" transform="translate(-63.711 -98.222)" fill="#fafafa"/>
      <path id="Path_759" data-name="Path 759" d="M147.831,111.727h-2.853a2.947,2.947,0,1,1,0-5.894h2.853a2.947,2.947,0,0,1,0,5.894Zm-2.853-5.052a2.1,2.1,0,1,0,0,4.21h2.853a2.1,2.1,0,0,0,0-4.21Z" transform="translate(-73.806 -98.222)" fill="#fafafa"/>
      <path id="Path_760" data-name="Path 760" d="M162,111.727h-2.853a2.947,2.947,0,0,1,0-5.894H162a2.947,2.947,0,0,1,0,5.894Zm-2.853-5.052a2.1,2.1,0,0,0,0,4.21H162a2.1,2.1,0,0,0,0-4.21Z" transform="translate(-76.046 -98.222)" fill="#fafafa"/>
      <path id="Path_763" data-name="Path 763" d="M62.777,121.652V303.163a4.594,4.594,0,0,0,4.595,4.594H373.451a4.594,4.594,0,0,0,4.595-4.594V121.652Z" transform="translate(-61.281 -100.722)" fill="#fafafa"/>
      <g id="Group_810" data-name="Group 810" transform="translate(16.034 31.615)">
        <path id="Path_764" data-name="Path 764" d="M80.044,134.342v33.707h216.31V134.342Z" transform="translate(-80.044 -134.342)" fill="#407bff"/>
        <path id="Path_765" data-name="Path 765" d="M80.044,134.342v33.707h216.31V134.342Z" transform="translate(-80.044 -134.342)" fill="#fff" opacity="0.9"/>
      </g>
      <g id="Group_811" data-name="Group 811" transform="translate(16.034 74.217)">
        <path id="Path_766" data-name="Path 766" d="M295.512,185.783V275.2H80.886V185.783H295.512m.842-.842H80.044v91.1h216.31v-91.1Z" transform="translate(-80.044 -184.941)" fill="#407bff"/>
        <path id="Path_767" data-name="Path 767" d="M295.512,185.783V275.2H80.886V185.783H295.512m.842-.842H80.044v91.1h216.31v-91.1Z" transform="translate(-80.044 -184.941)" fill="#fff" opacity="0.9"/>
      </g>
    </g>
    <g id="Group_825" data-name="Group 825" transform="translate(907.686 281.314)">
      <path id="Path_768" data-name="Path 768" d="M364.316,404.176h-6.352l-1.69-14.709h6.352Z" transform="translate(-231.992 -202.429)" fill="#9c7062"/>
      <path id="Path_769" data-name="Path 769" d="M409.46,404.176h-6.352l-4.949-14.709h6.352Z" transform="translate(-238.612 -202.429)" fill="#9c7062"/>
      <path id="Path_770" data-name="Path 770" d="M401.172,406.064h7.743a.553.553,0,0,1,.541.434l1.255,5.646a.934.934,0,0,1-.93,1.129c-2.491-.043-4.309-.189-7.448-.189-1.931,0-5.908.2-8.574.2-2.608,0-3.014-2.636-1.923-2.875,4.894-1.07,6.737-2.547,8.3-3.955A1.54,1.54,0,0,1,401.172,406.064Z" transform="translate(-237.523 -205.052)" fill="#263238"/>
      <path id="Path_771" data-name="Path 771" d="M355.455,406.064h6.937a.554.554,0,0,1,.541.434l1.255,5.646a.924.924,0,0,1-.914,1.13c-2.5-.043-6.118-.189-9.262-.189-3.678,0-6.854.2-11.166.2-2.608,0-3.332-2.636-2.24-2.875,4.968-1.087,9.026-1.2,13.32-3.851A2.944,2.944,0,0,1,355.455,406.064Z" transform="translate(-229.438 -205.052)" fill="#263238"/>
      <path id="Path_772" data-name="Path 772" d="M363.829,219.49c-.631,4.92-1.324,9.862-2.057,14.776l-2.2,14.954a12.875,12.875,0,0,1-2.13,5.08,16.5,16.5,0,0,1-3.473,3.561,27.021,27.021,0,0,1-7.727,3.908,47.26,47.26,0,0,1-7.808,1.835c-1.3.2-2.6.333-3.9.443s-2.573.179-3.958.178l-.43-4.75c2.264-.521,4.664-1.128,6.913-1.874a50.538,50.538,0,0,0,6.517-2.533,21.381,21.381,0,0,0,5.293-3.407,8.126,8.126,0,0,0,1.575-1.942,4.772,4.772,0,0,0,.58-1.847l.244-3.541c.086-1.262.2-2.517.312-3.773q.336-3.764.749-7.509c.546-5,1.2-9.96,1.977-14.934Z" transform="translate(-227.862 -175.349)" fill="#9c7062"/>
      <g id="Group_813" data-name="Group 813" transform="translate(120.963 36.285)">
        <path id="Path_773" data-name="Path 773" d="M369.429,215.087c2.141,5.683-2.986,24.731-2.986,24.731l-14.111-7.056s.665-9.5,3.892-16.8C359.484,208.587,367.081,208.85,369.429,215.087Z" transform="translate(-352.332 -210.418)" fill="#38c800"/>
        <path id="Path_774" data-name="Path 774" d="M369.429,215.087c2.141,5.683-2.986,24.731-2.986,24.731l-14.111-7.056s.665-9.5,3.892-16.8C359.484,208.587,367.081,208.85,369.429,215.087Z" transform="translate(-352.332 -210.418)" fill="#38c800" opacity="0.3"/>
      </g>
      <path id="Path_775" data-name="Path 775" d="M332.851,266.52l-6.931.46,3.237,7.44a6.108,6.108,0,0,0,5.707-4.454Z" transform="translate(-227.195 -182.999)" fill="#9c7062"/>
      <path id="Path_776" data-name="Path 776" d="M318.493,269.988l3.842,5.208,5.649-.69-3.238-7.439Z" transform="translate(-226.021 -183.085)" fill="#9c7062"/>
      <g id="Group_814" data-name="Group 814" transform="translate(124.284 187.042)">
        <path id="Path_777" data-name="Path 777" d="M356.276,389.472l.98,8.538,6.311-.38-.936-8.158Z" transform="translate(-356.276 -389.472)" fill="#7f574c"/>
        <path id="Path_778" data-name="Path 778" d="M404.514,389.472H398.16l3.319,9.853L407.387,398Z" transform="translate(-362.896 -389.472)" fill="#7f574c"/>
      </g>
      <g id="Group_815" data-name="Group 815" transform="translate(127.072 34.632)">
        <path id="Path_779" data-name="Path 779" d="M363.034,210.43s-7.5,19.181-.376,54.9h33.973c.234-5.215-3.043-30.656,1.988-55.228a88.658,88.658,0,0,0-11.373-1.436,124.742,124.742,0,0,0-14.442,0A63.7,63.7,0,0,0,363.034,210.43Z" transform="translate(-359.588 -208.455)" fill="#38c800"/>
        <path id="Path_780" data-name="Path 780" d="M363.034,210.43s-7.5,19.181-.376,54.9h33.973c.234-5.215-3.043-30.656,1.988-55.228a88.658,88.658,0,0,0-11.373-1.436,124.742,124.742,0,0,0-14.442,0A63.7,63.7,0,0,0,363.034,210.43Z" transform="translate(-359.588 -208.455)" fill="#38c800" opacity="0.3"/>
      </g>
      <g id="Group_817" data-name="Group 817" transform="translate(158.742 43.938)">
        <path id="Path_783" data-name="Path 783" d="M397.64,223.592c1.107-5.606,3.268-4.638,5.318-1.874a176.662,176.662,0,0,0-1.212,22.4C400.351,241.742,395.782,232.99,397.64,223.592Z" transform="translate(-397.202 -219.507)" fill="#34aa07"/>
        <path id="Path_784" data-name="Path 784" d="M397.64,223.592c1.107-5.606,3.268-4.638,5.318-1.874a176.662,176.662,0,0,0-1.212,22.4C400.351,241.742,395.782,232.99,397.64,223.592Z" transform="translate(-397.202 -219.507)" fill="#34aa07" opacity="0.4"/>
      </g>
      <path id="Path_785" data-name="Path 785" d="M388.053,189.392c-.911,4.647-1.82,13.162,1.43,16.262,0,0-1.271,4.714-9.9,4.714-9.494,0-4.537-4.713-4.537-4.713,5.182-1.238,5.048-5.082,4.146-8.692Z" transform="translate(-234.754 -170.809)" fill="#9c7062"/>
      <path id="Path_786" data-name="Path 786" d="M385.46,193.061l-5.247,4.477a14.933,14.933,0,0,1,.445,2.564c1.979-.286,4.7-2.459,4.909-4.532A6.969,6.969,0,0,0,385.46,193.061Z" transform="translate(-235.775 -171.389)" fill="#7f574c"/>
      <path id="Path_787" data-name="Path 787" d="M388.749,180.767c-1.844,6.028-2.617,9.65-6.46,12.048-5.782,3.609-12.661-1.005-12.656-7.463.005-5.812,3.02-14.694,9.593-15.692A8.6,8.6,0,0,1,388.749,180.767Z" transform="translate(-234.103 -167.674)" fill="#9c7062"/>
      <path id="Path_788" data-name="Path 788" d="M392.518,190.789a5.994,5.994,0,0,1-4.249,1.7c-2.1-.04-2.549-2.064-1.462-3.732.978-1.5,3.252-3.289,5.117-2.441A2.691,2.691,0,0,1,392.518,190.789Z" transform="translate(-236.727 -170.289)" fill="#9c7062"/>
      <path id="Path_789" data-name="Path 789" d="M358.712,276.007s-24.77,34.325-24.079,53.7c.719,20.147,16.708,47.951,16.708,47.951l10.332-2.371s-10.276-24.256-9.8-44.043c.522-21.571,29.17-38.592,29.17-55.233Z" transform="translate(-228.57 -184.498)" fill="#263238"/>
      <path id="Path_790" data-name="Path 790" d="M375.777,276.007s-12.622,35.376-8.665,53.561c4.334,19.915,26.066,49.338,26.066,49.338l10.4-2.863s-14.076-25.317-16.549-45.035c-2.684-21.4,10.665-39.087,10.665-55Z" transform="translate(-233.584 -184.498)" fill="#263238"/>
      <g id="Group_818" data-name="Group 818" transform="translate(155.491 189.048)">
        <path id="Path_791" data-name="Path 791" d="M395.9,398.654l14.952-2.775-.747-4.024-16.763,2.84Z" transform="translate(-393.341 -391.855)" fill="#080a0b"/>
        <path id="Path_792" data-name="Path 792" d="M395.9,398.654l14.952-2.775-.747-4.024-16.763,2.84Z" transform="translate(-393.341 -391.855)" fill="#080a0b" opacity="0.4"/>
      </g>
      <g id="Group_819" data-name="Group 819" transform="translate(118.403 188.441)">
        <path id="Path_793" data-name="Path 793" d="M351.5,396.748l15.134-1.494-.407-4.121-16.939,1.453Z" transform="translate(-349.292 -391.133)" fill="#080a0b"/>
        <path id="Path_794" data-name="Path 794" d="M351.5,396.748l15.134-1.494-.407-4.121-16.939,1.453Z" transform="translate(-349.292 -391.133)" fill="#080a0b" opacity="0.4"/>
      </g>
      <path id="Path_795" data-name="Path 795" d="M380.6,182.06c-.12.5-.48.839-.806.76s-.493-.545-.373-1.043.48-.839.806-.76S380.718,181.562,380.6,182.06Z" transform="translate(-235.644 -169.484)" fill="#263238"/>
      <path id="Path_796" data-name="Path 796" d="M373.91,180.455c-.12.5-.48.839-.806.76s-.493-.545-.373-1.043.48-.839.806-.76S374.03,179.957,373.91,180.455Z" transform="translate(-234.587 -169.23)" fill="#263238"/>
      <path id="Path_797" data-name="Path 797" d="M377.291,189.026a4.816,4.816,0,0,1-1.127-.137.15.15,0,0,1-.111-.181.147.147,0,0,1,.182-.112,4.042,4.042,0,0,0,3.587-.77.151.151,0,1,1,.207.219A4.167,4.167,0,0,1,377.291,189.026Z" transform="translate(-235.117 -170.555)" fill="#263238"/>
      <path id="Path_798" data-name="Path 798" d="M383.036,180.181a.3.3,0,0,1-.275-.181,2.4,2.4,0,0,0-1.639-1.426.3.3,0,0,1,.1-.594,2.986,2.986,0,0,1,2.091,1.779.3.3,0,0,1-.154.4A.31.31,0,0,1,383.036,180.181Z" transform="translate(-235.879 -169.005)" fill="#263238"/>
      <path id="Path_799" data-name="Path 799" d="M371.789,177.355a.3.3,0,0,1-.233-.492,2.987,2.987,0,0,1,2.5-1.143.3.3,0,0,1,.266.332.307.307,0,0,1-.331.266,2.388,2.388,0,0,0-1.968.927A.3.3,0,0,1,371.789,177.355Z" transform="translate(-234.397 -168.648)" fill="#263238"/>
      <g id="Group_823" data-name="Group 823" transform="translate(0 74.517)">
        <rect id="Rectangle_316" data-name="Rectangle 316" width="22.955" height="0.841" transform="translate(31.806 58.657) rotate(-6.794)" fill="#407bff"/>
        <rect id="Rectangle_317" data-name="Rectangle 317" width="9.452" height="0.841" transform="translate(62.707 54.978) rotate(-6.851)" fill="#407bff"/>
        <rect id="Rectangle_318" data-name="Rectangle 318" width="203.567" height="35.973" transform="matrix(0.993, -0.118, 0.118, 0.993, 0, 24.103)" fill="#c6d8ff"/>
        <g id="Group_820" data-name="Group 820" transform="translate(79.427 13.352)">
          <rect id="Rectangle_319" data-name="Rectangle 319" width="93.516" height="16.525" transform="matrix(0.993, -0.118, 0.118, 0.993, 0, 11.072)" fill="#eff5ff"/>
          <rect id="Rectangle_320" data-name="Rectangle 320" width="93.516" height="16.525" transform="matrix(0.993, -0.118, 0.118, 0.993, 0, 11.072)" fill="#eff5ff" opacity="0.2"/>
        </g>
        <g id="Group_821" data-name="Group 821" transform="translate(9.232 24.632)">
          <circle id="Ellipse_72" data-name="Ellipse 72" cx="10.478" cy="10.478" r="10.478" transform="translate(0 13.096) rotate(-38.677)" fill="#eff5ff"/>
          <circle id="Ellipse_73" data-name="Ellipse 73" cx="10.478" cy="10.478" r="10.478" transform="translate(0 13.096) rotate(-38.677)" fill="#eff5ff" opacity="0.2"/>
        </g>
        <g id="Group_822" data-name="Group 822" transform="translate(38.89 21.135)">
          <circle id="Ellipse_74" data-name="Ellipse 74" cx="10.478" cy="10.478" r="10.478" transform="translate(0 16.615) rotate(-52.454)" fill="#eff5ff"/>
          <circle id="Ellipse_75" data-name="Ellipse 75" cx="10.478" cy="10.478" r="10.478" transform="translate(0 16.615) rotate(-52.454)" fill="#eff5ff" opacity="0.2"/>
        </g>
      </g>
      <path id="Path_800" data-name="Path 800" d="M406.129,216.282c.549,1.177,1,2.224,1.447,3.345.445,1.1.869,2.213,1.281,3.327.8,2.235,1.537,4.5,2.171,6.811.653,2.3,1.175,4.664,1.606,7.066l.3,1.812.223,1.846c.082.61.117,1.244.162,1.87l.065.941.016.235.014.391c.011.3-.005.562-.021.831a13.048,13.048,0,0,1-1.416,4.743,29.022,29.022,0,0,1-2.018,3.42,55.232,55.232,0,0,1-4.559,5.712,90.016,90.016,0,0,1-10.27,9.662l-3.353-3.391c2.752-3.507,5.49-7.135,7.975-10.739a60.984,60.984,0,0,0,3.373-5.439,20.784,20.784,0,0,0,1.214-2.609,5.227,5.227,0,0,0,.42-1.815c-.008-.015-.008-.038-.017-.024-.006-.017,0,.051-.009-.036l-.03-.19-.117-.761c-.079-.508-.144-1.01-.259-1.526l-.306-1.536-.357-1.548c-.514-2.063-1.1-4.132-1.763-6.2s-1.386-4.128-2.153-6.177c-.377-1.026-.766-2.051-1.172-3.064l-1.208-2.965Z" transform="translate(-237.603 -175.059)" fill="#9c7062"/>
      <g id="Group_824" data-name="Group 824" transform="translate(157.323 36.018)">
        <path id="Path_801" data-name="Path 801" d="M405.622,210.781c5.668,2.181,9.735,22.909,9.735,22.909l-13.5,5.319s-4.525-10.419-6.042-18.12C394.22,212.781,399.193,208.307,405.622,210.781Z" transform="translate(-395.517 -210.1)" fill="#38c800"/>
        <path id="Path_802" data-name="Path 802" d="M405.622,210.781c5.668,2.181,9.735,22.909,9.735,22.909l-13.5,5.319s-4.525-10.419-6.042-18.12C394.22,212.781,399.193,208.307,405.622,210.781Z" transform="translate(-395.517 -210.1)" fill="#38c800" opacity="0.3"/>
      </g>
      <path id="Path_803" data-name="Path 803" d="M400.247,407.08a1.926,1.926,0,0,1-1.223-.324.9.9,0,0,1-.312-.795.479.479,0,0,1,.258-.425c.7-.365,2.752.9,2.983,1.042a.152.152,0,0,1,.069.152.149.149,0,0,1-.113.122A7.5,7.5,0,0,1,400.247,407.08Zm-.944-1.315a.427.427,0,0,0-.2.038c-.04.021-.088.059-.1.177a.617.617,0,0,0,.2.546,3.069,3.069,0,0,0,2.256.114A6.086,6.086,0,0,0,399.3,405.765Z" transform="translate(-238.699 -204.958)" fill="#407bff"/>
      <path id="Path_804" data-name="Path 804" d="M402.116,406.576a.15.15,0,0,1-.072-.018c-.658-.357-1.928-1.749-1.794-2.457a.492.492,0,0,1,.479-.395.836.836,0,0,1,.641.194c.738.6.89,2.436.895,2.514a.147.147,0,0,1-.067.137A.152.152,0,0,1,402.116,406.576ZM400.834,404a.479.479,0,0,0-.068.005c-.2.024-.212.113-.22.151-.079.418.731,1.47,1.383,1.966a3.609,3.609,0,0,0-.75-1.99A.526.526,0,0,0,400.834,404Z" transform="translate(-238.941 -204.679)" fill="#407bff"/>
      <path id="Path_805" data-name="Path 805" d="M354.855,407.081a2.406,2.406,0,0,1-1.544-.391.841.841,0,0,1-.282-.732.478.478,0,0,1,.248-.4c.77-.429,3.325.866,3.614,1.014a.152.152,0,0,1,.08.156.148.148,0,0,1-.12.125A10.711,10.711,0,0,1,354.855,407.081Zm-1.151-1.315a.586.586,0,0,0-.28.056.179.179,0,0,0-.1.16.547.547,0,0,0,.182.483c.39.348,1.436.408,2.838.174A8.285,8.285,0,0,0,353.7,405.766Z" transform="translate(-231.479 -204.959)" fill="#407bff"/>
      <path id="Path_806" data-name="Path 806" d="M357.113,406.576a.158.158,0,0,1-.061-.013c-.766-.344-2.285-1.718-2.169-2.436.027-.169.147-.379.56-.421a1.087,1.087,0,0,1,.834.258,4.289,4.289,0,0,1,.986,2.447.151.151,0,0,1-.061.136A.161.161,0,0,1,357.113,406.576ZM355.564,404a.814.814,0,0,0-.09.005c-.271.027-.289.134-.294.169-.07.43.962,1.51,1.745,1.98a3.532,3.532,0,0,0-.839-1.959A.8.8,0,0,0,355.564,404Z" transform="translate(-231.771 -204.679)" fill="#407bff"/>
      <path id="Path_807" data-name="Path 807" d="M392.326,273.021l-6.231,1.657,5.166,6.257s4.991-2.589,3.915-5.387Z" transform="translate(-236.705 -184.026)" fill="#9c7062"/>
      <path id="Path_808" data-name="Path 808" d="M380.737,280.194l4.512,4.9,5.166-3.847-5.166-6.256Z" transform="translate(-235.858 -184.337)" fill="#9c7062"/>
      <path id="Path_809" data-name="Path 809" d="M373.868,172.726a68.738,68.738,0,0,0,8.521,2.219c2.335.233,1.051,8.755,1.167,9.455s4.436-1.518,5.6-2.335,3.619-6.42,1.868-8.639-12.024-6.537-14.358-6.07S372.7,169.224,373.868,172.726Z" transform="translate(-234.711 -167.321)" fill="#263238"/>
    </g>
    <path id="Path_810" data-name="Path 810" d="M137.6,192.108c-1.406,1.435-2.913,3.022-4.3,4.607-1.408,1.591-2.785,3.206-4.09,4.87s-2.542,3.365-3.727,5.087l-.863,1.305-.809,1.327c-.278.44-.528.889-.769,1.34l-.667,1.226a6.878,6.878,0,0,0-.458,2.187,20.677,20.677,0,0,0,0,2.9,55.464,55.464,0,0,0,.8,6.2c.361,2.1.813,4.2,1.32,6.3.48,2.1,1.036,4.22,1.585,6.287l-3.084,1.155a90.364,90.364,0,0,1-4.677-12.622,50.705,50.705,0,0,1-1.468-6.764,26.163,26.163,0,0,1-.261-3.677,11.861,11.861,0,0,1,.724-4.257c.188-.464.294-.653.424-.93l.381-.791c.249-.53.509-1.053.791-1.558l.829-1.529.877-1.49A63.717,63.717,0,0,1,124,197.6c1.368-1.819,2.778-3.6,4.268-5.307,1.518-1.707,3-3.339,4.728-4.98Z" transform="translate(713.646 110.834)" fill="#9c7062"/>
    <g id="Group_826" data-name="Group 826" transform="translate(842.812 292.895)">
      <path id="Path_811" data-name="Path 811" d="M140.4,181.088c-4.51.2-8.792,7.69-8.792,7.69l5.325,10.877s8.7-5.441,8.807-12.049C145.811,183.31,144.839,180.887,140.4,181.088Z" transform="translate(-131.612 -181.076)" fill="#333"/>
      <path id="Path_812" data-name="Path 812" d="M140.4,181.088c-4.51.2-8.792,7.69-8.792,7.69l5.325,10.877s8.7-5.441,8.807-12.049C145.811,183.31,144.839,180.887,140.4,181.088Z" transform="translate(-131.612 -181.076)" fill="#333" opacity="0.5"/>
    </g>
    <path id="Path_813" data-name="Path 813" d="M125.893,243.292l5.486,1.63-3.651,3.7s-3.953-1.218-4.5-3.906Z" transform="translate(712.525 101.986)" fill="#9c7062"/>
    <path id="Path_814" data-name="Path 814" d="M135.545,249.451l-.924,3.534-6.047-4.06,3.651-3.7Z" transform="translate(711.68 101.681)" fill="#b55b52"/>
    <rect id="Rectangle_321" data-name="Rectangle 321" width="133.18" height="50.211" transform="matrix(1, -0.024, 0.024, 1, 839.919, 317.705)" fill="#c6d8ff"/>
    <g id="Group_828" data-name="Group 828" transform="translate(916.738 318.675)">
      <rect id="Rectangle_323" data-name="Rectangle 323" width="49.653" height="18.72" transform="translate(0 1.19) rotate(-1.373)" fill="#eff6ff"/>
      <rect id="Rectangle_324" data-name="Rectangle 324" width="49.653" height="18.72" transform="translate(0 1.19) rotate(-1.373)" fill="#eff6ff" opacity="0.7"/>
    </g>
    <g id="Group_829" data-name="Group 829" transform="translate(890.134 341.969)">
      <rect id="Rectangle_325" data-name="Rectangle 325" width="49.653" height="18.72" transform="translate(0 1.19) rotate(-1.373)" fill="#eff6ff"/>
      <rect id="Rectangle_326" data-name="Rectangle 326" width="49.653" height="18.72" transform="translate(0 1.19) rotate(-1.373)" fill="#eff6ff" opacity="0.7"/>
    </g>
    <path id="Path_815" data-name="Path 815" d="M158.783,166.433c.121,3.932-.28,11.015-3.362,13.026,0,0,.407,4.044,7.484,5.415,7.783,1.507,4.354-3.121,4.354-3.121-4.081-1.831-3.454-4.943-2.228-7.743Z" transform="translate(707.437 114.133)" fill="#b55b52"/>
    <path id="Path_816" data-name="Path 816" d="M183.374,193.684c.482,1.959,1.1,4.109,1.774,6.124.695,2.033,1.43,4.047,2.283,5.987a42.635,42.635,0,0,0,2.891,5.539,22.159,22.159,0,0,0,3.636,4.6,11.789,11.789,0,0,0,2.133,1.6,7.948,7.948,0,0,0,1.126.552c.242.094.251.106.349.135a1.283,1.283,0,0,0,.29.055,4.291,4.291,0,0,0,1.95-.42,14.634,14.634,0,0,0,2.436-1.391,54.72,54.72,0,0,0,9.22-8.858l2.738,1.83c-.573,1.063-1.173,2.027-1.81,3.009s-1.3,1.934-2.016,2.863a35.129,35.129,0,0,1-4.861,5.322,17.639,17.639,0,0,1-3.216,2.267,9.734,9.734,0,0,1-4.512,1.278,7.3,7.3,0,0,1-1.384-.117,7.682,7.682,0,0,1-1.265-.348,13.976,13.976,0,0,1-1.94-.844,17.824,17.824,0,0,1-3.353-2.292c-3.993-3.481-6.436-7.775-8.444-12.069a62.66,62.66,0,0,1-2.6-6.579,65.934,65.934,0,0,1-1.918-6.843Z" transform="translate(704.046 109.827)" fill="#9c7062"/>
    <path id="Path_817" data-name="Path 817" d="M217.561,209.964l1.906-3.507,5.3,1.4s-3.177,4.845-5.906,4.853Z" transform="translate(697.617 107.808)" fill="#9c7062"/>
    <path id="Path_818" data-name="Path 818" d="M224.147,204.958l4.034,2.666h-3.052l-5.3-1.4Z" transform="translate(697.259 108.045)" fill="#9c7062"/>
    <path id="Path_819" data-name="Path 819" d="M139.3,403.594l6.5.479,1.93-14.924-6.5-.479Z" transform="translate(709.985 79.011)" fill="#9c7062"/>
    <path id="Path_820" data-name="Path 820" d="M78.556,366.646l4.493,4.821,12.181-8.724-4.493-4.821Z" transform="translate(719.585 83.87)" fill="#9c7062"/>
    <path id="Path_821" data-name="Path 821" d="M84.287,371.866l-3.748-6.4a.519.519,0,0,0-.644-.233l-5.34,2.152a1.041,1.041,0,0,0-.448,1.489c1.345,2.208,2.1,3.209,3.75,6.022,1.014,1.73,2.321,4.361,3.721,6.751,1.37,2.337,3.769,1.172,3.394.056-1.684-5.008-.812-6.466-.467-8.688A1.755,1.755,0,0,0,84.287,371.866Z" transform="translate(720.312 82.72)" fill="#263238"/>
    <path id="Path_822" data-name="Path 822" d="M145.846,405.865H138.54a.531.531,0,0,0-.53.445l-.981,5.779a1.014,1.014,0,0,0,1.013,1.157c2.548-.044,3.779-.194,6.992-.194,1.976,0,6.059.205,8.788.205,2.669,0,2.943-2.7,1.814-2.943-5.068-1.1-7.035-2.607-8.714-4.049A1.654,1.654,0,0,0,145.846,405.865Z" transform="translate(710.346 76.293)" fill="#263238"/>
    <g id="Group_830" data-name="Group 830" transform="translate(805.12 441.794)">
      <path id="Path_823" data-name="Path 823" d="M147.9,389.154l-1.071,8.294-6.425-1.076.994-7.7Z" transform="translate(-95.31 -362.784)" fill="#7f574c"/>
      <path id="Path_824" data-name="Path 824" d="M92.043,357.924l4.494,4.823L91.5,366.353l-4.651-4.711Z" transform="translate(-86.845 -357.924)" fill="#7f574c"/>
    </g>
    <g id="Group_831" data-name="Group 831" transform="translate(849.774 292.897)">
      <path id="Path_825" data-name="Path 825" d="M139.881,220.68c5.04.973,15.73,3.046,26.069,5.052,12.32-36.266,9.371-37.439,9.371-37.439a53.842,53.842,0,0,0-5.916-2.746c-.126-.05-.243-.092-.354-.133-1.665-.608-2.018-.7-4.251-1.349-3.839-.907-7.415-1.648-11.837-2.288-.285-.042-.569-.083-.844-.117-.8-.1-1.6-.183-2.363-.258-.518-.058-1.035-.092-1.526-.125-.583-.034-1.151-.067-1.684-.092-2.851-.141-4.889-.1-4.889-.1C143.149,203.716,142.06,210.217,139.881,220.68Z" transform="translate(-139.881 -181.078)" fill="#323232"/>
    </g>
    <g id="Group_832" data-name="Group 832" transform="translate(879.523 307.213)">
      <path id="Path_827" data-name="Path 827" d="M175.632,202.015a22.012,22.012,0,0,0,.766,11.376c2.164-7.09,3.393-11.94,4.058-15.257C178.461,197.872,176.33,198.521,175.632,202.015Z" transform="translate(-175.214 -198.082)" fill="#19202e"/>
      <path id="Path_828" data-name="Path 828" d="M175.632,202.015a22.012,22.012,0,0,0,.766,11.376c2.164-7.09,3.393-11.94,4.058-15.257C178.461,197.872,176.33,198.521,175.632,202.015Z" transform="translate(-175.214 -198.082)" fill="#19202e" opacity="0.6"/>
    </g>
    <g id="Group_833" data-name="Group 833" transform="translate(878.702 299.788)">
      <path id="Path_829" data-name="Path 829" d="M180.529,189.465c4.349,2.838,7.12,9.154,7.857,12.772L178.3,210.462s-5.5-12.275-3.693-15.412C176.482,191.784,178.885,188.392,180.529,189.465Z" transform="translate(-174.239 -189.263)" fill="#333"/>
      <path id="Path_830" data-name="Path 830" d="M180.529,189.465c4.349,2.838,7.12,9.154,7.857,12.772L178.3,210.462s-5.5-12.275-3.693-15.412C176.482,191.784,178.885,188.392,180.529,189.465Z" transform="translate(-174.239 -189.263)" fill="#333" opacity="0.5"/>
    </g>
    <path id="Path_831" data-name="Path 831" d="M158.561,154.262c-.654,6.4-1.068,9.088,1.607,12.955,4.025,5.817,12.057,5.454,14.617-.563,2.3-5.416,2.986-14.969-2.823-18.691A8.6,8.6,0,0,0,158.561,154.262Z" transform="translate(707.018 117.285)" fill="#9c7062"/>
    <path id="Path_832" data-name="Path 832" d="M154.99,139.918c-3.929,2.912-1.411,3.614-3.087,6.55-1.8,3.153-3.678-.438-7.25,3.027-2.315,2.246,1.637,4.631-1.24,8.586-2.235,3.073-4.661.412-3.718,6.71.643,4.3-1.988,3.765-3.763,6.2-2.545,3.488-.264,5.987,6.236,7.3s1.867,7.85,7.98,8.045c6.666.214,5.118-8.474,8.374-6.361,3.133,2.033,9.163.184,8.807-5.006-.327-4.763-5.615-4.6-1.333-7.857,3.351-2.549,4.383-2.517,2.013-7.946-2.013-4.614,5.379-3.912,5.242-7.911-.247-7.212-5.242-5.052-6.815-8.747C165.417,140.1,160.029,136.184,154.99,139.918Z" transform="translate(710.678 118.567)" fill="#263238"/>
    <path id="Path_833" data-name="Path 833" d="M173.418,159.4a5.824,5.824,0,0,0,1.157,3.312c.99,1.355,2.159,1,2.448-.247.259-1.119.056-3.172-1.209-4.115C174.567,157.422,173.431,158.063,173.418,159.4Z" transform="translate(704.593 115.48)" fill="#9c7062"/>
    <g id="Group_834" data-name="Group 834" transform="translate(805.611 332.499)">
      <path id="Path_834" data-name="Path 834" d="M150.779,231.83s-12.7,42.53-18.9,67.023c-6.545,25.843-37.782,46.907-37.782,46.907l-6.665-6.63s20.882-17.625,27.223-41.74c12.872-48.955,6.679-59.324,16.942-69.276Z" transform="translate(-87.428 -228.114)" fill="#dedede"/>
      <path id="Path_835" data-name="Path 835" d="M150.779,231.83s-12.7,42.53-18.9,67.023c-6.545,25.843-37.782,46.907-37.782,46.907l-6.665-6.63s20.882-17.625,27.223-41.74c12.872-48.955,6.679-59.324,16.942-69.276Z" transform="translate(-87.428 -228.114)" fill="#dedede" opacity="0.8"/>
    </g>
    <path id="Path_836" data-name="Path 836" d="M94.463,366.963l-8.32-8.278,2.262-2.51L98.531,364.8Z" transform="translate(718.386 84.146)" fill="#c6c6c6"/>
    <g id="Group_835" data-name="Group 835" transform="translate(854.271 344.222)">
      <path id="Path_837" data-name="Path 837" d="M153.948,243.089c-8.331,6.426-8.889,30.913-8.7,41.976,4.238-15.465,9.248-32.671,12.178-42.625C156.628,241.766,155.48,241.907,153.948,243.089Z" transform="translate(-145.221 -242.037)" fill="#c7c7c7"/>
      <path id="Path_838" data-name="Path 838" d="M153.948,243.089c-8.331,6.426-8.889,30.913-8.7,41.976,4.238-15.465,9.248-32.671,12.178-42.625C156.628,241.766,155.48,241.907,153.948,243.089Z" transform="translate(-145.221 -242.037)" fill="#c7c7c7" opacity="0.6"/>
    </g>
    <path id="Path_839" data-name="Path 839" d="M87.477,376.719a.759.759,0,0,1-.235-.036c-.793-.242-1.356-1.693-1.621-2.536a.154.154,0,0,1,.217-.184c.24.122,2.346,1.222,2.431,2.053a.525.525,0,0,1-.213.477A.927.927,0,0,1,87.477,376.719Zm-1.44-2.3c.392,1.112.866,1.838,1.295,1.969a.557.557,0,0,0,.531-.136.217.217,0,0,0,.1-.205C87.919,375.608,86.868,374.884,86.038,374.419Z" transform="translate(718.469 81.338)" fill="#407bff"/>
    <g id="Group_836" data-name="Group 836" transform="translate(848.768 333.851)">
      <path id="Path_840" data-name="Path 840" d="M165.37,233.417s1.623,51.457-2.012,70.839c-3.781,20.16-15.3,66.02-15.3,66.02l-9.374-1.21s5.927-46.327,8.444-66.358c2.744-21.837-.851-72.988-.851-72.988Z" transform="translate(-138.686 -229.72)" fill="#ddd"/>
    </g>
    <path id="Path_842" data-name="Path 842" d="M149.679,396.375l-13.36-1.725.165-3.174,14.535.633Z" transform="translate(710.456 78.567)" fill="#c6c6c6"/>
    <path id="Path_843" data-name="Path 843" d="M87.691,374.557a4.645,4.645,0,0,1-2-.456.154.154,0,0,1,0-.265c.067-.039,1.649-.957,2.544-.663a.823.823,0,0,1,.523.47.537.537,0,0,1-.105.671A1.512,1.512,0,0,1,87.691,374.557Zm-1.586-.6a3.265,3.265,0,0,0,2.344.121c.056-.05.109-.13.028-.317a.526.526,0,0,0-.335-.3A3.449,3.449,0,0,0,86.105,373.961Z" transform="translate(718.469 81.469)" fill="#407bff"/>
    <path id="Path_844" data-name="Path 844" d="M149.967,406.907a11.083,11.083,0,0,1-2.041-.232.156.156,0,0,1-.123-.13.153.153,0,0,1,.083-.158c.3-.152,2.929-1.483,3.712-1.036a.485.485,0,0,1,.249.41.872.872,0,0,1-.3.749A2.489,2.489,0,0,1,149.967,406.907Zm-1.526-.451c1.431.237,2.5.176,2.906-.178a.571.571,0,0,0,.193-.5.176.176,0,0,0-.093-.162C151.02,405.376,149.522,405.942,148.441,406.455Z" transform="translate(708.641 76.389)" fill="#407bff"/>
    <path id="Path_845" data-name="Path 845" d="M147.955,406.389a.152.152,0,0,1-.152-.17c.013-.119.346-2.934,1.894-2.767.42.042.541.256.569.427.118.734-1.455,2.144-2.247,2.5A.149.149,0,0,1,147.955,406.389Zm1.62-2.634c-.938,0-1.308,1.543-1.423,2.2.81-.484,1.88-1.59,1.809-2.031-.006-.035-.023-.141-.3-.17C149.634,403.757,149.6,403.755,149.575,403.755Z" transform="translate(708.641 76.676)" fill="#407bff"/>
    <path id="Path_846" data-name="Path 846" d="M139.418,226.194l-1.559,2.092c-.12.162.063.387.365.446l27.341,5.3c.236.045.449-.031.488-.175l.618-2.275c.043-.157-.138-.333-.4-.383l-26.4-5.113A.471.471,0,0,0,139.418,226.194Z" transform="translate(710.219 104.708)"/>
    <g id="Group_837" data-name="Group 837" transform="translate(851.775 331.116)">
      <path id="Path_847" data-name="Path 847" d="M143.18,229.88l-.707-.137c-.141-.027-.236-.12-.211-.206l.829-2.95c.024-.087.159-.135.3-.108l.706.137c.141.027.237.12.212.206l-.829,2.95C143.456,229.859,143.32,229.907,143.18,229.88Z" transform="translate(-142.257 -226.471)" fill="#407bff"/>
      <path id="Path_848" data-name="Path 848" d="M143.18,229.88l-.707-.137c-.141-.027-.236-.12-.211-.206l.829-2.95c.024-.087.159-.135.3-.108l.706.137c.141.027.237.12.212.206l-.829,2.95C143.456,229.859,143.32,229.907,143.18,229.88Z" transform="translate(-142.257 -226.471)" fill="#fff" opacity="0.8"/>
    </g>
    <g id="Group_838" data-name="Group 838" transform="translate(869.63 334.616)">
      <path id="Path_849" data-name="Path 849" d="M164.387,234.037l-.707-.137c-.141-.027-.237-.12-.212-.206l.829-2.95c.024-.087.16-.135.3-.108l.707.137c.141.027.236.12.211.206l-.829,2.95C164.662,234.016,164.527,234.064,164.387,234.037Z" transform="translate(-163.463 -230.628)" fill="#407bff"/>
      <path id="Path_850" data-name="Path 850" d="M164.387,234.037l-.707-.137c-.141-.027-.237-.12-.212-.206l.829-2.95c.024-.087.16-.135.3-.108l.707.137c.141.027.236.12.211.206l-.829,2.95C164.662,234.016,164.527,234.064,164.387,234.037Z" transform="translate(-163.463 -230.628)" fill="#fff" opacity="0.8"/>
    </g>
  </g>
</svg>
