<svg id="stopwatch" xmlns="http://www.w3.org/2000/svg" width="17.655" height="17.643" viewBox="0 0 17.655 17.643">
    <g id="Group_1583" data-name="Group 1583" transform="translate(0)">
        <g id="Group_1582" data-name="Group 1582">
            <path id="Path_1243" data-name="Path 1243"
                  d="M35.069,4.082a8.869,8.869,0,0,0-6.99-2.554,8.827,8.827,0,0,0-5.494,15.038,8.828,8.828,0,0,0,11.473.869.748.748,0,1,0-.888-1.2,7.321,7.321,0,1,1,2.084-2.377.748.748,0,0,0,1.311.721,8.832,8.832,0,0,0-1.5-10.493Z"
                  transform="translate(-20 -1.507)" fill="#bbb"/>
            <path id="Path_1244" data-name="Path 1244"
                  d="M4.539.167A.748.748,0,0,0,3.487.277L1.73,2.394a1.5,1.5,0,1,0,1.163.941L4.65,1.219A.748.748,0,0,0,4.539.167Z"
                  transform="matrix(0.602, 0.799, -0.799, 0.602, 11.234, 5.691)" fill="#bbb"/>
            <path id="Path_1245" data-name="Path 1245"
                  d="M4.525.167A.748.748,0,0,0,3.473.277L1.73,2.4a1.5,1.5,0,1,0,1.163.941L4.636,1.219A.748.748,0,0,0,4.525.167Z"
                  transform="matrix(0.788, -0.616, 0.616, 0.788, 5.493, 7.088)" fill="#bbb"/>
        </g>
    </g>
</svg>
