<svg xmlns="http://www.w3.org/2000/svg" width="12.832" height="18.25" viewBox="0 0 12.832 18.25">
    <g id="placeholder" transform="translate(-76)">
        <g id="Group_1585" data-name="Group 1585" transform="translate(76)">
            <g id="Group_1584" data-name="Group 1584">
                <path id="Path_1248" data-name="Path 1248"
                      d="M82.416,0a6.417,6.417,0,0,0-5.458,9.79L82.051,18a.535.535,0,0,0,.454.253h0a.535.535,0,0,0,.454-.26L87.927,9.7A6.417,6.417,0,0,0,82.416,0Zm4.593,9.154L82.5,16.688l-4.63-7.462a5.35,5.35,0,1,1,9.143-.072Z"
                      transform="translate(-76)" fill="#bbb"/>
            </g>
        </g>
        <g id="Group_1587" data-name="Group 1587" transform="translate(79.208 3.208)">
            <g id="Group_1586" data-name="Group 1586">
                <path id="Path_1249" data-name="Path 1249"
                      d="M169.208,90a3.208,3.208,0,1,0,3.208,3.208A3.212,3.212,0,0,0,169.208,90Zm0,5.354a2.146,2.146,0,1,1,2.142-2.146A2.147,2.147,0,0,1,169.208,95.354Z"
                      transform="translate(-166 -90)" fill="#bbb"/>
            </g>
        </g>
    </g>
</svg>
