<svg xmlns="http://www.w3.org/2000/svg" width="16.358" height="16.358" viewBox="0 0 16.358 16.358">
    <path id="Icon_awesome-exclamation-circle" data-name="Icon awesome-exclamation-circle"
          d="M16.921,8.742A8.179,8.179,0,1,1,8.742.563,8.179,8.179,0,0,1,16.921,8.742ZM8.742,10.391a1.517,1.517,0,1,0,1.517,1.517A1.517,1.517,0,0,0,8.742,10.391ZM7.3,4.938l.245,4.485a.4.4,0,0,0,.4.374h1.6a.4.4,0,0,0,.4-.374l.245-4.485a.4.4,0,0,0-.4-.417H7.7A.4.4,0,0,0,7.3,4.938Z"
          transform="translate(-0.563 -0.563)" fill="#ffa100"/>
</svg>
