<svg xmlns="http://www.w3.org/2000/svg" width="16.207" height="16.207" viewBox="0 0 16.207 16.207">
    <g id="Icon_feather-search" data-name="Icon feather-search" transform="translate(0.5 0.5)">
        <path id="Path_137" data-name="Path 137"
              d="M17.833,11.167A6.667,6.667,0,1,1,11.167,4.5,6.667,6.667,0,0,1,17.833,11.167Z"
              transform="translate(-4.5 -4.5)" fill="none" stroke="#bbb" stroke-linecap="round" stroke-linejoin="round"
              stroke-width="1"/>
        <path id="Path_138" data-name="Path 138" d="M28.6,28.6l-3.625-3.625" transform="translate(-13.6 -13.6)"
              fill="none" stroke="#bbb" stroke-linecap="round" stroke-linejoin="round" stroke-width="1"/>
    </g>
</svg>
