<svg xmlns="http://www.w3.org/2000/svg" width="538.788" height="462.283" viewBox="0 0 538.788 462.283">
  <g id="Group_1240" data-name="Group 1240" transform="translate(148.14 38.257)">
    <g id="Group_1099" data-name="Group 1099" transform="translate(0 54.441)" opacity="0.331">
      <path id="Path_934" data-name="Path 934" d="M-131.87,280.01s-38.9-45.6,18.566-87.159C-90.21,176.15-.38,164.387-75.9,71.224c-44.407-54.779,20.1-134.568,123.055-83.9,87.62,43.116,148.56-48.7,226.139-54.791,59.01-4.637,94.5,58.282,58.9,107.2C292.244,94.622,368.4,85.4,384.961,103.573c29.153,31.994-65.451,69.962-22.055,110.6,44.2,41.385,13.887,65.837,13.887,65.837Z" fill="#c8e5fd" opacity="0.6"/>
      <path id="Path_935" data-name="Path 935" d="M307.851,335.951H-146.516a1.624,1.624,0,0,1-1.624-1.624h0a1.624,1.624,0,0,1,1.624-1.624H307.851a1.624,1.624,0,0,1,1.624,1.624h0A1.624,1.624,0,0,1,307.851,335.951Z" transform="translate(0 -54.441)" fill="#a4cfdf"/>
      <path id="Path_936" data-name="Path 936" d="M381.678,335.951H313.272a1.624,1.624,0,0,1-1.624-1.624h0a1.624,1.624,0,0,1,1.624-1.624h68.406a1.625,1.625,0,0,1,1.625,1.624h0A1.625,1.625,0,0,1,381.678,335.951Z" transform="translate(0 -54.441)" fill="#a4cfdf"/>
      <path id="Path_937" data-name="Path 937" d="M123.172,344.606H-71.633a1.624,1.624,0,0,1-1.624-1.624h0a1.625,1.625,0,0,1,1.624-1.625H123.172a1.625,1.625,0,0,1,1.625,1.625h0A1.624,1.624,0,0,1,123.172,344.606Z" transform="translate(0 -54.441)" fill="#a4cfdf" opacity="0.5"/>
      <path id="Path_938" data-name="Path 938" d="M261.234,344.606H130.95a1.624,1.624,0,0,1-1.624-1.624h0a1.625,1.625,0,0,1,1.624-1.625H261.234a1.625,1.625,0,0,1,1.624,1.625h0A1.624,1.624,0,0,1,261.234,344.606Z" transform="translate(0 -54.441)" fill="#a4cfdf" opacity="0.5"/>
      <path id="Path_939" data-name="Path 939" d="M238.2,353.719H4.729A1.625,1.625,0,0,1,3.1,352.1h0a1.625,1.625,0,0,1,1.625-1.624H238.2a1.624,1.624,0,0,1,1.624,1.624h0A1.624,1.624,0,0,1,238.2,353.719Z" transform="translate(0 -54.441)" fill="#a4cfdf" opacity="0.25"/>
      <path id="Path_940" data-name="Path 940" d="M299.761,353.719H246.817a1.624,1.624,0,0,1-1.624-1.624h0a1.624,1.624,0,0,1,1.624-1.624h52.944a1.625,1.625,0,0,1,1.624,1.624h0A1.625,1.625,0,0,1,299.761,353.719Z" transform="translate(0 -54.441)" fill="#a4cfdf" opacity="0.25"/>
    </g>
    <g id="Group_1107" data-name="Group 1107" transform="translate(-220 100)" opacity="0.524">
      <rect id="Rectangle_801" data-name="Rectangle 801" width="272" height="215" transform="translate(236.86 -125.757)" fill="#fff"/>
      <g id="Group_1105" data-name="Group 1105">
        <g id="Group_1101" data-name="Group 1101">
          <rect id="Rectangle_769" data-name="Rectangle 769" width="30.337" height="30.337" rx="10" transform="translate(248.824 -80.262)" fill="none" stroke="#bbe0f7" stroke-width="1"/>
          <rect id="Rectangle_770" data-name="Rectangle 770" width="30.337" height="30.337" rx="10" transform="translate(292.045 -80.262)" fill="#bbe0f7"/>
          <rect id="Rectangle_771" data-name="Rectangle 771" width="30.337" height="30.337" rx="10" transform="translate(335.266 -80.262)" fill="#bbe0f7"/>
          <rect id="Rectangle_772" data-name="Rectangle 772" width="30.337" height="30.337" rx="10" transform="translate(378.487 -80.262)" fill="#bbe0f7"/>
          <rect id="Rectangle_773" data-name="Rectangle 773" width="30.337" height="30.337" rx="10" transform="translate(421.707 -80.262)" fill="none" stroke="#bbe0f7" stroke-miterlimit="10" stroke-width="1.302"/>
          <rect id="Rectangle_774" data-name="Rectangle 774" width="30.337" height="30.337" rx="10" transform="translate(464.928 -80.262)" fill="#bbe0f7"/>
        </g>
        <g id="Group_1102" data-name="Group 1102">
          <rect id="Rectangle_775" data-name="Rectangle 775" width="30.337" height="30.337" rx="10" transform="translate(248.824 -39.558)" fill="#bbe0f7"/>
          <rect id="Rectangle_776" data-name="Rectangle 776" width="30.337" height="30.337" rx="10" transform="translate(292.045 -39.558)" fill="#bbe0f7"/>
          <rect id="Rectangle_777" data-name="Rectangle 777" width="30.337" height="30.337" rx="10" transform="translate(335.266 -39.558)" fill="none" stroke="#bbe0f7" stroke-miterlimit="10" stroke-width="1.302"/>
          <rect id="Rectangle_778" data-name="Rectangle 778" width="30.337" height="30.337" rx="10" transform="translate(378.487 -39.558)" fill="#bbe0f7"/>
          <rect id="Rectangle_779" data-name="Rectangle 779" width="30.337" height="30.337" rx="10" transform="translate(421.707 -39.558)" fill="#bbe0f7"/>
          <rect id="Rectangle_780" data-name="Rectangle 780" width="30.337" height="30.337" rx="10" transform="translate(464.928 -39.558)" fill="#bbe0f7"/>
        </g>
        <g id="Group_1103" data-name="Group 1103">
          <rect id="Rectangle_781" data-name="Rectangle 781" width="30.337" height="30.337" rx="10" transform="translate(248.824 1.146)" fill="#bbe0f7"/>
          <rect id="Rectangle_782" data-name="Rectangle 782" width="30.337" height="30.337" rx="10" transform="translate(292.045 1.146)" fill="#bbe0f7"/>
          <rect id="Rectangle_783" data-name="Rectangle 783" width="30.337" height="30.337" rx="10" transform="translate(335.266 1.146)" fill="#bbe0f7"/>
          <rect id="Rectangle_784" data-name="Rectangle 784" width="30.337" height="30.337" rx="10" transform="translate(378.487 1.146)" fill="#bbe0f7"/>
          <rect id="Rectangle_785" data-name="Rectangle 785" width="30.337" height="30.337" rx="10" transform="translate(421.707 1.146)" fill="#bbe0f7"/>
          <rect id="Rectangle_786" data-name="Rectangle 786" width="30.337" height="30.337" rx="10" transform="translate(464.928 1.146)" fill="#bbe0f7"/>
        </g>
        <g id="Group_1104" data-name="Group 1104">
          <rect id="Rectangle_787" data-name="Rectangle 787" width="30.337" height="30.337" rx="10" transform="translate(248.824 41.851)" fill="none" stroke="#bbe0f7" stroke-miterlimit="10" stroke-width="1.302"/>
          <rect id="Rectangle_788" data-name="Rectangle 788" width="30.337" height="30.337" rx="10" transform="translate(292.045 41.851)" fill="none" stroke="#bbe0f7" stroke-width="1"/>
          <rect id="Rectangle_789" data-name="Rectangle 789" width="30.337" height="30.337" rx="10" transform="translate(335.266 41.851)" fill="#bbe0f7"/>
          <rect id="Rectangle_790" data-name="Rectangle 790" width="30.337" height="30.337" rx="10" transform="translate(378.487 41.851)" fill="#bbe0f7"/>
          <rect id="Rectangle_791" data-name="Rectangle 791" width="30.337" height="30.337" rx="10" transform="translate(421.707 41.851)" fill="#bbe0f7"/>
          <rect id="Rectangle_792" data-name="Rectangle 792" width="30.337" height="30.337" rx="10" transform="translate(464.928 41.851)" fill="#bbe0f7"/>
        </g>
      </g>
      <g id="Group_1106" data-name="Group 1106">
        <path id="Path_943" data-name="Path 943" d="M259.812-110.858a5.517,5.517,0,0,1-5.517,5.517,5.517,5.517,0,0,1-5.517-5.517,5.516,5.516,0,0,1,5.517-5.516A5.516,5.516,0,0,1,259.812-110.858Z" fill="#c8e5fd"/>
        <circle id="Ellipse_150" data-name="Ellipse 150" cx="5.517" cy="5.517" r="5.517" transform="translate(295.757 -116.374)" fill="#c8e5fd"/>
        <circle id="Ellipse_151" data-name="Ellipse 151" cx="5.517" cy="5.517" r="5.517" transform="translate(342.735 -116.374)" fill="#c8e5fd"/>
        <path id="Path_944" data-name="Path 944" d="M400.747-110.858a5.517,5.517,0,0,1-5.516,5.517,5.517,5.517,0,0,1-5.517-5.517,5.516,5.516,0,0,1,5.517-5.516A5.516,5.516,0,0,1,400.747-110.858Z" fill="#c8e5fd"/>
        <path id="Path_945" data-name="Path 945" d="M447.726-110.858a5.517,5.517,0,0,1-5.517,5.517,5.516,5.516,0,0,1-5.516-5.517,5.515,5.515,0,0,1,5.516-5.516A5.516,5.516,0,0,1,447.726-110.858Z" fill="#c8e5fd"/>
        <path id="Path_946" data-name="Path 946" d="M494.7-110.858a5.517,5.517,0,0,1-5.517,5.517,5.517,5.517,0,0,1-5.517-5.517,5.516,5.516,0,0,1,5.517-5.516A5.516,5.516,0,0,1,494.7-110.858Z" fill="#c8e5fd"/>
      </g>
      <line id="Line_279" data-name="Line 279" y1="25.899" transform="translate(254.295 -136.757)" fill="none" stroke="#a3a2a2" stroke-linecap="round" stroke-miterlimit="10" stroke-width="3"/>
      <line id="Line_280" data-name="Line 280" y1="25.899" transform="translate(301.273 -136.757)" fill="none" stroke="#a3a2a2" stroke-linecap="round" stroke-miterlimit="10" stroke-width="3"/>
      <line id="Line_281" data-name="Line 281" y1="25.899" transform="translate(348.252 -136.757)" fill="none" stroke="#a3a2a2" stroke-linecap="round" stroke-miterlimit="10" stroke-width="3"/>
      <line id="Line_282" data-name="Line 282" y1="25.899" transform="translate(394.836 -136.757)" fill="none" stroke="#a3a2a2" stroke-linecap="round" stroke-miterlimit="10" stroke-width="3"/>
      <line id="Line_283" data-name="Line 283" y1="25.899" transform="translate(442.209 -136.757)" fill="none" stroke="#a3a2a2" stroke-linecap="round" stroke-miterlimit="10" stroke-width="3"/>
      <line id="Line_284" data-name="Line 284" y1="25.899" transform="translate(489.188 -136.757)" fill="none" stroke="#a3a2a2" stroke-linecap="round" stroke-miterlimit="10" stroke-width="3"/>
      <path id="Path_947" data-name="Path 947" d="M255.1-62.989l7.315,6.116,10.54-14.648" fill="none" stroke="#2dca00" stroke-linecap="round" stroke-linejoin="round" stroke-width="3.906"/>
      <path id="Path_948" data-name="Path 948" d="M428.792-62.989l7.315,6.116,10.54-14.648" fill="none" stroke="#2dca00" stroke-linecap="round" stroke-linejoin="round" stroke-width="3.906"/>
      <path id="Path_949" data-name="Path 949" d="M298.286,57.3,305.6,63.42l10.54-14.648" fill="none" stroke="#2dca00" stroke-linecap="round" stroke-linejoin="round" stroke-width="3.906"/>
    </g>
    <g id="Group_1111" data-name="Group 1111">
      <g id="Group_1110" data-name="Group 1110">
        <g id="Group_1108" data-name="Group 1108">
          <path id="Path_950" data-name="Path 950" d="M-5.923,299.494l-14.945,73.674H-18.6L.771,299.494Z" fill="#474748"/>
        </g>
        <g id="Group_1109" data-name="Group 1109">
          <path id="Path_951" data-name="Path 951" d="M38.541,299.494H32.4l19.375,73.674h2.272Z" fill="#474748"/>
        </g>
      </g>
      <path id="Path_952" data-name="Path 952" d="M52.229,294.854H20.047c-7.705,0-13.024-2.766-15.462-18.418C2.2,261.044-.818,244.866-3.133,228.5c-2.288-16.068-11.4-16.226-27.827-16.226,0,0,5.279,48.574,7.725,67.383,1.672,12.835,1.339,22.157,18.751,22.157H45.361C51.36,301.813,52.229,298.138,52.229,294.854Z" fill="#2d88e2"/>
    </g>
    <g id="Group_1115" data-name="Group 1115">
      <g id="Group_1114" data-name="Group 1114">
        <g id="Group_1112" data-name="Group 1112">
          <path id="Path_953" data-name="Path 953" d="M250.866,299.494l14.961,73.674h-2.272l-19.367-73.674Z" fill="#474748"/>
        </g>
        <g id="Group_1113" data-name="Group 1113">
          <path id="Path_954" data-name="Path 954" d="M206.41,299.494h6.137l-19.379,73.674h-2.26Z" fill="#474748"/>
        </g>
      </g>
      <path id="Path_955" data-name="Path 955" d="M192.733,294.854h32.175c7.705,0,13.032-2.766,15.454-18.418,2.4-15.392,5.411-31.57,7.73-47.937,2.28-16.068,11.408-16.226,27.824-16.226,0,0-5.284,48.574-7.73,67.383-1.672,12.835-1.336,22.157-18.735,22.157H199.593C193.6,301.813,192.733,298.138,192.733,294.854Z" fill="#2d88e2"/>
    </g>
    <g id="Group_1123" data-name="Group 1123">
      <rect id="Rectangle_793" data-name="Rectangle 793" width="445.946" height="7.208" transform="translate(-100.498 260.93)" fill="#474748"/>
      <g id="Group_1122" data-name="Group 1122">
        <g id="Group_1118" data-name="Group 1118">
          <g id="Group_1116" data-name="Group 1116">
            <rect id="Rectangle_794" data-name="Rectangle 794" width="14.57" height="125.22" transform="translate(-85.351 268.07)" fill="#919395"/>
          </g>
          <g id="Group_1117" data-name="Group 1117">
            <rect id="Rectangle_795" data-name="Rectangle 795" width="14.57" height="4.702" transform="translate(-85.351 393.29)" fill="#474748"/>
          </g>
        </g>
        <g id="Group_1121" data-name="Group 1121">
          <g id="Group_1119" data-name="Group 1119">
            <rect id="Rectangle_796" data-name="Rectangle 796" width="14.558" height="125.22" transform="translate(315.744 268.07)" fill="#919395"/>
          </g>
          <g id="Group_1120" data-name="Group 1120">
            <rect id="Rectangle_797" data-name="Rectangle 797" width="14.558" height="4.702" transform="translate(315.744 393.29)" fill="#474748"/>
          </g>
        </g>
      </g>
    </g>
    <g id="Group_1239" data-name="Group 1239">
      <g id="Group_1124" data-name="Group 1124">
        <rect id="Rectangle_798" data-name="Rectangle 798" width="9.705" height="3.474" transform="translate(80.622 412.571)" fill="gray"/>
        <path id="Path_956" data-name="Path 956" d="M121.8,413.728a.487.487,0,0,1-.081.022c-9.861,3.088-20.668,1.4-20.668,1.4s-5.519-1.694-9.349-2.495a73.873,73.873,0,0,0-11.127-.8,4.141,4.141,0,0,1-1.411-3.184,15.561,15.561,0,0,1,1.587-6.432s-.534,2.228,8.28,2.228,10.417-4.632,10.417-4.632,2.4.983,7.3,5.433,8.013,4.274,8.013,4.274C122.07,409.369,121.8,413.728,121.8,413.728Z" fill="#333"/>
        <path id="Path_957" data-name="Path 957" d="M121.8,414.444c-9.883,3.115-20.749,1.421-20.749,1.421s-5.519-1.688-9.349-2.489a73.873,73.873,0,0,0-11.127-.8c-.01-.361.006-.594,0-.716a73.873,73.873,0,0,1,11.127.8c3.83.8,9.349,2.495,9.349,2.495s10.807,1.683,20.668-1.4A2.694,2.694,0,0,1,121.8,414.444Z"/>
        <path id="Path_958" data-name="Path 958" d="M121.8,414.979c-9.883,3.114-20.749,1.421-20.749,1.421s-5.519-1.689-9.349-2.49a73.873,73.873,0,0,0-11.127-.8c-.01-.361.006-.594,0-.716a73.873,73.873,0,0,1,11.127.8c3.83.8,9.349,2.495,9.349,2.495s10.807,1.683,20.668-1.4A2.7,2.7,0,0,1,121.8,414.979Z" fill="gray"/>
        <path id="Path_959" data-name="Path 959" d="M101.579,402.768s.534-.067,1.1-1.236" fill="none" stroke="#000" stroke-miterlimit="10" stroke-width="0.959"/>
        <path id="Path_960" data-name="Path 960" d="M102.981,403.87s.534-.067,1.1-1.236" fill="none" stroke="#000" stroke-miterlimit="10" stroke-width="0.959"/>
        <path id="Path_961" data-name="Path 961" d="M104.383,404.971s.535-.066,1.1-1.235" fill="none" stroke="#000" stroke-miterlimit="10" stroke-width="0.959"/>
        <path id="Path_962" data-name="Path 962" d="M105.786,406.073s.534-.067,1.1-1.235" fill="none" stroke="#000" stroke-miterlimit="10" stroke-width="0.959"/>
        <path id="Path_963" data-name="Path 963" d="M102.269,402.234a9.038,9.038,0,0,1-1.385-3.761,1.837,1.837,0,0,1,.087-.795.739.739,0,0,1,.593-.482c.409-.026.7.383.862.76a5.168,5.168,0,0,1-.127,4.259" fill="none" stroke="#000" stroke-miterlimit="10" stroke-width="0.959"/>
        <path id="Path_964" data-name="Path 964" d="M102.254,402.291a9.046,9.046,0,0,0-3.162-2.462,1.862,1.862,0,0,0-.784-.158.738.738,0,0,0-.639.419c-.149.381.151.785.462,1.052a5.164,5.164,0,0,0,4.1,1.172" fill="none" stroke="#000" stroke-miterlimit="10" stroke-width="0.959"/>
        <path id="Path_965" data-name="Path 965" d="M102.347,402.189a6.057,6.057,0,0,1,.089,2.927" fill="none" stroke="#000" stroke-miterlimit="10" stroke-width="0.959"/>
        <path id="Path_966" data-name="Path 966" d="M104.573,402.846a14.623,14.623,0,0,1-2.471-.635" fill="none" stroke="#000" stroke-miterlimit="10" stroke-width="0.959"/>
      </g>
      <g id="Group_1125" data-name="Group 1125">
        <path id="Path_967" data-name="Path 967" d="M52.456,417.386l-9.505-.338.117-3.508,9.505.338Z" fill="gray"/>
        <path id="Path_968" data-name="Path 968" d="M83.363,416.143a.471.471,0,0,1-.079.018c-9.763,2.775-20.292.7-20.292.7s-5.347-1.9-9.072-2.844a70.2,70.2,0,0,0-10.872-1.2,4.251,4.251,0,0,1-1.274-3.264,16.085,16.085,0,0,1,1.772-6.439s-.6,2.231,8.035,2.538S61.94,401.34,61.94,401.34s2.321,1.076,6.969,5.74,7.7,4.594,7.7,4.594C83.772,411.75,83.363,416.143,83.363,416.143Z" fill="#333"/>
        <path id="Path_969" data-name="Path 969" d="M83.339,416.865c-9.785,2.8-20.371.713-20.371.713s-5.348-1.9-9.072-2.84a70.285,70.285,0,0,0-10.872-1.2c0-.365.026-.6.024-.723a70.2,70.2,0,0,1,10.872,1.2c3.725.942,9.072,2.844,9.072,2.844s10.529,2.076,20.292-.7A2.832,2.832,0,0,1,83.339,416.865Z"/>
        <path id="Path_970" data-name="Path 970" d="M83.321,417.4c-9.785,2.8-20.371.712-20.371.712s-5.348-1.9-9.072-2.839a70.2,70.2,0,0,0-10.872-1.2c0-.365.026-.6.024-.723a70.335,70.335,0,0,1,10.872,1.2c3.725.942,9.072,2.845,9.072,2.845s10.528,2.075,20.292-.7A2.832,2.832,0,0,1,83.321,417.4Z" fill="gray"/>
        <path id="Path_971" data-name="Path 971" d="M63.925,404.371s.525-.049,1.121-1.209" fill="none" stroke="#000" stroke-miterlimit="10" stroke-width="0.959"/>
        <path id="Path_972" data-name="Path 972" d="M65.261,405.533s.526-.049,1.121-1.209" fill="none" stroke="#000" stroke-miterlimit="10" stroke-width="0.959"/>
        <path id="Path_973" data-name="Path 973" d="M66.6,406.694s.526-.049,1.121-1.209" fill="none" stroke="#000" stroke-miterlimit="10" stroke-width="0.959"/>
        <path id="Path_974" data-name="Path 974" d="M67.934,407.855s.525-.049,1.121-1.209" fill="none" stroke="#000" stroke-miterlimit="10" stroke-width="0.959"/>
        <path id="Path_975" data-name="Path 975" d="M64.619,403.856a9.329,9.329,0,0,1-1.23-3.846,1.907,1.907,0,0,1,.113-.8.727.727,0,0,1,.6-.466c.4-.012.675.411.819.8a5.369,5.369,0,0,1-.269,4.3" fill="none" stroke="#000" stroke-miterlimit="10" stroke-width="0.959"/>
        <path id="Path_976" data-name="Path 976" d="M64.6,403.914a8.918,8.918,0,0,0-3.015-2.6,1.755,1.755,0,0,0-.762-.187.719.719,0,0,0-.64.4c-.159.38.122.8.417,1.079a4.967,4.967,0,0,0,3.973,1.326" fill="none" stroke="#000" stroke-miterlimit="10" stroke-width="0.959"/>
        <path id="Path_977" data-name="Path 977" d="M64.7,403.814a6.288,6.288,0,0,1-.012,2.958" fill="none" stroke="#000" stroke-miterlimit="10" stroke-width="0.959"/>
        <path id="Path_978" data-name="Path 978" d="M66.855,404.554a13.912,13.912,0,0,1-2.4-.726" fill="none" stroke="#000" stroke-miterlimit="10" stroke-width="0.959"/>
      </g>
      <g id="Group_1127" data-name="Group 1127">
        <g id="Group_1126" data-name="Group 1126">
          <path id="Path_979" data-name="Path 979" d="M181.75,184.051c-.491,7.656-.077,12.032-2.523,23.883-4.538,21.984-54.346,13.11-54.346,13.11h0c-3.856.127-6.51-.148-9.031.072-3.107.272-4.407.166-4.42-.419-.018-.781-.047-.479,5.53-1.776,0,0-7.976,1.781-6.552.037.63-.772,7.244-2.318,7.244-2.318-5.2,1.729-7.431,1.559-7.65.759-.319-1.159,7.723-2.974,7.723-2.974s-6.106,1.506-7.257,1.436-.2-1.088.827-1.707c1.151-.7,8.419-3.773,10.471-4.771a1.344,1.344,0,0,0,.741-1.9c-1.974-2.658-2.091-5.782-1.726-6.644a1.013,1.013,0,0,1,1.893.364,12.349,12.349,0,0,0,1.46,3.018,7.919,7.919,0,0,0,1.755,2.016c.808.656,1.518,1.179,2.132,1.608,5.134.486,19.721,1.548,31.92-3.069,4.484-1.7,4.484-19.612,4.484-19.612Z" fill="#b78876"/>
        </g>
      </g>
      <g id="Group_1172" data-name="Group 1172">
        <g id="Group_1129" data-name="Group 1129">
          <g id="Group_1128" data-name="Group 1128">
            <path id="Path_980" data-name="Path 980" d="M194.412,330.682" fill="none" stroke="#a36957" stroke-miterlimit="10" stroke-width="0.05"/>
          </g>
        </g>
        <g id="Group_1141" data-name="Group 1141">
          <g id="Group_1135" data-name="Group 1135">
            <g id="Group_1130" data-name="Group 1130">
              <path id="Path_981" data-name="Path 981" d="M222.259,243.555c.014-.127.028-.26.036-.336C222.289,243.278,222.278,243.384,222.259,243.555Z" fill="#b78876"/>
            </g>
            <g id="Group_1131" data-name="Group 1131">
              <path id="Path_982" data-name="Path 982" d="M222.226,243.86c.013-.121.023-.219.033-.305Z" fill="#b78876"/>
            </g>
            <g id="Group_1132" data-name="Group 1132">
              <path id="Path_983" data-name="Path 983" d="M234.207,403.412s-23.907-82.7-24.367-85.3c-.417-2.352,10.765-59.444,12.386-74.254l-33.943.322s0,.091-.01.247l-16.4.453,8.578,164.837,18.1.26-.772-55.476c8.9,26.1,20.159,55.583,20.159,55.583Z" fill="#b78876"/>
            </g>
            <g id="Group_1133" data-name="Group 1133">
              <path id="Path_984" data-name="Path 984" d="M222.3,243.18c0-.025,0-.028,0,0Z" fill="#b78876"/>
            </g>
            <g id="Group_1134" data-name="Group 1134">
              <path id="Path_985" data-name="Path 985" d="M222.295,243.219l.005-.039C222.3,243.191,222.3,243.2,222.295,243.219Z" fill="#b78876"/>
            </g>
          </g>
          <g id="Group_1138" data-name="Group 1138">
            <g id="Group_1137" data-name="Group 1137">
              <g id="Group_1136" data-name="Group 1136">
                <path id="Path_986" data-name="Path 986" d="M186.988,314.45c.049.008-.047.635-.1,1.776a35.157,35.157,0,0,0,.087,4.826,44.246,44.246,0,0,0,1.2,7.052,70.348,70.348,0,0,0,2.878,8.291c2.235,5.841,4.232,11.139,5.652,14.982.678,1.866,1.237,3.406,1.658,4.563a11.462,11.462,0,0,1,.541,1.7,11.489,11.489,0,0,1-.731-1.625c-.46-1.143-1.071-2.662-1.811-4.5-1.509-3.81-3.56-9.087-5.795-14.929-.556-1.462-1.1-2.888-1.621-4.268a39.56,39.56,0,0,1-1.237-4.092,41.56,41.56,0,0,1-1.1-7.141,29.245,29.245,0,0,1,.078-4.87c.058-.572.132-1.012.192-1.31A1.539,1.539,0,0,1,186.988,314.45Z" fill="#a36957"/>
              </g>
            </g>
          </g>
          <g id="Group_1140" data-name="Group 1140">
            <g id="Group_1139" data-name="Group 1139">
              <path id="Path_987" data-name="Path 987" d="M197.875,373.9c.029-.495.315-18.125.315-18.125s-5.914-16.345-6.065-15.847S197.875,373.9,197.875,373.9Z" fill="#a36957"/>
            </g>
          </g>
        </g>
        <g id="Group_1153" data-name="Group 1153">
          <g id="Group_1143" data-name="Group 1143">
            <g id="Group_1142" data-name="Group 1142">
              <path id="Path_988" data-name="Path 988" d="M235.654,188.028s-.742-3.954-4.7-17.794c-1.8-6.308-6.561-10.46-11.306-12.941l0-.086-.414-.121a39.124,39.124,0,0,0-12.432-3.615l-16.786-.272s-11.635-.883-20.124,6.986c-2.786,2.582-5.638,25.681-5.638,25.681l8.4,2.985-.069-3.4s-.348,6.917,1.938,10.942l5.4,9.516-3.582,16.784c-2.221,6.391-9.535,29.761-6.666,52.909,3.554,28.667,4.121,37.049,4.121,37.049l40.539,5.545s16.2-60.7,10.652-84.814c-3.813-16.567-6.724-15.794-7.659-19.384l1.055-25.8Z" fill="#7e893d"/>
            </g>
          </g>
          <g id="Group_1146" data-name="Group 1146">
            <g id="Group_1145" data-name="Group 1145">
              <g id="Group_1144" data-name="Group 1144">
                <path id="Path_989" data-name="Path 989" d="M212.121,211.225a6.367,6.367,0,0,1-1.293.259c-.836.136-2.052.292-3.56.448a100.8,100.8,0,0,1-23.639-.421c-1.5-.209-2.711-.408-3.542-.575a6.422,6.422,0,0,1-1.283-.3,6.4,6.4,0,0,1,1.313.1l3.557.409c3,.327,7.164.666,11.773.751s8.776-.112,11.789-.331l3.569-.282A6.477,6.477,0,0,1,212.121,211.225Z" fill="#263238"/>
              </g>
            </g>
          </g>
          <g id="Group_1149" data-name="Group 1149">
            <g id="Group_1148" data-name="Group 1148">
              <g id="Group_1147" data-name="Group 1147">
                <path id="Path_990" data-name="Path 990" d="M225.785,256.656a4.665,4.665,0,0,1-.157.8q-.2.85-.549,2.271-.187.745-.41,1.639c-.168.593-.393,1.226-.613,1.913-.465,1.363-.912,2.949-1.646,4.612q-.515,1.263-1.079,2.639c-.381.914-.873,1.823-1.331,2.787-.885,1.948-2.066,3.9-3.258,5.988a78.584,78.584,0,0,1-21.04,22.855c-1.979,1.361-3.832,2.7-5.7,3.742-.924.536-1.789,1.1-2.669,1.557s-1.729.881-2.54,1.293c-1.6.868-3.14,1.445-4.461,2.021-.666.276-1.277.553-1.855.769q-.87.3-1.6.543l-2.217.736a4.565,4.565,0,0,1-.782.221,4.731,4.731,0,0,1,.75-.322l2.18-.825,1.578-.584c.571-.23,1.175-.519,1.833-.806,1.3-.6,2.83-1.2,4.408-2.082l2.512-1.316c.87-.463,1.727-1.033,2.64-1.574,1.847-1.053,3.679-2.4,5.638-3.761a80.2,80.2,0,0,0,20.914-22.717c1.2-2.065,2.385-4,3.282-5.931.463-.954.961-1.854,1.351-2.759s.752-1.779,1.1-2.612c.752-1.646,1.221-3.216,1.711-4.566.232-.679.47-1.3.652-1.893q.246-.882.451-1.621.4-1.4.644-2.241A4.868,4.868,0,0,1,225.785,256.656Z" fill="#263238"/>
              </g>
            </g>
          </g>
          <g id="Group_1152" data-name="Group 1152">
            <g id="Group_1151" data-name="Group 1151">
              <g id="Group_1150" data-name="Group 1150">
                <path id="Path_991" data-name="Path 991" d="M214.082,201.048a5.36,5.36,0,0,1-.122-1.192c-.044-.877-.1-1.964-.164-3.251-.138-2.862-.319-6.6-.519-10.726-.2-4.192-.334-7.99-.368-10.741-.019-1.375-.018-2.489,0-3.259a5.236,5.236,0,0,1,.082-1.195,5.337,5.337,0,0,1,.122,1.192c.044.876.1,1.963.164,3.251.138,2.861.319,6.6.52,10.727.2,4.19.333,7.988.367,10.739.019,1.376.019,2.489,0,3.259A5.234,5.234,0,0,1,214.082,201.048Z" fill="#263238"/>
              </g>
            </g>
          </g>
        </g>
        <g id="Group_1171" data-name="Group 1171">
          <g id="Group_1169" data-name="Group 1169">
            <g id="Group_1154" data-name="Group 1154">
              <path id="Path_992" data-name="Path 992" d="M184.956,113.339a11.457,11.457,0,0,0-1.2,6.439c.156,1.443.555,3.038-.249,4.247a56.388,56.388,0,0,0-4.28,10.509c-2.888,12.677,2.091,15.116,3.44,15.929a3.766,3.766,0,0,0,2.355.771c1.489-.207,2.179-2.021,3.524-2.692,1.664-.83,3.6.325,5.454.444a4.859,4.859,0,0,0,5.157-5.165" fill="#263238"/>
            </g>
            <g id="Group_1166" data-name="Group 1166">
              <g id="Group_1165" data-name="Group 1165">
                <g id="Group_1159" data-name="Group 1159">
                  <g id="Group_1156" data-name="Group 1156">
                    <g id="Group_1155" data-name="Group 1155">
                      <path id="Path_993" data-name="Path 993" d="M189.509,155.811c.444-4.66.827-9.575.827-9.575s-5.9-1.587-6.378-9.541c-.45-7.585,2.477-24.711,2.477-24.711h0a22.615,22.615,0,0,1,24.469,8.2h0l-4.232,37.794a8.156,8.156,0,0,1-9.349,6.9h0C192.582,164.309,189.086,160.252,189.509,155.811Z" fill="#b78876"/>
                    </g>
                  </g>
                  <g id="Group_1158" data-name="Group 1158">
                    <g id="Group_1157" data-name="Group 1157">
                      <path id="Path_994" data-name="Path 994" d="M190.336,146.236A20.018,20.018,0,0,0,201.1,144.47s-3.074,5.13-10.84,3.625Z" fill="#a36957"/>
                    </g>
                  </g>
                </g>
                <g id="Group_1161" data-name="Group 1161">
                  <g id="Group_1160" data-name="Group 1160">
                    <path id="Path_995" data-name="Path 995" d="M207.178,128.539a4.7,4.7,0,0,1,2.505.41,3.277,3.277,0,0,1,1.68,1.856,3.419,3.419,0,0,1-.225,2.505,5.81,5.81,0,0,1-1.633,1.966,3.925,3.925,0,0,1-1.62.859,1.876,1.876,0,0,1-1.718-.442" fill="#ffbe9d"/>
                  </g>
                </g>
                <g id="Group_1164" data-name="Group 1164">
                  <g id="Group_1163" data-name="Group 1163">
                    <g id="Group_1162" data-name="Group 1162">
                      <path id="Path_996" data-name="Path 996" d="M207.141,133.662c-.1.021.215.564,1,.433a1.659,1.659,0,0,0,1.028-.733,3.766,3.766,0,0,0,.554-1.349,2.2,2.2,0,0,0-.209-1.509,1.464,1.464,0,0,0-1.037-.758c-.786-.1-1.083.426-1,.451.057.07.39-.181.894-.006a1.418,1.418,0,0,1,.713,1.7c-.178.853-.587,1.609-1.065,1.76C207.523,133.85,207.2,133.6,207.141,133.662Z" fill="#eb996e"/>
                    </g>
                  </g>
                </g>
              </g>
            </g>
            <g id="Group_1167" data-name="Group 1167">
              <path id="Path_997" data-name="Path 997" d="M188.481,110.048c-.919,2.284-2.74,6.762,1.914,6.581,2.476-.1,4.689,1.384,7.13,1.81s5.164,1.884,5.33,4.357c.1,1.5,1.36,13.42,1.829,16.2.278,1.651.626,9.577,2.132,11.421,1.155,1.415,13.16,5.843,14.691,4.571s1.682-8.237,1.835-10.221A87.126,87.126,0,0,0,223,131.036c-.309-1.955-1.365-8.683-2.508-11.153-1.294-2.8-6.314-5.706-8.16-7.819-1.688-1.931-3.379-3.835-5.939-3.993s-5.144.461-7.681.084c-1.389-.206-2.718-.706-4.093-.995a6.336,6.336,0,0,0-4.126.279,3.1,3.1,0,0,0-1.74,3.463" fill="#263238"/>
            </g>
            <g id="Group_1168" data-name="Group 1168">
              <path id="Path_998" data-name="Path 998" d="M190.22,115.334a9.592,9.592,0,0,1-6.462,5.442,23.35,23.35,0,0,1,.036-5.806,9.177,9.177,0,0,1,2.492-5.152,5.769,5.769,0,0,1,5.342-1.571" fill="#263238"/>
            </g>
          </g>
          <g id="Group_1170" data-name="Group 1170">
            <path id="Path_999" data-name="Path 999" d="M183.012,153.454c-.653.113.137,21.885,14.4,22.706,13.5.776,14.6-21.475,14.6-21.475S195.679,151.253,183.012,153.454Z" fill="#b78876"/>
          </g>
        </g>
      </g>
      <g id="Group_1185" data-name="Group 1185">
        <g id="Group_1176" data-name="Group 1176">
          <g id="Group_1175" data-name="Group 1175">
            <g id="Group_1173" data-name="Group 1173">
              <path id="Path_1000" data-name="Path 1000" d="M180.265,269.359H252.3v47.914H179.913Z" fill="#3f3f3f"/>
            </g>
            <g id="Group_1174" data-name="Group 1174">
              <path id="Path_1001" data-name="Path 1001" d="M188.64,269.359h72.04v47.914H188.288Z" fill="#262626"/>
            </g>
          </g>
          <path id="Path_1002" data-name="Path 1002" d="M226.87,262.24q-3.046,0-5.3.013-2.256-.012-5.3-.013c-7.237,0-7.435,7.7-7.435,7.7h2.577c-.084-5.007,3.522-5.479,4.569-5.512h11.177c1.047.033,4.653.505,4.569,5.512H234.3S234.107,262.24,226.87,262.24Z" fill="#263238"/>
        </g>
        <g id="Group_1178" data-name="Group 1178">
          <g id="Group_1177" data-name="Group 1177">
            <path id="Path_1003" data-name="Path 1003" d="M184.146,269.682a11.942,11.942,0,0,1,.119,1.943c.025,1.356.057,3.142.1,5.3.055,4.475.089,10.657.089,17.484,0,7.68-.043,14.541-.111,18.99v.089l-.062.055-3.178,2.787a8.069,8.069,0,0,1-1.186.943,8.12,8.12,0,0,1,1.045-1.1l3.057-2.919-.063.143c-.068-4.449-.111-11.31-.111-18.99,0-6.827.034-13.009.089-17.484.04-2.157.072-3.943.1-5.3A11.944,11.944,0,0,1,184.146,269.682Z" fill="#262626"/>
          </g>
        </g>
        <g id="Group_1180" data-name="Group 1180">
          <g id="Group_1179" data-name="Group 1179">
            <path id="Path_1004" data-name="Path 1004" d="M184.146,313.4c.115-.123,1.136.645,2.279,1.714s1.978,2.037,1.863,2.16-1.136-.644-2.28-1.714S184.031,313.521,184.146,313.4Z" fill="#262626"/>
          </g>
        </g>
        <g id="Group_1182" data-name="Group 1182">
          <g id="Group_1181" data-name="Group 1181">
            <path id="Path_1005" data-name="Path 1005" d="M226.064,296.227a1.536,1.536,0,0,1-.493.066c-.324.016-.8.063-1.42.056a33.4,33.4,0,0,1-5.219-.382,36.926,36.926,0,0,1-27.266-19.287,33.392,33.392,0,0,1-2.1-4.793c-.213-.58-.328-1.047-.421-1.358a1.537,1.537,0,0,1-.1-.487,14.1,14.1,0,0,1,.745,1.761,41.281,41.281,0,0,0,2.253,4.67A38.043,38.043,0,0,0,219,295.541a41.368,41.368,0,0,0,5.155.57A13.962,13.962,0,0,1,226.064,296.227Z" fill="#565656"/>
          </g>
        </g>
        <g id="Group_1184" data-name="Group 1184">
          <g id="Group_1183" data-name="Group 1183">
            <path id="Path_1006" data-name="Path 1006" d="M223.331,296.227a1.544,1.544,0,0,0,.493.066c.324.016.8.063,1.421.056a33.4,33.4,0,0,0,5.218-.382,36.926,36.926,0,0,0,27.266-19.287,33.388,33.388,0,0,0,2.1-4.793c.213-.58.328-1.047.421-1.358a1.562,1.562,0,0,0,.1-.487,13.729,13.729,0,0,0-.745,1.761,41.5,41.5,0,0,1-2.254,4.67,38.043,38.043,0,0,1-26.956,19.068,41.369,41.369,0,0,1-5.155.57A13.963,13.963,0,0,0,223.331,296.227Z" fill="#565656"/>
          </g>
        </g>
      </g>
      <g id="Group_1186" data-name="Group 1186">
        <path id="Path_1007" data-name="Path 1007" d="M228.666,270.814c-1.947.463-3.767-7.82-4.014-8.484-.239-.645-.282-.672-.382-.039-.609,3.844,3.99,9.81,2.083,10.282-.714.177-2.581-2.735-3.834-5.82a18.683,18.683,0,0,1-1.378-4.443c-.54.153-.384,2.163.076,4.016.312,1.259,1.275,1.3,1.524,1.99.606,1.673.672,2.2-.292,1.85a7.928,7.928,0,0,1-3.584-3.591c-.568-1.689-1.138-6.753-1.351-3.654-.175,2.545,1.419,3.033.559,5.4s-3.8-3.236-3.1-8.729a12.059,12.059,0,0,0,.026-1.288l-.04.014.086-1.322c.07-1.6.159-2.468.159-2.468h0l2.339-66.289,18.113-.208-8.01,65.8-.057.021c1.911,2.949,1.546,7.106,1.871,9.2.255,1.647,1.14,3.916.611,4.054-1.215.317-2.432-2.44-2.65-4.341-.179-1.556-.48-1.47-.494-.938C226.829,265.582,230.159,270.46,228.666,270.814Z" fill="#b78876"/>
      </g>
      <g id="Group_1198" data-name="Group 1198">
        <g id="Group_1193" data-name="Group 1193">
          <g id="Group_1188" data-name="Group 1188">
            <g id="Group_1187" data-name="Group 1187">
              <path id="Path_1008" data-name="Path 1008" d="M41.289,226.271V407l26.848-1.04,2.3-157.859,9.114,158.492,27.358,1.33L93.429,227.853Z" fill="#263238"/>
            </g>
          </g>
          <g id="Group_1190" data-name="Group 1190">
            <g id="Group_1189" data-name="Group 1189">
              <path id="Path_1009" data-name="Path 1009" d="M72.717,227.875a18.364,18.364,0,0,1,.225,3.071c.073,1.9.138,4.522.179,7.419.013,1.441.025,2.814.036,4.088a8.054,8.054,0,0,1-.556,3.35,3.74,3.74,0,0,1-1.523,1.729,1.384,1.384,0,0,1-.809.247c-.013-.042.279-.117.7-.416a3.823,3.823,0,0,0,1.3-1.7,8.187,8.187,0,0,0,.416-3.2c-.024-1.273-.049-2.644-.076-4.083-.041-2.9-.049-5.522-.029-7.421A18.2,18.2,0,0,1,72.717,227.875Z" fill="#455a64"/>
            </g>
          </g>
          <g id="Group_1192" data-name="Group 1192">
            <g id="Group_1191" data-name="Group 1191">
              <path id="Path_1010" data-name="Path 1010" d="M68.618,229.893c.048.061-.358.3-.37.916a1.009,1.009,0,0,0,.383.854.946.946,0,0,0,1.074-.078.819.819,0,0,0,.059-1.346,1.118,1.118,0,0,0-1.08-.257l-.015-.2c.22.113.332.191.319.228s-.15.029-.392-.02l-.215-.044.2-.157a1.276,1.276,0,0,1,1.455.117,1.322,1.322,0,0,1,.547.969A1.3,1.3,0,0,1,70.006,232a1.392,1.392,0,0,1-1.659.039,1.332,1.332,0,0,1-.46-1.263,1.21,1.21,0,0,1,.425-.774C68.485,229.876,68.606,229.867,68.618,229.893Z" fill="#455a64"/>
            </g>
          </g>
        </g>
        <g id="Group_1195" data-name="Group 1195">
          <g id="Group_1194" data-name="Group 1194">
            <path id="Path_1011" data-name="Path 1011" d="M68.421,401c0,.144-6.017.261-13.439.261s-13.439-.117-13.439-.261,6.016-.26,13.439-.26S68.421,400.855,68.421,401Z" fill="#455a64"/>
          </g>
        </g>
        <g id="Group_1197" data-name="Group 1197">
          <g id="Group_1196" data-name="Group 1196">
            <path id="Path_1012" data-name="Path 1012" d="M105.763,399.973c0,.144-5.971.261-13.336.261s-13.337-.117-13.337-.261,5.97-.26,13.337-.26S105.763,399.83,105.763,399.973Z" fill="#455a64"/>
          </g>
        </g>
      </g>
      <g id="Group_1200" data-name="Group 1200">
        <g id="Group_1199" data-name="Group 1199">
          <path id="Path_1013" data-name="Path 1013" d="M119.96,212.07c.052-.056.412.252,1.075.6a6.248,6.248,0,0,0,2.809.739l.569.008-.39.433c-.09.1-.194.2-.286.314A7.441,7.441,0,0,0,122.231,217a8.565,8.565,0,0,1-.343,1.335,2.491,2.491,0,0,1-.016-1.415,6.436,6.436,0,0,1,1.471-3.094c.1-.122.212-.231.312-.338l.179.441a5.534,5.534,0,0,1-2.981-.957C120.2,212.516,119.917,212.109,119.96,212.07Z" fill="#997064"/>
        </g>
      </g>
      <g id="Group_1209" data-name="Group 1209">
        <g id="Group_1202" data-name="Group 1202">
          <g id="Group_1201" data-name="Group 1201">
            <path id="Path_1014" data-name="Path 1014" d="M93.473,231.454a73.8,73.8,0,0,1,1.542,17.169l.049-.012c.532,3.821,1.027,7.67,1.363,10,.555,3.852,1.149,4.9,1.725,4.794,1.242-.223-.571-8.309.461-7.867,0,0-.148,7.591.848,7.631,2.037.08,1.125-8.17,1.125-8.17-.818,5.417-.107,8.292,1.164,7.9.847-.259,1.007-8.354,1.007-8.354s-.444,6.274-.179,7.4,1.3,1.136,2.039.194,2.2-10.876,2.419-12.43.979,5.4.979,5.4c3.369.8,2.039-5.575,1.783-6.432-1.082-3.629-1.78-4.862-2.307-5.4a96.135,96.135,0,0,1-2.554-13.035Z" fill="#b88874"/>
          </g>
        </g>
        <g id="Group_1204" data-name="Group 1204">
          <g id="Group_1203" data-name="Group 1203">
            <path id="Path_1015" data-name="Path 1015" d="M99.145,250.965c-.053-.055.268-.4.646-1.052a6.246,6.246,0,0,0,.848-2.777l.03-.568.418.406c.1.094.193.2.3.3a7.43,7.43,0,0,0,2.773,1.615,8.433,8.433,0,0,1,1.32.4,2.5,2.5,0,0,1-1.415-.04,6.436,6.436,0,0,1-3.034-1.59c-.118-.1-.222-.222-.326-.325l.448-.162a5.524,5.524,0,0,1-1.072,2.941C99.6,250.745,99.183,251.009,99.145,250.965Z" fill="#b88874"/>
          </g>
        </g>
        <g id="Group_1206" data-name="Group 1206">
          <g id="Group_1205" data-name="Group 1205">
            <path id="Path_1016" data-name="Path 1016" d="M102.361,261.447a22.552,22.552,0,0,1,.29-3.868,22.614,22.614,0,0,1,.441-3.855,17.144,17.144,0,0,1-.731,7.723Z" fill="#b88874"/>
          </g>
        </g>
        <g id="Group_1208" data-name="Group 1208">
          <g id="Group_1207" data-name="Group 1207">
            <path id="Path_1017" data-name="Path 1017" d="M100.558,261.744a58.231,58.231,0,0,1,.222-6.888,14.371,14.371,0,0,1-.222,6.888Z" fill="#b88874"/>
          </g>
        </g>
      </g>
      <g id="Group_1233" data-name="Group 1233">
        <g id="Group_1210" data-name="Group 1210">
          <path id="Path_1018" data-name="Path 1018" d="M103.613,186.064l4.587,56.457L94.733,243.68s-3.6-35.685-4.228-38.295-1.259-15.478-1.259-15.478Z" fill="#2d88e2"/>
        </g>
        <g id="Group_1211" data-name="Group 1211">
          <path id="Path_1019" data-name="Path 1019" d="M42.311,178.78l-.171,22.2L40.962,226.5l52.6,1.361-3.393-27.388-1.35-25.92s4.114-17.146,3.108-19.771a10.739,10.739,0,0,0-6.382-6.526c-.686-.4-10.377-3.49-13.967-3.693l.033-6.773c-6.032.589-9.147,7.719-9.147,7.719-2.5-6.032-10.122-6.763-10.122-6.763l-1.6,6.088a44.047,44.047,0,0,0-9.841,1.8c-5.238,1.895-4.533,1.733-8.44,5.639-2.7,2.7-8.23,14.106-1.206,27.414" fill="#2d88e2"/>
        </g>
        <g id="Group_1213" data-name="Group 1213">
          <g id="Group_1212" data-name="Group 1212">
            <path id="Path_1020" data-name="Path 1020" d="M60.682,143.131a2.49,2.49,0,0,0-1.761.23,2.986,2.986,0,0,0-1.247,1.448,7.534,7.534,0,0,0-.394,1.12c-.053.205-.107.413-.162.622a1.582,1.582,0,0,1-.333.722.726.726,0,0,1-.464.224.993.993,0,0,1-.44-.083c-.232-.1-.4-.192-.6-.286l-1.1-.543-1.857-.946a7.136,7.136,0,0,1-1.654-.992,7.151,7.151,0,0,1,1.812.659l1.905.846,1.117.515.576.266c.185.069.253.06.335-.02a4.259,4.259,0,0,0,.382-1.125,7.147,7.147,0,0,1,.452-1.187,3.214,3.214,0,0,1,1.512-1.568,2.158,2.158,0,0,1,1.461-.17C60.556,142.964,60.7,143.107,60.682,143.131Z" fill="#263238"/>
          </g>
        </g>
        <g id="Group_1215" data-name="Group 1215">
          <g id="Group_1214" data-name="Group 1214">
            <path id="Path_1021" data-name="Path 1021" d="M71.712,144.178a28.784,28.784,0,0,1-4.073,3.382l-.337.256-.074-.42c-.03-.17-.061-.35-.093-.532a6.21,6.21,0,0,0-1.528-3.6,5.534,5.534,0,0,0-1.389-.877c-.018-.055.753-.117,1.634.6a4.233,4.233,0,0,1,1.158,1.543,9.184,9.184,0,0,1,.637,2.234l.092.537-.411-.164A28.7,28.7,0,0,1,71.712,144.178Z" fill="#263238"/>
          </g>
        </g>
        <g id="Group_1216" data-name="Group 1216">
          <path id="Path_1022" data-name="Path 1022" d="M86.73,148.766s8.648,2.938,12.4,14.6a106.2,106.2,0,0,1,4.482,22.7l-13.6,5.028-5.5-33.489Z" fill="#2d88e2"/>
        </g>
        <g id="Group_1218" data-name="Group 1218">
          <g id="Group_1217" data-name="Group 1217">
            <path id="Path_1023" data-name="Path 1023" d="M66.954,158.241c-.038-.056.4-.241.88.172a1.173,1.173,0,0,1,.4.986,1.207,1.207,0,0,1-2.158.494A1.18,1.18,0,0,1,66,158.832c.256-.582.729-.6.718-.538.032.072-.274.214-.368.653a.864.864,0,0,0,.12.678.763.763,0,0,0,1.284-.294.865.865,0,0,0-.187-.662C67.295,158.314,66.957,158.319,66.954,158.241Z" fill="#263238"/>
          </g>
        </g>
        <g id="Group_1220" data-name="Group 1220">
          <g id="Group_1219" data-name="Group 1219">
            <path id="Path_1024" data-name="Path 1024" d="M68.876,176.844c-.038-.055.4-.24.88.172a1.176,1.176,0,0,1,.4.986A1.207,1.207,0,0,1,68,178.5a1.18,1.18,0,0,1-.071-1.061c.256-.582.729-.6.718-.538.032.072-.274.214-.368.654a.866.866,0,0,0,.12.678.764.764,0,0,0,1.284-.294.866.866,0,0,0-.187-.663C69.217,176.917,68.879,176.923,68.876,176.844Z" fill="#263238"/>
          </g>
        </g>
        <g id="Group_1222" data-name="Group 1222">
          <g id="Group_1221" data-name="Group 1221">
            <path id="Path_1025" data-name="Path 1025" d="M70.06,195c-.038-.055.4-.24.88.173a1.172,1.172,0,0,1,.4.985,1.207,1.207,0,0,1-2.158.494,1.178,1.178,0,0,1-.071-1.06c.256-.583.729-.6.718-.539.032.072-.274.215-.368.654a.865.865,0,0,0,.12.678.763.763,0,0,0,1.284-.294.863.863,0,0,0-.187-.662C70.4,195.078,70.063,195.083,70.06,195Z" fill="#263238"/>
          </g>
        </g>
        <g id="Group_1224" data-name="Group 1224">
          <g id="Group_1223" data-name="Group 1223">
            <path id="Path_1026" data-name="Path 1026" d="M71.255,214.768c-.039-.056.4-.241.88.172a1.176,1.176,0,0,1,.4.986,1.206,1.206,0,0,1-2.158.493,1.171,1.171,0,0,1-.071-1.06c.256-.582.728-.6.718-.538.032.072-.275.214-.368.653a.86.86,0,0,0,.119.678.764.764,0,0,0,1.285-.294.865.865,0,0,0-.188-.662C71.6,214.841,71.258,214.846,71.255,214.768Z" fill="#263238"/>
          </g>
        </g>
        <g id="Group_1225" data-name="Group 1225" opacity="0.3">
          <path id="Path_1027" data-name="Path 1027" d="M50.663,144.647s6.357,6.554,7.241,5.582,1.275-7.271,3.863-6.022a2.482,2.482,0,0,0-1.6-1.144c-.986-.105-2.572-.254-3.359,3.351,0,0-.031,1.121-.848.787S50.663,144.647,50.663,144.647Z"/>
        </g>
        <g id="Group_1226" data-name="Group 1226" opacity="0.3">
          <path id="Path_1028" data-name="Path 1028" d="M63.417,143.761a1.752,1.752,0,0,1,1.671,1.39,40.912,40.912,0,0,1,.428,5.176l5.642-5.57-3.7,2.572s-.5-4.379-3.239-4.937Z"/>
        </g>
        <g id="Group_1227" data-name="Group 1227" opacity="0.3">
          <path id="Path_1029" data-name="Path 1029" d="M43.823,177.75,48.1,226.5H40.962l1.061-23.254.294-24.935Z"/>
        </g>
        <g id="Group_1228" data-name="Group 1228">
          <path id="Path_1030" data-name="Path 1030" d="M41.734,199.961" fill="#263238"/>
        </g>
        <g id="Group_1230" data-name="Group 1230">
          <g id="Group_1229" data-name="Group 1229">
            <path id="Path_1031" data-name="Path 1031" d="M134.932,199.762" fill="none" stroke="#fff" stroke-miterlimit="10" stroke-width="0.05"/>
          </g>
        </g>
        <g id="Group_1232" data-name="Group 1232">
          <g id="Group_1231" data-name="Group 1231">
            <path id="Path_1032" data-name="Path 1032" d="M68.193,224.629a4.71,4.71,0,0,1-.08-.8q-.046-.864-.126-2.309c-.1-2.058-.248-4.945-.425-8.49-.37-7.168-.975-17.065-1.81-27.985s-1.713-20.8-2.345-27.952c-.308-3.537-.559-6.417-.737-8.47q-.112-1.443-.179-2.305a4.68,4.68,0,0,1-.027-.807,4.654,4.654,0,0,1,.132.8q.1.859.275,2.295c.219,2.05.526,4.925.9,8.455.726,7.143,1.662,17.02,2.5,27.948s1.382,20.831,1.658,28.007c.14,3.588.227,6.492.259,8.5.012.966.022,1.735.029,2.312A4.7,4.7,0,0,1,68.193,224.629Z" fill="#263238"/>
          </g>
        </g>
        <path id="Path_1033" data-name="Path 1033" d="M85.163,168.854l9.57,74.826S93.791,190.527,85.163,168.854Z" fill="#070707" opacity="0.39"/>
      </g>
      <path id="Path_1034" data-name="Path 1034" d="M65.371,198.358c-6.306-5.883-11.819-15.352-16.019-22.037h0s7.611,17.821,16.019,25.665c3.939,3.675,38.7,5.6,38.7,5.6h0C99.062,207.637,68.958,201.705,65.371,198.358Z" fill="#070707" opacity="0.39"/>
      <path id="Path_1035" data-name="Path 1035" d="M112.07,202.912a11.393,11.393,0,0,1-1.754,2.629A7.452,7.452,0,0,1,108.4,207.2q-.512.306-.974.564a8.809,8.809,0,0,1-4.715,1.109c-7.225-.332-32.165-2.481-36.342-3.5-5.021-1.23-23.289-29.573-23.289-29.573l-8,9.108s8.877,24.251,21.68,33.4c8.143,5.821,50.928,2.8,50.962,2.794a92.417,92.417,0,0,0,9.9,1.239c4.663.133,4.681-.285,4.6-.831-.208-1.466-8.194-.544-6.592-1.738s9.9.009,9.619-1.514c-.364-1.985-8.708-.867-9.421-.825-.692.041-.8-.986-.153-.99.928-.006,10.679-.3,10.339-2.258-.188-1.082-2.1-.564-2.1-.564s-9.1.952-9.232.025,5.194-1.681,7.008-1.8c1.791-.12,2.462-1.022,1.75-1.771-.486-.511-6.048-.268-7.839-.105s-6.692.7-4.49-1.533,3.056-4.773,2.809-5.622A.981.981,0,0,0,112.07,202.912Z" fill="#b88874"/>
      <g id="Group_1235" data-name="Group 1235">
        <g id="Group_1234" data-name="Group 1234">
          <path id="Path_1036" data-name="Path 1036" d="M104.11,223.8l-.034-16.213s-34.582-2.467-38.16-4.945S44.2,175.617,44.2,175.617l-12.942,4.066s12,29.557,23.137,39.947C59.613,224.5,104.11,223.8,104.11,223.8Z" fill="#2d88e2"/>
        </g>
      </g>
      <g id="Group_1236" data-name="Group 1236">
        <path id="Path_1037" data-name="Path 1037" d="M47.426,118.541s-1.773,2.5.255,6.371,5.941,5.424,6.033,6.629-1.372,7.2-1.372,7.2,7.432.738,10.122,6.763a17.251,17.251,0,0,1,2.467-3.828l5.63-2.327s6.944-5.345,7.445-12.213-.066-7.937.625-9.794c1.725-4.63.287-5.926-.154-6.552,0,0-1.487-16.26-12.069-16.187S38.426,100.972,47.426,118.541Z" fill="#b78876"/>
        <path id="Path_1038" data-name="Path 1038" d="M54.237,121.568s.48,3.013,1.027,3.619,8.915,10.262,10.012,9.451c1.009-.745,4.054-5.738,7.61-5.11s4.448,2.189,4.543,2.892-1.222,9.47-6.693,10.032c-4.2.431-10.867-2.05-13.246-6.115-4.656-7.958-2.808-13.863-5.2-15.435a22.459,22.459,0,0,0-4.86-2.361s-5.637-9.109-.832-15.744c2.247-3.1,7.6-7.154,15.41-8.176,3.2-.42,10.55,1.112,12.141,3.08s6.275,3.278,5.19,14.554c0,0-2.9-5.01-5.206-5.629a10.364,10.364,0,0,0-6.04-.1c-2.616,1.035-7.517-.807-9.54,1.435-1.231,1.366,1.166,5.175-.1,6.168S54.113,118.007,54.237,121.568Z" fill="#263238"/>
        <path id="Path_1039" data-name="Path 1039" d="M72.508,131.569c-1.756-.02-3.866.523-4.433,2.676s.274,3.613,1.224,4.021,2.865-.782,2.669-1.435-1.1-.677-.944-1.033,2.018-.381,2.149-.305,1.354.274,1.389.632-.907.445-.907.445-.556,1.352-.161,1.393,1.565-.253,2.2-2.4S76.748,131.616,72.508,131.569Z" fill="#b78876"/>
      </g>
      <g id="Group_1237" data-name="Group 1237">
        <rect id="Rectangle_799" data-name="Rectangle 799" width="9.705" height="3.474" transform="matrix(-0.965, 0.261, -0.261, -0.965, 237.138, 414.267)" fill="gray"/>
        <path id="Path_1040" data-name="Path 1040" d="M196.783,422.791a.381.381,0,0,0,.083,0c10.326.4,20.318-4.045,20.318-4.045s4.884-3.076,8.372-4.85a73.857,73.857,0,0,1,10.531-3.682,4.136,4.136,0,0,0,.53-3.441,15.558,15.558,0,0,0-3.212-5.794s1.1,2.011-7.411,4.314-11.265-1.749-11.265-1.749-2.064,1.577-5.63,7.152-6.618,6.219-6.618,6.219C195.386,418.653,196.783,422.791,196.783,422.791Z" fill="#333"/>
        <path id="Path_1041" data-name="Path 1041" d="M196.97,423.482c10.354.424,20.4-4.05,20.4-4.05s4.886-3.071,8.374-4.845a73.9,73.9,0,0,1,10.531-3.682c-.085-.351-.161-.571-.187-.691a73.857,73.857,0,0,0-10.531,3.682c-3.488,1.774-8.372,4.85-8.372,4.85s-9.992,4.449-20.318,4.045A2.716,2.716,0,0,0,196.97,423.482Z"/>
        <path id="Path_1042" data-name="Path 1042" d="M197.11,424c10.353.424,20.4-4.05,20.4-4.05s4.886-3.071,8.373-4.846a73.851,73.851,0,0,1,10.532-3.681c-.085-.351-.161-.571-.187-.691a73.847,73.847,0,0,0-10.532,3.681c-3.487,1.775-8.372,4.851-8.372,4.851s-9.992,4.448-20.317,4.045A2.715,2.715,0,0,0,197.11,424Z" fill="gray"/>
        <path id="Path_1043" data-name="Path 1043" d="M213.44,406.927s-.533.075-1.386-.9" fill="none" stroke="#000" stroke-miterlimit="10" stroke-width="0.959"/>
        <path id="Path_1044" data-name="Path 1044" d="M212.375,408.357s-.533.075-1.387-.9" fill="none" stroke="#000" stroke-miterlimit="10" stroke-width="0.959"/>
        <path id="Path_1045" data-name="Path 1045" d="M211.309,409.787s-.533.075-1.386-.9" fill="none" stroke="#000" stroke-miterlimit="10" stroke-width="0.959"/>
        <path id="Path_1046" data-name="Path 1046" d="M210.243,411.217s-.533.075-1.386-.9" fill="none" stroke="#000" stroke-miterlimit="10" stroke-width="0.959"/>
        <path id="Path_1047" data-name="Path 1047" d="M212.635,406.592a9.041,9.041,0,0,0,.354-3.993,1.83,1.83,0,0,0-.292-.743.737.737,0,0,0-.7-.311c-.4.082-.578.553-.634.959a5.163,5.163,0,0,0,1.236,4.077" fill="none" stroke="#000" stroke-miterlimit="10" stroke-width="0.959"/>
        <path id="Path_1048" data-name="Path 1048" d="M212.664,406.643a9.043,9.043,0,0,1,2.409-3.2,1.838,1.838,0,0,1,.715-.357.737.737,0,0,1,.727.237c.243.329.059.8-.171,1.136a5.17,5.17,0,0,1-3.648,2.2" fill="none" stroke="#000" stroke-miterlimit="10" stroke-width="0.959"/>
        <path id="Path_1049" data-name="Path 1049" d="M212.548,406.569a6.049,6.049,0,0,0,.679,2.849" fill="none" stroke="#000" stroke-miterlimit="10" stroke-width="0.959"/>
        <path id="Path_1050" data-name="Path 1050" d="M210.571,407.784a14.576,14.576,0,0,0,2.219-1.258" fill="none" stroke="#000" stroke-miterlimit="10" stroke-width="0.959"/>
      </g>
      <g id="Group_1238" data-name="Group 1238">
        <rect id="Rectangle_800" data-name="Rectangle 800" width="9.705" height="3.474" transform="translate(198.575 418.166) rotate(-180)" fill="gray"/>
        <path id="Path_1051" data-name="Path 1051" d="M157.394,415.849a.49.49,0,0,0,.081.022c9.861,3.087,20.668,1.4,20.668,1.4s5.519-1.694,9.349-2.495a73.792,73.792,0,0,1,11.128-.8,4.14,4.14,0,0,0,1.41-3.183,15.561,15.561,0,0,0-1.587-6.432s.534,2.227-8.28,2.227-10.417-4.631-10.417-4.631-2.4.983-7.3,5.433-8.013,4.273-8.013,4.273C157.127,411.49,157.394,415.849,157.394,415.849Z" fill="#333"/>
        <path id="Path_1052" data-name="Path 1052" d="M157.394,416.565c9.883,3.114,20.749,1.421,20.749,1.421s5.519-1.688,9.349-2.489a73.792,73.792,0,0,1,11.128-.8c.009-.361-.007-.593,0-.716a73.792,73.792,0,0,0-11.128.8c-3.83.8-9.349,2.495-9.349,2.495s-10.807,1.682-20.668-1.4A2.694,2.694,0,0,0,157.394,416.565Z"/>
        <path id="Path_1053" data-name="Path 1053" d="M157.394,417.1c9.883,3.115,20.749,1.421,20.749,1.421s5.519-1.688,9.349-2.489a73.884,73.884,0,0,1,11.128-.8c.009-.362-.007-.594,0-.716a73.884,73.884,0,0,0-11.128.8c-3.83.8-9.349,2.495-9.349,2.495s-10.807,1.683-20.668-1.4A2.694,2.694,0,0,0,157.394,417.1Z" fill="gray"/>
        <path id="Path_1054" data-name="Path 1054" d="M177.618,404.889s-.534-.067-1.1-1.236" fill="none" stroke="#000" stroke-miterlimit="10" stroke-width="0.959"/>
        <path id="Path_1055" data-name="Path 1055" d="M176.216,405.99s-.534-.066-1.1-1.235" fill="none" stroke="#000" stroke-miterlimit="10" stroke-width="0.959"/>
        <path id="Path_1056" data-name="Path 1056" d="M174.814,407.092s-.534-.067-1.1-1.235" fill="none" stroke="#000" stroke-miterlimit="10" stroke-width="0.959"/>
        <path id="Path_1057" data-name="Path 1057" d="M173.411,408.194s-.534-.067-1.1-1.235" fill="none" stroke="#000" stroke-miterlimit="10" stroke-width="0.959"/>
        <path id="Path_1058" data-name="Path 1058" d="M176.928,404.354a9.028,9.028,0,0,0,1.385-3.761,1.834,1.834,0,0,0-.087-.794.737.737,0,0,0-.593-.482c-.409-.026-.7.383-.862.76a5.168,5.168,0,0,0,.127,4.259" fill="none" stroke="#000" stroke-miterlimit="10" stroke-width="0.959"/>
        <path id="Path_1059" data-name="Path 1059" d="M176.943,404.412a9.046,9.046,0,0,1,3.162-2.462,1.846,1.846,0,0,1,.784-.158.738.738,0,0,1,.639.419c.149.381-.151.785-.462,1.052a5.168,5.168,0,0,1-4.1,1.172" fill="none" stroke="#000" stroke-miterlimit="10" stroke-width="0.959"/>
        <path id="Path_1060" data-name="Path 1060" d="M176.85,404.31a6.057,6.057,0,0,0-.089,2.927" fill="none" stroke="#000" stroke-miterlimit="10" stroke-width="0.959"/>
        <path id="Path_1061" data-name="Path 1061" d="M174.625,404.966a14.544,14.544,0,0,0,2.47-.634" fill="none" stroke="#000" stroke-miterlimit="10" stroke-width="0.959"/>
      </g>
    </g>
  </g>
</svg>
