<svg xmlns="http://www.w3.org/2000/svg" width="512.665" height="563.617" viewBox="0 0 512.665 563.617">
  <g id="Group_2437" data-name="Group 2437" transform="translate(-736.156 -103.383)">
    <g id="Group_1578" data-name="Group 1578" transform="translate(736.156 103.383)">
      <g id="Group_1294" data-name="Group 1294" transform="translate(3.828 16.916)">
        <g id="Group_604" data-name="Group 604" transform="translate(0)" style="mix-blend-mode: darken;isolation: isolate">
          <g id="Group_599" data-name="Group 599" transform="translate(142.151 115.353)" opacity="0.097">
            <g id="Group_598" data-name="Group 598">
              <path id="Path_431" data-name="Path 431" d="M4325.224,525.246l319.84,85.7V809.522l-319.84-85.7V525.246Zm-1.617-2.1v201.92l323.072,86.567V609.708l-323.072-86.567Z" transform="translate(-4323.607 -523.141)" fill="#67abdf"/>
            </g>
          </g>
          <path id="Path_432" data-name="Path 432" d="M4106.01,546.7l323.07,86.567V431.345l-323.07-86.567Z" transform="translate(-4013.127 -269.81)" fill="#eff6fc"/>
          <path id="Path_433" data-name="Path 433" d="M5479.4,1284.51l24.23,6.493v-24.23l-24.23-6.493Z" transform="translate(-5075.56 -978.028)" fill="#ededed" style="mix-blend-mode: multiply;isolation: isolate"/>
          <g id="Group_600" data-name="Group 600" transform="translate(185.766 317.192)" style="mix-blend-mode: multiply;isolation: isolate">
            <path id="Path_434" data-name="Path 434" d="M4516.241,1435.161l20.192,5.51v-20.563l-20.192-5.508Z" transform="translate(-4516.241 -1414.6)" fill="#ededed"/>
          </g>
          <g id="Group_601" data-name="Group 601" transform="translate(47.075 269.11)" opacity="0.097">
            <path id="Path_435" data-name="Path 435" d="M4189.067,1282.745a4.039,4.039,0,1,0,4.039-4.038A4.04,4.04,0,0,0,4189.067,1282.745Z" transform="translate(-4124.454 -1261.394)" fill="#67abdf"/>
            <path id="Path_436" data-name="Path 436" d="M4189.067,1354.089a4.039,4.039,0,1,0,4.039-4.039A4.039,4.039,0,0,0,4189.067,1354.089Z" transform="translate(-4124.454 -1316.583)" fill="#67abdf"/>
            <path id="Path_437" data-name="Path 437" d="M4117.723,1264.908a4.039,4.039,0,1,0,4.039-4.039A4.038,4.038,0,0,0,4117.723,1264.908Z" transform="translate(-4069.262 -1247.594)" fill="#67abdf"/>
            <ellipse id="Ellipse_16" data-name="Ellipse 16" cx="4.038" cy="4.038" rx="4.038" ry="4.038" transform="translate(32.307 8.657)" fill="#67abdf"/>
            <ellipse id="Ellipse_17" data-name="Ellipse 17" cx="4.038" cy="4.038" rx="4.038" ry="4.038" transform="translate(16.154 4.329)" fill="#67abdf"/>
            <ellipse id="Ellipse_18" data-name="Ellipse 18" cx="4.038" cy="4.038" rx="4.038" ry="4.038" transform="translate(0 0)" fill="#67abdf"/>
            <path id="Path_438" data-name="Path 438" d="M4117.723,1336.253a4.039,4.039,0,1,0,4.039-4.037A4.039,4.039,0,0,0,4117.723,1336.253Z" transform="translate(-4069.262 -1302.787)" fill="#67abdf"/>
            <ellipse id="Ellipse_19" data-name="Ellipse 19" cx="4.038" cy="4.038" rx="4.038" ry="4.038" transform="translate(32.307 24.811)" fill="#67abdf"/>
            <ellipse id="Ellipse_20" data-name="Ellipse 20" cx="4.038" cy="4.038" rx="4.038" ry="4.038" transform="translate(16.154 20.482)" fill="#67abdf"/>
            <ellipse id="Ellipse_21" data-name="Ellipse 21" cx="4.038" cy="4.038" rx="4.038" ry="4.038" transform="translate(0 16.154)" fill="#67abdf"/>
            <path id="Path_439" data-name="Path 439" d="M4189.067,1425.435a4.039,4.039,0,1,0,4.039-4.038A4.04,4.04,0,0,0,4189.067,1425.435Z" transform="translate(-4124.454 -1371.776)" fill="#67abdf"/>
            <path id="Path_440" data-name="Path 440" d="M4117.723,1407.6a4.039,4.039,0,1,0,4.039-4.039A4.038,4.038,0,0,0,4117.723,1407.6Z" transform="translate(-4069.262 -1357.979)" fill="#67abdf"/>
            <ellipse id="Ellipse_22" data-name="Ellipse 22" cx="4.038" cy="4.038" rx="4.038" ry="4.038" transform="translate(32.307 40.964)" fill="#67abdf"/>
            <ellipse id="Ellipse_23" data-name="Ellipse 23" cx="4.038" cy="4.038" rx="4.038" ry="4.038" transform="translate(16.154 36.636)" fill="#67abdf"/>
            <ellipse id="Ellipse_24" data-name="Ellipse 24" cx="4.038" cy="4.038" rx="4.038" ry="4.038" transform="translate(0 32.307)" fill="#67abdf"/>
          </g>
          <path id="Path_441" data-name="Path 441" d="M3927.644,331.087l304.289,81.534V209.762l-304.289-81.534Z" transform="translate(-3875.145 -102.29)" fill="#f3faff" style="mix-blend-mode: darken;isolation: isolate"/>
          <g id="Group_602" data-name="Group 602" transform="translate(419.992 230.758)" opacity="0.097">
            <ellipse id="Ellipse_25" data-name="Ellipse 25" cx="4.038" cy="4.038" rx="4.038" ry="4.038" transform="translate(80.768 21.642)" fill="#a3a2a2"/>
            <ellipse id="Ellipse_26" data-name="Ellipse 26" cx="4.038" cy="4.038" rx="4.038" ry="4.038" transform="translate(80.768 37.795)" fill="#a3a2a2"/>
            <ellipse id="Ellipse_27" data-name="Ellipse 27" cx="4.038" cy="4.038" rx="4.038" ry="4.038" transform="translate(64.614 17.603)" fill="#a3a2a2"/>
            <path id="Path_442" data-name="Path 442" d="M5764.779,1094.24a4.039,4.039,0,1,0,4.039-4.038A4.038,4.038,0,0,0,5764.779,1094.24Z" transform="translate(-5716.318 -1077.216)" fill="#a3a2a2"/>
            <ellipse id="Ellipse_28" data-name="Ellipse 28" cx="4.038" cy="4.038" rx="4.038" ry="4.038" transform="translate(32.307 8.657)" fill="#a3a2a2"/>
            <ellipse id="Ellipse_29" data-name="Ellipse 29" cx="4.038" cy="4.038" rx="4.038" ry="4.038" transform="translate(16.154 4.328)" fill="#a3a2a2"/>
            <ellipse id="Ellipse_30" data-name="Ellipse 30" cx="4.038" cy="4.038" rx="4.038" ry="4.038" fill="#a3a2a2"/>
            <ellipse id="Ellipse_31" data-name="Ellipse 31" cx="4.038" cy="4.038" rx="4.038" ry="4.038" transform="translate(64.614 33.757)" fill="#a3a2a2"/>
            <path id="Path_443" data-name="Path 443" d="M5764.779,1165.582a4.039,4.039,0,1,0,4.039-4.039A4.038,4.038,0,0,0,5764.779,1165.582Z" transform="translate(-5716.318 -1132.405)" fill="#a3a2a2"/>
            <ellipse id="Ellipse_32" data-name="Ellipse 32" cx="4.038" cy="4.038" rx="4.038" ry="4.038" transform="translate(32.307 24.81)" fill="#a3a2a2"/>
            <ellipse id="Ellipse_33" data-name="Ellipse 33" cx="4.038" cy="4.038" rx="4.038" ry="4.038" transform="translate(16.154 20.482)" fill="#a3a2a2"/>
            <ellipse id="Ellipse_34" data-name="Ellipse 34" cx="4.038" cy="4.038" rx="4.038" ry="4.038" transform="translate(0 16.154)" fill="#a3a2a2"/>
            <ellipse id="Ellipse_35" data-name="Ellipse 35" cx="4.038" cy="4.038" rx="4.038" ry="4.038" transform="translate(80.768 53.949)" fill="#a3a2a2"/>
            <ellipse id="Ellipse_36" data-name="Ellipse 36" cx="4.038" cy="4.038" rx="4.038" ry="4.038" transform="translate(64.614 49.91)" fill="#a3a2a2"/>
            <path id="Path_444" data-name="Path 444" d="M5764.779,1236.929a4.039,4.039,0,1,0,4.039-4.038A4.038,4.038,0,0,0,5764.779,1236.929Z" transform="translate(-5716.318 -1187.598)" fill="#a3a2a2"/>
            <ellipse id="Ellipse_37" data-name="Ellipse 37" cx="4.038" cy="4.038" rx="4.038" ry="4.038" transform="translate(32.307 40.964)" fill="#a3a2a2"/>
            <ellipse id="Ellipse_38" data-name="Ellipse 38" cx="4.038" cy="4.038" rx="4.038" ry="4.038" transform="translate(16.154 36.636)" fill="#a3a2a2"/>
            <ellipse id="Ellipse_39" data-name="Ellipse 39" cx="4.038" cy="4.038" rx="4.038" ry="4.038" transform="translate(0 32.307)" fill="#a3a2a2"/>
          </g>
          <path id="Path_445" data-name="Path 445" d="M4605.826,101.472l-319.841-85.7V61.678l-1.615-.432V13.666l323.07,86.567v60.576l-161.536-43.283v-1.672l159.921,42.85Z" transform="translate(-4151.104 -13.666)" fill="#67abdf" opacity="0.097"/>
          <g id="Group_603" data-name="Group 603" transform="translate(0 109.917)" style="mix-blend-mode: darken;isolation: isolate">
            <ellipse id="Ellipse_40" data-name="Ellipse 40" cx="4.038" cy="4.038" rx="4.038" ry="4.038" transform="translate(32.307 8.657)" fill="#f3faff"/>
            <ellipse id="Ellipse_41" data-name="Ellipse 41" cx="4.038" cy="4.038" rx="4.038" ry="4.038" transform="translate(16.154 4.328)" fill="#f3faff"/>
            <path id="Path_446" data-name="Path 446" d="M3699.813,507.211a4.038,4.038,0,1,1,4.038-4.038A4.038,4.038,0,0,1,3699.813,507.211Z" transform="translate(-3695.774 -499.135)" fill="#f3faff"/>
            <ellipse id="Ellipse_42" data-name="Ellipse 42" cx="4.038" cy="4.038" rx="4.038" ry="4.038" transform="translate(32.307 24.81)" fill="#f3faff"/>
            <ellipse id="Ellipse_43" data-name="Ellipse 43" cx="4.038" cy="4.038" rx="4.038" ry="4.038" transform="translate(16.154 20.482)" fill="#f3faff"/>
            <path id="Path_447" data-name="Path 447" d="M3699.813,570.48a4.038,4.038,0,1,1-4.038,4.038A4.038,4.038,0,0,1,3699.813,570.48Z" transform="translate(-3695.774 -554.326)" fill="#f3faff"/>
            <ellipse id="Ellipse_44" data-name="Ellipse 44" cx="4.038" cy="4.038" rx="4.038" ry="4.038" transform="translate(32.307 40.964)" fill="#f3faff"/>
            <ellipse id="Ellipse_45" data-name="Ellipse 45" cx="4.038" cy="4.038" rx="4.038" ry="4.038" transform="translate(16.154 36.636)" fill="#f3faff"/>
            <ellipse id="Ellipse_46" data-name="Ellipse 46" cx="4.038" cy="4.038" rx="4.038" ry="4.038" transform="translate(0 32.307)" fill="#f3faff"/>
            <path id="Path_448" data-name="Path 448" d="M3913.847,556.3v8.077a4.038,4.038,0,0,1,0-8.077Z" transform="translate(-3861.348 -543.356)" fill="#f3faff"/>
            <path id="Path_449" data-name="Path 449" d="M3913.847,627.644v8.077a4.038,4.038,0,0,1,0-8.077Z" transform="translate(-3861.348 -598.548)" fill="#f3faff"/>
            <path id="Path_450" data-name="Path 450" d="M3913.847,698.989v8.077a4.038,4.038,0,0,1,0-8.077Z" transform="translate(-3861.348 -653.739)" fill="#f3faff"/>
          </g>
        </g>
        <g id="Group_623" data-name="Group 623" transform="translate(135.822 62.421)">
          <g id="Group_607" data-name="Group 607" transform="translate(0)">
            <g id="Group_605" data-name="Group 605" transform="translate(0 34.905)">
              <path id="Path_451" data-name="Path 451" d="M4299.8,452.471a5.568,5.568,0,0,1-4.125-5.625c.253-2.419,2.518-3.831,5.046-3.148a5.566,5.566,0,0,1,4.123,5.625A3.79,3.79,0,0,1,4299.8,452.471Zm.788-7.5a2.687,2.687,0,0,0-3.577,2.231,3.947,3.947,0,0,0,2.922,3.987,2.688,2.688,0,0,0,3.577-2.231A3.949,3.949,0,0,0,4300.591,444.975Z" transform="translate(-4295.656 -443.526)" fill="#d8d8d8"/>
            </g>
            <g id="Group_606" data-name="Group 606" transform="translate(1.888)">
              <path id="Path_452" data-name="Path 452" d="M4306.554,329.727c-1.053-.285-2.172-1.373-2.483-7.288a93.848,93.848,0,0,1,.531-13.962,87.566,87.566,0,0,1,2.354-13.47c1.5-5.426,2.782-5.866,3.835-5.581s2.173,1.373,2.483,7.288a93.333,93.333,0,0,1-.532,13.962c-.182,1.734-.4,3.442-.646,5.078l-1.993-.621c.243-1.61.457-3.292.635-5a95.4,95.4,0,0,0,.562-12.815,19.889,19.889,0,0,0-.742-5.67,15.634,15.634,0,0,0-1.862,4.966,90.243,90.243,0,0,0-2.09,12.4,95.955,95.955,0,0,0-.561,12.815c.136,3.845.594,5.348.822,5.868l1.523,1.277A1.7,1.7,0,0,1,4306.554,329.727Z" transform="translate(-4303.993 -289.36)" fill="#a3a2a2"/>
            </g>
          </g>
          <g id="Group_610" data-name="Group 610" transform="translate(45.199 12.209)">
            <g id="Group_608" data-name="Group 608" transform="translate(0 34.905)">
              <path id="Path_453" data-name="Path 453" d="M4499.429,506.394a5.568,5.568,0,0,1-4.123-5.625c.254-2.419,2.518-3.831,5.046-3.149a5.57,5.57,0,0,1,4.123,5.625A3.792,3.792,0,0,1,4499.429,506.394Zm.789-7.5a2.687,2.687,0,0,0-3.576,2.231,3.946,3.946,0,0,0,2.922,3.987,2.687,2.687,0,0,0,3.576-2.231A3.947,3.947,0,0,0,4500.217,498.9Z" transform="translate(-4495.283 -497.449)" fill="#d8d8d8"/>
            </g>
            <g id="Group_609" data-name="Group 609" transform="translate(1.887)">
              <path id="Path_454" data-name="Path 454" d="M4506.179,383.65c-1.054-.285-2.173-1.373-2.482-7.288a93.6,93.6,0,0,1,.533-13.962,87.712,87.712,0,0,1,2.351-13.47c1.5-5.426,2.784-5.866,3.837-5.582s2.173,1.373,2.481,7.288a93.392,93.392,0,0,1-.532,13.962c-.182,1.733-.4,3.441-.645,5.078l-1.994-.621c.242-1.611.455-3.293.635-5a95.576,95.576,0,0,0,.563-12.815,19.88,19.88,0,0,0-.743-5.67,15.708,15.708,0,0,0-1.861,4.966,89.96,89.96,0,0,0-2.089,12.4,96.075,96.075,0,0,0-.563,12.815c.138,3.845.595,5.348.823,5.868l1.524,1.277A1.7,1.7,0,0,1,4506.179,383.65Z" transform="translate(-4503.62 -343.283)" fill="#a3a2a2"/>
            </g>
          </g>
          <g id="Group_613" data-name="Group 613" transform="translate(90.397 24.418)">
            <g id="Group_611" data-name="Group 611" transform="translate(0 34.905)">
              <path id="Path_455" data-name="Path 455" d="M4699.056,560.318a5.57,5.57,0,0,1-4.123-5.625c.254-2.419,2.517-3.831,5.045-3.148a5.568,5.568,0,0,1,4.124,5.625C4703.847,559.589,4701.584,561,4699.056,560.318Zm.789-7.5a2.688,2.688,0,0,0-3.577,2.231,3.95,3.95,0,0,0,2.922,3.987,2.687,2.687,0,0,0,3.577-2.231A3.946,3.946,0,0,0,4699.844,552.822Z" transform="translate(-4694.909 -551.372)" fill="#d8d8d8"/>
            </g>
            <g id="Group_612" data-name="Group 612" transform="translate(1.887)">
              <path id="Path_456" data-name="Path 456" d="M4705.807,437.574c-1.055-.285-2.174-1.373-2.483-7.288a93.522,93.522,0,0,1,.531-13.962,87.652,87.652,0,0,1,2.352-13.47c1.5-5.425,2.784-5.866,3.837-5.581s2.172,1.373,2.482,7.288a93.4,93.4,0,0,1-.532,13.962c-.183,1.735-.4,3.443-.646,5.078l-1.994-.621c.243-1.609.458-3.29.637-5a95.718,95.718,0,0,0,.562-12.815,19.86,19.86,0,0,0-.744-5.67,15.724,15.724,0,0,0-1.861,4.966,90.411,90.411,0,0,0-2.088,12.4,95.832,95.832,0,0,0-.563,12.815c.136,3.845.595,5.348.822,5.868l1.525,1.277A1.7,1.7,0,0,1,4705.807,437.574Z" transform="translate(-4703.246 -397.207)" fill="#a3a2a2"/>
            </g>
          </g>
          <g id="Group_616" data-name="Group 616" transform="translate(135.595 36.627)">
            <g id="Group_614" data-name="Group 614" transform="translate(0 34.905)">
              <path id="Path_457" data-name="Path 457" d="M4898.682,614.242a5.568,5.568,0,0,1-4.123-5.625,3.791,3.791,0,0,1,5.045-3.148,5.57,5.57,0,0,1,4.124,5.625A3.792,3.792,0,0,1,4898.682,614.242Zm.789-7.5a2.687,2.687,0,0,0-3.576,2.231,3.946,3.946,0,0,0,2.922,3.987,2.687,2.687,0,0,0,3.576-2.231A3.946,3.946,0,0,0,4899.471,606.746Z" transform="translate(-4894.536 -605.297)" fill="#d8d8d8"/>
            </g>
            <g id="Group_615" data-name="Group 615" transform="translate(1.888)">
              <path id="Path_458" data-name="Path 458" d="M4905.434,491.5c-1.053-.285-2.173-1.373-2.482-7.288a93.527,93.527,0,0,1,.532-13.962,87.637,87.637,0,0,1,2.353-13.47c1.5-5.425,2.783-5.866,3.835-5.581s2.173,1.373,2.483,7.288a93.593,93.593,0,0,1-.532,13.962c-.183,1.733-.4,3.441-.646,5.078l-1.992-.62c.242-1.611.455-3.292.635-5a96.071,96.071,0,0,0,.563-12.815,19.92,19.92,0,0,0-.743-5.67,15.652,15.652,0,0,0-1.862,4.966,90.039,90.039,0,0,0-2.089,12.4,95.9,95.9,0,0,0-.563,12.815c.137,3.846.6,5.349.823,5.869l1.522,1.276A1.7,1.7,0,0,1,4905.434,491.5Z" transform="translate(-4902.873 -451.131)" fill="#a3a2a2"/>
            </g>
          </g>
          <g id="Group_619" data-name="Group 619" transform="translate(180.793 48.836)">
            <g id="Group_617" data-name="Group 617" transform="translate(0 34.905)">
              <path id="Path_459" data-name="Path 459" d="M5098.308,668.166a5.566,5.566,0,0,1-4.122-5.625,3.79,3.79,0,0,1,5.044-3.148,5.568,5.568,0,0,1,4.124,5.625C5103.1,667.436,5100.837,668.849,5098.308,668.166Zm.789-7.5a2.689,2.689,0,0,0-3.577,2.231,3.949,3.949,0,0,0,2.923,3.987,2.686,2.686,0,0,0,3.577-2.231A3.949,3.949,0,0,0,5099.1,660.67Z" transform="translate(-5094.163 -659.22)" fill="#d8d8d8"/>
            </g>
            <g id="Group_618" data-name="Group 618" transform="translate(1.887)">
              <path id="Path_460" data-name="Path 460" d="M5105.06,545.421c-1.054-.285-2.172-1.373-2.482-7.288a93.461,93.461,0,0,1,.532-13.962,87.465,87.465,0,0,1,2.352-13.47c1.5-5.426,2.782-5.866,3.836-5.581s2.173,1.373,2.482,7.288a93.392,93.392,0,0,1-.532,13.962c-.184,1.733-.4,3.442-.646,5.078l-1.994-.621c.243-1.611.457-3.293.636-5a95.884,95.884,0,0,0,.562-12.815,19.976,19.976,0,0,0-.741-5.67,15.6,15.6,0,0,0-1.863,4.966,90.456,90.456,0,0,0-2.09,12.4,95.626,95.626,0,0,0-.561,12.815c.136,3.845.594,5.348.822,5.868l1.523,1.277A1.7,1.7,0,0,1,5105.06,545.421Z" transform="translate(-5102.499 -505.055)" fill="#a3a2a2"/>
            </g>
          </g>
          <g id="Group_622" data-name="Group 622" transform="translate(225.992 61.045)">
            <g id="Group_620" data-name="Group 620" transform="translate(0 34.905)">
              <path id="Path_461" data-name="Path 461" d="M5297.935,722.089a5.571,5.571,0,0,1-4.124-5.625c.254-2.419,2.518-3.831,5.047-3.148a5.565,5.565,0,0,1,4.121,5.625C5302.727,721.36,5300.463,722.772,5297.935,722.089Zm.789-7.5a2.687,2.687,0,0,0-3.576,2.231,3.945,3.945,0,0,0,2.922,3.986,2.687,2.687,0,0,0,3.576-2.231A3.946,3.946,0,0,0,5298.724,714.593Z" transform="translate(-5293.788 -713.144)" fill="#d8d8d8"/>
            </g>
            <g id="Group_621" data-name="Group 621" transform="translate(1.887)">
              <path id="Path_462" data-name="Path 462" d="M5304.685,599.344c-1.054-.285-2.173-1.373-2.483-7.288a93.621,93.621,0,0,1,.534-13.962,87.48,87.48,0,0,1,2.351-13.47c1.5-5.425,2.782-5.866,3.837-5.581s2.173,1.373,2.483,7.288a93.684,93.684,0,0,1-.534,13.962c-.182,1.734-.4,3.443-.646,5.078l-1.994-.621c.243-1.609.457-3.29.637-5a95.9,95.9,0,0,0,.563-12.815,19.888,19.888,0,0,0-.744-5.67,15.622,15.622,0,0,0-1.861,4.966,90.228,90.228,0,0,0-2.091,12.4,96.213,96.213,0,0,0-.562,12.815c.136,3.845.595,5.348.822,5.868l1.524,1.277A1.7,1.7,0,0,1,5304.685,599.344Z" transform="translate(-5302.125 -558.978)" fill="#a3a2a2"/>
            </g>
          </g>
        </g>
        <g id="Group_624" data-name="Group 624" transform="translate(112.914 110.356)" opacity="0.332">
          <path id="Path_463" data-name="Path 463" d="M5323.356,888.4l-.164,9.647c-.115,6.744-5.978,10.64-13.1,8.7l-3.539-.963c-7.12-1.937-12.8-8.974-12.682-15.718l.167-9.859c.12-7.046,6.493-10.922,13.909-8.458l3.537,1.176C5318.27,875.18,5323.467,881.954,5323.356,888.4Z" transform="translate(-5044.954 -787.248)" fill="#d0d9dd"/>
          <path id="Path_464" data-name="Path 464" d="M5142.846,841.085l-.134,7.891c-.123,7.244-6.422,11.43-14.069,9.349l-1.627-.443c-7.647-2.081-13.747-9.64-13.624-16.884l.136-7.988c.129-7.569,6.975-11.732,14.941-9.085l1.626.54C5137.382,826.885,5142.964,834.162,5142.846,841.085Z" transform="translate(-4905.335 -750.208)" fill="#38c800" opacity="0.35"/>
          <path id="Path_465" data-name="Path 465" d="M4932.926,782.342l-.176,10.328c-.11,6.55,5.4,13.385,12.318,15.266l4.282,1.165c6.914,1.881,12.608-1.9,12.721-8.453l.178-10.584c.117-6.844-5.89-13.926-13.106-15.457l-4.286-.909C4938.255,772.3,4933.032,776.083,4932.926,782.342Z" transform="translate(-4765.594 -711.747)" fill="#d0d9dd"/>
          <path id="Path_466" data-name="Path 466" d="M4742.32,736.284l.175-10.328c.11-6.55,5.806-10.335,12.72-8.453l4.282,1.165c6.914,1.881,12.429,8.716,12.318,15.266l-.179,10.584c-.117,6.844-6.307,10.608-13.51,8.215l-4.276-1.421C4747.26,749.123,4742.213,742.544,4742.32,736.284Z" transform="translate(-4618.28 -668.126)" fill="#d0d9dd"/>
          <path id="Path_467" data-name="Path 467" d="M4201.924,589.238l.176-10.328c.112-6.55,5.806-10.334,12.72-8.453l4.28,1.165c6.914,1.882,12.431,8.716,12.319,15.266l-.179,10.584c-.117,6.844-6.305,10.608-13.51,8.215l-4.277-1.421C4206.865,602.077,4201.817,595.5,4201.924,589.238Z" transform="translate(-4200.237 -554.374)" fill="#d0d9dd"/>
          <path id="Path_468" data-name="Path 468" d="M4560.626,681.036l-.176,10.328c-.111,6.55,5.4,13.385,12.318,15.266l4.28,1.165c6.914,1.881,12.609-1.9,12.721-8.453l.18-10.584c.115-6.844-5.891-13.927-13.108-15.457l-4.284-.909C4565.955,670.992,4560.731,674.777,4560.626,681.036Z" transform="translate(-4477.588 -633.378)" fill="#38c800" opacity="0.35"/>
          <path id="Path_469" data-name="Path 469" d="M4381.322,632.246l-.175,10.328c-.111,6.55,5.4,13.385,12.318,15.266l4.282,1.165c6.914,1.881,12.609-1.9,12.72-8.453l.179-10.584c.117-6.844-5.889-13.927-13.106-15.458l-4.285-.909C4386.652,622.2,4381.428,625.987,4381.322,632.246Z" transform="translate(-4338.881 -595.634)" fill="#d0d9dd"/>
          <path id="Path_470" data-name="Path 470" d="M5319.661,1104.578l-.176,10.328c-.111,6.55-5.806,10.334-12.722,8.453l-4.28-1.165c-6.914-1.881-12.43-8.716-12.318-15.266l.179-10.583c.116-6.844,6.307-10.608,13.509-8.215l4.277,1.421C5314.718,1091.739,5319.766,1098.318,5319.661,1104.578Z" transform="translate(-5042.084 -954.652)" fill="#d0d9dd"/>
          <path id="Path_471" data-name="Path 471" d="M5139.113,1055.45l-.176,10.328c-.11,6.55-5.805,10.334-12.721,8.453l-4.281-1.165c-6.913-1.881-12.429-8.716-12.317-15.266l.18-10.584c.115-6.843,6.305-10.608,13.509-8.214l4.276,1.421C5134.172,1042.611,5139.219,1049.19,5139.113,1055.45Z" transform="translate(-4902.417 -916.647)" fill="#d0d9dd"/>
          <path id="Path_472" data-name="Path 472" d="M4929.245,999.225l-.174,10.328c-.113,6.55,5.4,13.385,12.317,15.266l4.28,1.165c6.916,1.882,12.61-1.9,12.72-8.453l.181-10.584c.116-6.844-5.89-13.927-13.107-15.457l-4.286-.909C4934.575,989.181,4929.352,992.965,4929.245,999.225Z" transform="translate(-4762.747 -879.524)" fill="#d0d9dd"/>
          <path id="Path_473" data-name="Path 473" d="M4198.242,806.121l.175-10.327c.111-6.55,5.807-10.334,12.72-8.453l4.282,1.165c6.914,1.881,12.43,8.716,12.319,15.266l-.181,10.583c-.116,6.844-6.308,10.608-13.511,8.215l-4.276-1.421C4203.183,818.96,4198.136,812.381,4198.242,806.121Z" transform="translate(-4197.389 -722.152)" fill="#38c800" opacity="0.35"/>
          <path id="Path_474" data-name="Path 474" d="M4556.943,897.918l-.175,10.328c-.111,6.55,5.4,13.385,12.318,15.266l4.282,1.165c6.914,1.881,12.608-1.9,12.72-8.453l.179-10.584c.118-6.844-5.89-13.927-13.106-15.457l-4.286-.909C4562.273,887.874,4557.049,891.658,4556.943,897.918Z" transform="translate(-4474.739 -801.154)" fill="#d0d9dd"/>
          <path id="Path_475" data-name="Path 475" d="M4377.641,849.129l-.174,10.328c-.113,6.55,5.4,13.385,12.317,15.266l4.281,1.165c6.915,1.881,12.609-1.9,12.72-8.453l.182-10.584c.115-6.844-5.891-13.926-13.108-15.457l-4.285-.909C4382.971,839.085,4377.747,842.869,4377.641,849.129Z" transform="translate(-4336.035 -763.412)" fill="#d0d9dd"/>
          <path id="Path_476" data-name="Path 476" d="M5315.9,1326.107l-.175,10.327c-.112,6.55-5.806,10.334-12.72,8.453l-4.282-1.165c-6.914-1.881-12.431-8.716-12.318-15.266l.179-10.583c.117-6.844,6.307-10.608,13.51-8.215l4.277,1.421C5310.958,1313.268,5316.007,1319.847,5315.9,1326.107Z" transform="translate(-5039.176 -1126.023)" fill="#d0d9dd"/>
          <path id="Path_477" data-name="Path 477" d="M5135.353,1276.978l-.175,10.327c-.11,6.55-5.806,10.335-12.721,8.453l-4.282-1.165c-6.914-1.881-12.428-8.716-12.317-15.266l.179-10.583c.117-6.844,6.307-10.608,13.511-8.215l4.276,1.421C5130.411,1264.139,5135.458,1270.719,5135.353,1276.978Z" transform="translate(-4899.507 -1088.019)" fill="#38c800" opacity="0.35"/>
          <path id="Path_478" data-name="Path 478" d="M4925.483,1220.755l-.175,10.327c-.111,6.55,5.4,13.385,12.317,15.266l4.283,1.165c6.914,1.881,12.61-1.9,12.721-8.453l.178-10.583c.118-6.844-5.888-13.927-13.107-15.458l-4.286-.908C4930.813,1210.71,4925.591,1214.495,4925.483,1220.755Z" transform="translate(-4759.837 -1050.896)" fill="#d0d9dd"/>
          <path id="Path_479" data-name="Path 479" d="M4734.877,1174.7l.176-10.328c.111-6.55,5.807-10.334,12.721-8.453l4.281,1.165c6.915,1.881,12.43,8.717,12.319,15.266l-.18,10.584c-.116,6.844-6.306,10.608-13.508,8.215l-4.278-1.421C4739.82,1187.535,4734.772,1180.955,4734.877,1174.7Z" transform="translate(-4612.523 -1007.275)" fill="#d0d9dd"/>
          <path id="Path_480" data-name="Path 480" d="M4194.481,1027.649l.176-10.327c.111-6.55,5.807-10.335,12.721-8.453l4.282,1.165c6.914,1.882,12.428,8.716,12.318,15.266l-.182,10.583c-.115,6.844-6.305,10.608-13.508,8.215l-4.276-1.421C4199.422,1040.488,4194.375,1033.908,4194.481,1027.649Z" transform="translate(-4194.479 -893.522)" fill="#d0d9dd"/>
          <path id="Path_481" data-name="Path 481" d="M4553.184,1119.447l-.176,10.327c-.11,6.55,5.4,13.385,12.318,15.266l4.282,1.165c6.914,1.881,12.608-1.9,12.72-8.453l.181-10.583c.116-6.844-5.891-13.927-13.108-15.457l-4.286-.909C4558.514,1109.4,4553.289,1113.188,4553.184,1119.447Z" transform="translate(-4471.831 -972.526)" fill="#38c800" opacity="0.35"/>
          <path id="Path_482" data-name="Path 482" d="M4373.881,1070.658l-.176,10.327c-.111,6.55,5.4,13.385,12.319,15.266l4.28,1.165c6.915,1.881,12.611-1.9,12.721-8.453l.18-10.583c.115-6.844-5.89-13.927-13.107-15.457l-4.285-.909C4379.209,1060.614,4373.986,1064.4,4373.881,1070.658Z" transform="translate(-4333.125 -934.783)" fill="#d0d9dd"/>
          <path id="Path_483" data-name="Path 483" d="M4253.94,510.01h0c2.433.662,4.438-.669,4.475-2.973l.008-.426a5.92,5.92,0,0,0-4.333-5.37h0c-2.431-.662-4.435.669-4.474,2.973l-.008.426A5.923,5.923,0,0,0,4253.94,510.01Z" transform="translate(-4237.125 -501.071)" fill="#d0d9dd"/>
          <path id="Path_484" data-name="Path 484" d="M4432.885,558.7h0c2.432.662,4.437-.669,4.475-2.974l.007-.426a5.919,5.919,0,0,0-4.333-5.37h0c-2.431-.662-4.435.669-4.474,2.973l-.009.425A5.925,5.925,0,0,0,4432.885,558.7Z" transform="translate(-4375.554 -538.739)" fill="#d0d9dd"/>
          <path id="Path_485" data-name="Path 485" d="M4613.387,607.819h0c2.433.662,4.436-.67,4.475-2.974l.007-.425a5.924,5.924,0,0,0-4.333-5.37h0c-2.433-.662-4.436.67-4.474,2.974l-.008.425A5.922,5.922,0,0,0,4613.387,607.819Z" transform="translate(-4515.188 -576.735)" fill="#d0d9dd"/>
          <path id="Path_486" data-name="Path 486" d="M4793.888,656.935h0c2.432.662,4.434-.669,4.475-2.974l.006-.426a5.921,5.921,0,0,0-4.333-5.37h0c-2.432-.662-4.435.67-4.474,2.974l-.007.425A5.921,5.921,0,0,0,4793.888,656.935Z" transform="translate(-4654.82 -614.73)" fill="#d0d9dd"/>
          <path id="Path_487" data-name="Path 487" d="M4985.281,709.015h0c2.431.662,4.437-.67,4.475-2.973l.008-.426a5.922,5.922,0,0,0-4.333-5.37h0c-2.433-.662-4.436.669-4.475,2.973l-.007.425A5.919,5.919,0,0,0,4985.281,709.015Z" transform="translate(-4802.881 -655.018)" fill="#d0d9dd"/>
          <path id="Path_488" data-name="Path 488" d="M5165.784,758.131h0c2.432.662,4.436-.67,4.475-2.974l.008-.425a5.924,5.924,0,0,0-4.335-5.37h0c-2.431-.662-4.435.669-4.475,2.974l-.006.425A5.919,5.919,0,0,0,5165.784,758.131Z" transform="translate(-4942.514 -693.014)" fill="#d0d9dd"/>
          <path id="Path_489" data-name="Path 489" d="M5347.84,807.67h0c2.433.662,4.436-.67,4.475-2.974l.007-.425a5.925,5.925,0,0,0-4.333-5.37h0c-2.433-.662-4.436.67-4.474,2.974l-.008.426A5.924,5.924,0,0,0,5347.84,807.67Z" transform="translate(-5083.35 -731.336)" fill="#d0d9dd"/>
        </g>
      </g>
      <path id="Path_509" data-name="Path 509" d="M4081.189-52.114l-.176,10.328c-.111,6.55,5.4,13.385,12.318,15.266l4.281,1.165c6.915,1.881,12.61-1.9,12.721-8.453l.18-10.584c.115-6.844-5.89-13.927-13.108-15.457l-4.286-.909C4086.519-62.158,4081.295-58.373,4081.189-52.114Z" transform="translate(-3989.96 61.048)" fill="#d0d9dd" opacity="0.184"/>
      <path id="Path_510" data-name="Path 510" d="M5007.913,141.851l-.175,10.328c-.111,6.55,5.4,13.385,12.317,15.266l4.282,1.165c6.915,1.881,12.608-1.9,12.72-8.453l.18-10.584c.116-6.844-5.891-13.926-13.106-15.457l-4.287-.909C5013.241,131.807,5008.019,135.592,5007.913,141.851Z" transform="translate(-4712.516 -64.495)" fill="#38c800" opacity="0.184"/>
      <path id="Path_511" data-name="Path 511" d="M3679.043,906.331l-.175,10.328c-.111,6.55,5.4,13.385,12.317,15.266l4.282,1.165c6.914,1.882,12.609-1.9,12.721-8.453l.179-10.584c.117-6.844-5.89-13.927-13.107-15.457l-4.286-.909C3684.373,896.287,3679.149,900.072,3679.043,906.331Z" transform="translate(-3678.866 -680.391)" fill="#96b58f" opacity="0.184"/>
      <path id="Path_512" data-name="Path 512" d="M5803.708,725.366l-.176,10.328c-.11,6.55,5.4,13.385,12.318,15.266l4.282,1.165c6.914,1.881,12.608-1.9,12.719-8.453l.181-10.584c.116-6.844-5.891-13.927-13.107-15.457l-4.287-.909C5809.038,715.322,5803.814,719.107,5803.708,725.366Z" transform="translate(-5322.477 -540.399)" fill="#d0d9dd" opacity="0.184"/>
    </g>
    <g id="Group_1296" data-name="Group 1296" transform="translate(979.576 325.99)">
      <g id="Group_630" data-name="Group 630" transform="translate(5.4 30.657)">
        <g id="Group_1292" data-name="Group 1292" transform="translate(0 0)">
          <g id="Group_1242" data-name="Group 1242">
            <g id="Group_1241" data-name="Group 1241">
              <path id="Path_1062" data-name="Path 1062" d="M-233.661,165.225c-8.588-.5-18.21-5.212-28.305-10.79-18.519-10.231-28.522-48.673-28.522-48.673h0c-1.311-3.391-1.892-5.838-2.872-8.012-1.207-2.68-1.516-3.87-1-4.064.689-.258.413-.189,3.3,4.369,0,0-4.065-6.544-2.071-5.819.883.321,4.315,5.725,4.315,5.725-3.156-4.088-3.7-6.126-3.055-6.57.933-.644,5.048,5.947,5.048,5.947a58.288,58.288,0,0,1-3.534-6.01c-.295-1.046.907-.516,1.777.2.976.808,5.975,6.319,7.5,7.833,1.05,1.041,3.509,4.406,3.319,5.087,1.163,4.718,8.811,24.122,16.711,33.541,2.9,3.462,22.777,12.02,22.777,12.02Z" transform="translate(294.6 -90.741)" fill="#b78876"/>
            </g>
          </g>
          <g id="Group_1287" data-name="Group 1287" transform="translate(39.387 11.507)">
            <g id="Group_1244" data-name="Group 1244" transform="translate(38.852 210.868)">
              <g id="Group_1243" data-name="Group 1243">
                <path id="Path_1063" data-name="Path 1063" d="M-211.588,326.682" transform="translate(211.588 -326.682)" fill="none" stroke="#a36957" stroke-miterlimit="10" stroke-width="0.05"/>
              </g>
            </g>
            <g id="Group_1256" data-name="Group 1256" transform="translate(17.61 128.379)">
              <g id="Group_1250" data-name="Group 1250">
                <g id="Group_1245" data-name="Group 1245" transform="translate(47.488 0.055)">
                  <path id="Path_1064" data-name="Path 1064" d="M-183.741,239.536c.013-.12.026-.245.034-.317C-183.713,239.275-183.723,239.374-183.741,239.536Z" transform="translate(183.741 -239.219)" fill="#b78876"/>
                </g>
                <g id="Group_1246" data-name="Group 1246" transform="translate(47.457 0.372)">
                  <path id="Path_1065" data-name="Path 1065" d="M-183.774,239.842c.012-.114.022-.206.031-.287Z" transform="translate(183.774 -239.555)" fill="#b78876"/>
                </g>
                <g id="Group_1247" data-name="Group 1247" transform="translate(0 0.66)">
                  <path id="Path_1066" data-name="Path 1066" d="M-175.377,390.238s-22.532-77.941-22.966-80.394c-.393-2.217,10.146-56.026,11.674-69.985l-31.991.3s0,.086-.009.233l-15.456.427,8.085,155.359,17.057.245-.728-52.286c8.391,24.6,19,52.387,19,52.387Z" transform="translate(234.126 -239.86)" fill="#b78876"/>
                </g>
                <g id="Group_1248" data-name="Group 1248" transform="translate(47.527)">
                  <path id="Path_1067" data-name="Path 1067" d="M-183.7,239.179c0-.024,0-.026,0,0Z" transform="translate(183.7 -239.16)" fill="#b78876"/>
                </g>
                <g id="Group_1249" data-name="Group 1249" transform="translate(47.522 0.019)">
                  <path id="Path_1068" data-name="Path 1068" d="M-183.705,239.217l0-.037C-183.7,239.19-183.7,239.2-183.705,239.217Z" transform="translate(183.705 -239.18)" fill="#b78876"/>
                </g>
              </g>
              <g id="Group_1253" data-name="Group 1253" transform="translate(13.823 67.191)">
                <g id="Group_1252" data-name="Group 1252">
                  <g id="Group_1251" data-name="Group 1251">
                    <path id="Path_1069" data-name="Path 1069" d="M-219.038,310.45c.046.008-.044.6-.1,1.674a33.138,33.138,0,0,0,.082,4.549,41.7,41.7,0,0,0,1.132,6.647,66.3,66.3,0,0,0,2.713,7.814c2.106,5.505,3.989,10.5,5.327,14.121.639,1.759,1.166,3.21,1.563,4.3a10.8,10.8,0,0,1,.51,1.6,10.822,10.822,0,0,1-.689-1.532l-1.707-4.244c-1.422-3.591-3.355-8.565-5.462-14.071-.524-1.378-1.034-2.722-1.528-4.023a37.284,37.284,0,0,1-1.166-3.857,39.169,39.169,0,0,1-1.039-6.73,27.563,27.563,0,0,1,.074-4.59c.055-.539.124-.954.181-1.235A1.453,1.453,0,0,1-219.038,310.45Z" transform="translate(219.46 -310.45)" fill="#a36957"/>
                  </g>
                </g>
              </g>
              <g id="Group_1255" data-name="Group 1255" transform="translate(19.084 91.198)">
                <g id="Group_1254" data-name="Group 1254">
                  <path id="Path_1070" data-name="Path 1070" d="M-208.456,367.951c.027-.467.3-17.083.3-17.083s-5.574-15.405-5.716-14.936S-208.456,367.951-208.456,367.951Z" transform="translate(213.878 -335.922)" fill="#a36957"/>
                </g>
              </g>
            </g>
            <g id="Group_1268" data-name="Group 1268" transform="translate(0 42.16)">
              <g id="Group_1258" data-name="Group 1258">
                <g id="Group_1257" data-name="Group 1257">
                  <path id="Path_1071" data-name="Path 1071" d="M-175.087,181.938s-.7-3.727-4.426-16.771c-1.7-5.945-6.184-9.859-10.656-12.2l0-.081-.39-.114a36.874,36.874,0,0,0-11.717-3.407l-16.039-.768a162.865,162.865,0,0,0-18.85,1.567c-3.773.59-8.539-3.294-11.154-2.331-2.626,2.434-4.495,16.647-4.495,16.647l21.142,8.49s-6.59,7.96-1,14.483c4,4.662,5.058,11.33,5.058,11.33l-3.376,15.819c-2.093,6.024-8.987,28.05-6.283,49.867,3.35,27.019,3.884,34.919,3.884,34.919l38.208,5.226s15.27-57.21,10.04-79.937c-3.594-15.614-6.337-14.886-7.219-18.27l.994-24.314Z" transform="translate(252.81 -147.682)" fill="#7e893d"/>
                </g>
              </g>
              <g id="Group_1261" data-name="Group 1261" transform="translate(24.141 55.548)">
                <g id="Group_1260" data-name="Group 1260">
                  <g id="Group_1259" data-name="Group 1259">
                    <path id="Path_1072" data-name="Path 1072" d="M-195.795,207.19a6,6,0,0,1-1.219.244c-.788.128-1.934.275-3.355.422a95.334,95.334,0,0,1-11.151.457,95.189,95.189,0,0,1-11.129-.854c-1.415-.2-2.555-.385-3.338-.542a6.055,6.055,0,0,1-1.209-.287,6.034,6.034,0,0,1,1.238.1l3.352.386c2.83.308,6.752.628,11.1.708s8.271-.106,11.111-.312l3.364-.266A6.106,6.106,0,0,1-195.795,207.19Z" transform="translate(227.196 -206.619)" fill="#263238"/>
                  </g>
                </g>
              </g>
              <g id="Group_1264" data-name="Group 1264" transform="translate(19.499 98.938)">
                <g id="Group_1263" data-name="Group 1263">
                  <g id="Group_1262" data-name="Group 1262">
                    <path id="Path_1073" data-name="Path 1073" d="M-183.2,252.656a4.4,4.4,0,0,1-.148.752q-.192.8-.517,2.14-.177.7-.386,1.545c-.158.559-.37,1.155-.578,1.8-.438,1.285-.86,2.779-1.551,4.347q-.485,1.19-1.017,2.487c-.359.861-.823,1.718-1.254,2.627-.834,1.836-1.947,3.679-3.071,5.644a80.928,80.928,0,0,1-8.839,11.759,80.852,80.852,0,0,1-10.991,9.782c-1.865,1.283-3.612,2.544-5.371,3.527-.871.505-1.686,1.037-2.516,1.467l-2.394,1.219c-1.5.818-2.959,1.362-4.2,1.9-.628.26-1.2.521-1.748.725q-.82.28-1.508.512l-2.09.694a4.306,4.306,0,0,1-.737.208,4.46,4.46,0,0,1,.707-.3l2.055-.778,1.487-.55c.538-.217,1.107-.489,1.728-.76,1.23-.565,2.667-1.127,4.155-1.962l2.368-1.24c.82-.436,1.628-.974,2.488-1.484,1.741-.992,3.467-2.26,5.314-3.545a82.648,82.648,0,0,0,10.9-9.749,82.679,82.679,0,0,0,8.814-11.662c1.128-1.946,2.248-3.772,3.093-5.59.436-.9.906-1.747,1.273-2.6s.709-1.677,1.041-2.462c.709-1.551,1.151-3.031,1.613-4.3.219-.64.443-1.23.615-1.784q.232-.831.425-1.528.38-1.323.607-2.112A4.586,4.586,0,0,1-183.2,252.656Z" transform="translate(232.121 -252.656)" fill="#263238"/>
                  </g>
                </g>
              </g>
              <g id="Group_1267" data-name="Group 1267" transform="translate(56.272 17.909)">
                <g id="Group_1266" data-name="Group 1266">
                  <g id="Group_1265" data-name="Group 1265">
                    <path id="Path_1074" data-name="Path 1074" d="M-191.986,195.3a5.053,5.053,0,0,1-.115-1.123c-.041-.827-.092-1.851-.155-3.064-.13-2.7-.3-6.218-.489-10.109-.188-3.951-.315-7.531-.347-10.123-.018-1.3-.017-2.346,0-3.072a4.935,4.935,0,0,1,.077-1.126,5.03,5.03,0,0,1,.115,1.123c.041.826.092,1.85.155,3.064.13,2.7.3,6.217.49,10.11.186,3.949.314,7.529.346,10.122.018,1.3.018,2.346,0,3.072A4.932,4.932,0,0,1-191.986,195.3Z" transform="translate(193.105 -166.684)" fill="#263238"/>
                  </g>
                </g>
              </g>
            </g>
            <g id="Group_1286" data-name="Group 1286" transform="translate(23.706)">
              <g id="Group_1284" data-name="Group 1284">
                <g id="Group_1269" data-name="Group 1269" transform="translate(0 6.022)">
                  <path id="Path_1075" data-name="Path 1075" d="M-221.424,109.339a10.8,10.8,0,0,0-1.13,6.069c.147,1.36.523,2.863-.235,4a53.146,53.146,0,0,0-4.034,9.9c-2.722,11.948,1.971,14.247,3.242,15.013a3.55,3.55,0,0,0,2.22.727c1.4-.2,2.054-1.9,3.321-2.537,1.568-.782,3.391.306,5.14.418a4.641,4.641,0,0,0,3.532-1.335,4.64,4.64,0,0,0,1.329-3.533" transform="translate(227.658 -109.339)" fill="#263238"/>
                </g>
                <g id="Group_1281" data-name="Group 1281" transform="translate(5.249 3.886)">
                  <g id="Group_1280" data-name="Group 1280">
                    <g id="Group_1274" data-name="Group 1274">
                      <g id="Group_1271" data-name="Group 1271">
                        <g id="Group_1270" data-name="Group 1270">
                          <path id="Path_1076" data-name="Path 1076" d="M-216.813,149.239c.418-4.392.779-9.024.779-9.024s-5.565-1.5-6.011-8.992c-.424-7.149,2.335-23.29,2.335-23.29h0a21.315,21.315,0,0,1,23.062,7.729h0l-3.989,35.621a7.687,7.687,0,0,1-8.811,6.5h0A8.121,8.121,0,0,1-216.813,149.239Z" transform="translate(222.089 -107.073)" fill="#b78876"/>
                        </g>
                      </g>
                      <g id="Group_1273" data-name="Group 1273" transform="translate(5.983 31.476)">
                        <g id="Group_1272" data-name="Group 1272">
                          <path id="Path_1077" data-name="Path 1077" d="M-215.668,142.134a18.867,18.867,0,0,0,10.144-1.664s-2.9,4.835-10.217,3.417Z" transform="translate(215.741 -140.47)" fill="#a36957"/>
                        </g>
                      </g>
                    </g>
                    <g id="Group_1276" data-name="Group 1276" transform="translate(20.976 16.439)">
                      <g id="Group_1275" data-name="Group 1275">
                        <path id="Path_1078" data-name="Path 1078" d="M-198.88,124.538a4.43,4.43,0,0,1,2.361.386,3.089,3.089,0,0,1,1.583,1.749,3.223,3.223,0,0,1-.212,2.361,5.476,5.476,0,0,1-1.539,1.853,3.7,3.7,0,0,1-1.527.81,1.768,1.768,0,0,1-1.619-.417" transform="translate(199.833 -124.515)" fill="#ffbe9d"/>
                      </g>
                    </g>
                    <g id="Group_1279" data-name="Group 1279" transform="translate(21.878 17.588)">
                      <g id="Group_1278" data-name="Group 1278">
                        <g id="Group_1277" data-name="Group 1277">
                          <path id="Path_1079" data-name="Path 1079" d="M-198.86,129.436c-.093.02.2.532.943.408a1.564,1.564,0,0,0,.969-.691,3.549,3.549,0,0,0,.522-1.271,2.075,2.075,0,0,0-.2-1.422,1.38,1.38,0,0,0-.977-.714c-.741-.09-1.021.4-.939.425.054.066.368-.171.843-.006a1.336,1.336,0,0,1,.672,1.605c-.168.8-.553,1.517-1,1.659C-198.5,129.613-198.8,129.376-198.86,129.436Z" transform="translate(198.877 -125.734)" fill="#eb996e"/>
                        </g>
                      </g>
                    </g>
                  </g>
                </g>
                <g id="Group_1282" data-name="Group 1282" transform="translate(8.488)">
                  <path id="Path_1080" data-name="Path 1080" d="M-217.584,105.87c-.866,2.153-2.582,6.373,1.8,6.2,2.334-.09,4.419,1.3,6.72,1.706s4.867,1.776,5.024,4.106c.094,1.413,1.282,12.648,1.724,15.27.262,1.556.59,9.026,2.009,10.764,1.089,1.334,12.4,5.507,13.846,4.308s1.585-7.763,1.729-9.633a82.121,82.121,0,0,0-.321-12.942c-.291-1.843-1.287-8.184-2.364-10.512-1.22-2.635-5.951-5.378-7.691-7.369-1.591-1.82-3.185-3.615-5.6-3.763s-4.848.434-7.239.079c-1.309-.194-2.562-.665-3.858-.938a5.972,5.972,0,0,0-3.889.263,2.924,2.924,0,0,0-1.64,3.264" transform="translate(218.652 -102.95)" fill="#263238"/>
                </g>
                <g id="Group_1283" data-name="Group 1283" transform="translate(4.95 1.072)">
                  <path id="Path_1081" data-name="Path 1081" d="M-216.161,110.917a9.041,9.041,0,0,1-6.09,5.129,22.009,22.009,0,0,1,.034-5.472,8.65,8.65,0,0,1,2.349-4.856,5.437,5.437,0,0,1,5.035-1.481" transform="translate(222.406 -104.087)" fill="#263238"/>
                </g>
              </g>
              <g id="Group_1285" data-name="Group 1285" transform="translate(4.254 43.136)">
                <path id="Path_1082" data-name="Path 1082" d="M-223,149.412c-.615.107.129,20.627,13.568,21.4,12.72.731,13.759-20.24,13.759-20.24S-211.058,147.337-223,149.412Z" transform="translate(223.144 -148.717)" fill="#b78876"/>
              </g>
            </g>
          </g>
          <g id="Group_1288" data-name="Group 1288" transform="translate(80.369 288.631)">
            <rect id="Rectangle_802" data-name="Rectangle 802" width="9.147" height="3.274" transform="matrix(-0.965, 0.261, -0.261, -0.965, 38.14, 12.524)" fill="gray"/>
            <path id="Path_1083" data-name="Path 1083" d="M-209.223,417.537a.36.36,0,0,0,.078,0c9.732.381,19.15-3.812,19.15-3.812s4.6-2.9,7.891-4.571a69.608,69.608,0,0,1,9.926-3.47,3.9,3.9,0,0,0,.5-3.243,14.663,14.663,0,0,0-3.027-5.461s1.034,1.9-6.985,4.066-10.617-1.648-10.617-1.648-1.945,1.486-5.306,6.741S-203.853,412-203.853,412C-210.54,413.637-209.223,417.537-209.223,417.537Z" transform="translate(209.329 -396.979)" fill="#333"/>
            <path id="Path_1084" data-name="Path 1084" d="M-209.036,418.719c9.759.4,19.226-3.817,19.226-3.817s4.605-2.894,7.893-4.566a69.653,69.653,0,0,1,9.926-3.47c-.08-.331-.152-.538-.176-.651a69.611,69.611,0,0,0-9.926,3.47c-3.287,1.672-7.891,4.571-7.891,4.571s-9.417,4.193-19.15,3.812A2.56,2.56,0,0,0-209.036,418.719Z" transform="translate(209.317 -397.51)"/>
            <path id="Path_1085" data-name="Path 1085" d="M-208.9,419.235c9.758.4,19.226-3.817,19.226-3.817s4.605-2.894,7.892-4.567a69.608,69.608,0,0,1,9.926-3.469c-.08-.331-.152-.538-.176-.651a69.6,69.6,0,0,0-9.926,3.469c-3.287,1.673-7.891,4.572-7.891,4.572s-9.417,4.192-19.149,3.812A2.559,2.559,0,0,0-208.9,419.235Z" transform="translate(209.309 -397.54)" fill="gray"/>
            <path id="Path_1086" data-name="Path 1086" d="M-192.64,402.875s-.5.071-1.306-.853" transform="translate(208.444 -397.269)" fill="none" stroke="#000" stroke-miterlimit="10" stroke-width="0.959"/>
            <path id="Path_1087" data-name="Path 1087" d="M-193.7,404.3s-.5.071-1.307-.853" transform="translate(208.505 -397.351)" fill="none" stroke="#000" stroke-miterlimit="10" stroke-width="0.959"/>
            <path id="Path_1088" data-name="Path 1088" d="M-194.771,405.735s-.5.071-1.306-.853" transform="translate(208.567 -397.433)" fill="none" stroke="#000" stroke-miterlimit="10" stroke-width="0.959"/>
            <path id="Path_1089" data-name="Path 1089" d="M-195.837,407.165s-.5.071-1.306-.853" transform="translate(208.628 -397.516)" fill="none" stroke="#000" stroke-miterlimit="10" stroke-width="0.959"/>
            <path id="Path_1090" data-name="Path 1090" d="M-193.441,402.3a8.521,8.521,0,0,0,.334-3.763,1.724,1.724,0,0,0-.275-.7.7.7,0,0,0-.658-.293c-.379.077-.545.521-.6.9a4.866,4.866,0,0,0,1.165,3.843" transform="translate(208.486 -397.011)" fill="none" stroke="#000" stroke-miterlimit="10" stroke-width="0.959"/>
            <path id="Path_1091" data-name="Path 1091" d="M-193.336,402.437a8.524,8.524,0,0,1,2.27-3.018,1.733,1.733,0,0,1,.674-.336.694.694,0,0,1,.685.223c.229.31.056.751-.161,1.071a4.872,4.872,0,0,1-3.438,2.075" transform="translate(208.409 -397.099)" fill="none" stroke="#000" stroke-miterlimit="10" stroke-width="0.959"/>
            <path id="Path_1092" data-name="Path 1092" d="M-193.452,402.569a5.7,5.7,0,0,0,.64,2.685" transform="translate(208.416 -397.3)" fill="none" stroke="#000" stroke-miterlimit="10" stroke-width="0.959"/>
            <path id="Path_1093" data-name="Path 1093" d="M-195.429,403.712a13.741,13.741,0,0,0,2.091-1.186" transform="translate(208.529 -397.298)" fill="none" stroke="#000" stroke-miterlimit="10" stroke-width="0.959"/>
          </g>
          <g id="Group_1289" data-name="Group 1289" transform="translate(43.348 287.063)">
            <rect id="Rectangle_803" data-name="Rectangle 803" width="9.147" height="3.274" transform="translate(38.814 17.766) rotate(-180)" fill="gray"/>
            <path id="Path_1094" data-name="Path 1094" d="M-248.606,411.05a.461.461,0,0,0,.076.021c9.294,2.91,19.48,1.324,19.48,1.324s5.2-1.6,8.811-2.352a69.552,69.552,0,0,1,10.488-.756,3.9,3.9,0,0,0,1.329-3,14.666,14.666,0,0,0-1.5-6.062s.5,2.1-7.8,2.1-9.818-4.365-9.818-4.365-2.266.926-6.883,5.121-7.552,4.027-7.552,4.027C-248.858,406.942-248.606,411.05-248.606,411.05Z" transform="translate(248.607 -395.468)" fill="#333"/>
            <path id="Path_1095" data-name="Path 1095" d="M-248.606,412.416c9.315,2.935,19.556,1.339,19.556,1.339s5.2-1.591,8.811-2.346a69.549,69.549,0,0,1,10.488-.756c.008-.34-.007-.559,0-.675a69.549,69.549,0,0,0-10.488.756c-3.61.755-8.811,2.352-8.811,2.352s-10.186,1.585-19.48-1.324A2.541,2.541,0,0,0-248.606,412.416Z" transform="translate(248.607 -396.159)"/>
            <path id="Path_1096" data-name="Path 1096" d="M-248.606,412.95c9.315,2.936,19.556,1.339,19.556,1.339s5.2-1.591,8.811-2.346a69.635,69.635,0,0,1,10.488-.755c.008-.341-.007-.56,0-.675a69.632,69.632,0,0,0-10.488.755c-3.61.755-8.811,2.352-8.811,2.352s-10.186,1.586-19.48-1.324A2.54,2.54,0,0,0-248.606,412.95Z" transform="translate(248.607 -396.19)" fill="gray"/>
            <path id="Path_1097" data-name="Path 1097" d="M-228.445,400.818s-.5-.063-1.038-1.165" transform="translate(247.508 -395.565)" fill="none" stroke="#000" stroke-miterlimit="10" stroke-width="0.959"/>
            <path id="Path_1098" data-name="Path 1098" d="M-229.847,401.919s-.5-.062-1.039-1.164" transform="translate(247.588 -395.629)" fill="none" stroke="#000" stroke-miterlimit="10" stroke-width="0.959"/>
            <path id="Path_1099" data-name="Path 1099" d="M-231.249,403.021s-.5-.063-1.039-1.164" transform="translate(247.669 -395.692)" fill="none" stroke="#000" stroke-miterlimit="10" stroke-width="0.959"/>
            <path id="Path_1100" data-name="Path 1100" d="M-232.652,404.123s-.5-.063-1.038-1.164" transform="translate(247.75 -395.755)" fill="none" stroke="#000" stroke-miterlimit="10" stroke-width="0.959"/>
            <path id="Path_1101" data-name="Path 1101" d="M-229.1,400.064a8.509,8.509,0,0,0,1.305-3.545,1.728,1.728,0,0,0-.082-.748.7.7,0,0,0-.559-.454c-.385-.025-.662.361-.812.716a4.871,4.871,0,0,0,.12,4.014" transform="translate(247.516 -395.316)" fill="none" stroke="#000" stroke-miterlimit="10" stroke-width="0.959"/>
            <path id="Path_1102" data-name="Path 1102" d="M-229.057,400.261a8.526,8.526,0,0,1,2.98-2.32,1.74,1.74,0,0,1,.739-.149.7.7,0,0,1,.6.395c.14.359-.142.74-.435.992a4.871,4.871,0,0,1-3.861,1.1" transform="translate(247.483 -395.458)" fill="none" stroke="#000" stroke-miterlimit="10" stroke-width="0.959"/>
            <path id="Path_1103" data-name="Path 1103" d="M-229.164,400.31a5.708,5.708,0,0,0-.084,2.759" transform="translate(247.503 -395.603)" fill="none" stroke="#000" stroke-miterlimit="10" stroke-width="0.959"/>
            <path id="Path_1104" data-name="Path 1104" d="M-231.375,400.93a13.71,13.71,0,0,0,2.328-.6" transform="translate(247.616 -395.604)" fill="none" stroke="#000" stroke-miterlimit="10" stroke-width="0.959"/>
          </g>
          <g id="Group_1291" data-name="Group 1291" transform="translate(49.669 87.727)">
            <g id="Group_1290" data-name="Group 1290">
              <path id="Path_1105" data-name="Path 1105" d="M-174.913,183.82c-.463,7.216.618,10.508-1.688,21.678-4.277,20.721-51.221,12.357-51.221,12.357h0c-3.634.12-6.136-.139-8.512.068-2.928.256-4.154.156-4.166-.395-.017-.736-.043-.452,5.213-1.675,0,0-7.518,1.68-6.176.035.595-.728,6.827-2.185,6.827-2.185-4.9,1.631-7,1.47-7.21.716-.3-1.093,7.279-2.8,7.279-2.8a58.331,58.331,0,0,1-6.84,1.354c-1.084-.066-.188-1.025.779-1.61,1.086-.655,7.936-3.555,9.869-4.5a1.267,1.267,0,0,0,.7-1.8c-1.86-2.505-1.971-5.45-1.626-6.262a.954.954,0,0,1,1.783.343,11.655,11.655,0,0,0,1.376,2.844,7.464,7.464,0,0,0,1.654,1.9c.762.617,1.431,1.111,2.01,1.516,4.838.457,18.586,1.458,30.084-2.893,4.226-1.6,3.284-18.483,3.284-18.483Z" transform="translate(241.901 -183.82)" fill="#b78876"/>
            </g>
          </g>
        </g>
      </g>
      <path id="Path_1106" data-name="Path 1106" d="M4787.663,943.9l-1.348-12.252c-.856-7.771-6.177-14.244-11.793-13.626l-3.478.383c-5.617.618-9.478,7.419-8.624,15.189l1.382,12.556c.894,8.119,6.556,14.009,12.356,12.852l3.445-.687C4784.909,957.253,4788.479,951.322,4787.663,943.9Z" transform="translate(-4762.301 -917.976)" fill="#38c800"/>
      <path id="Path_1107" data-name="Path 1107" d="M277.462,264.531s.934-19.468-2.052-15.344-3.776,11.618-3.776,11.618Z" transform="translate(-255.21 -219.044)" fill="#b88874"/>
    </g>
  </g>
</svg>
