<svg xmlns="http://www.w3.org/2000/svg" width="461.029" height="446.611" viewBox="0 0 461.029 446.611">
  <g id="Group_1295" data-name="Group 1295" transform="translate(-778.074 -231.21)">
    <g id="Group_701" data-name="Group 701" transform="translate(897.469 316.396)" opacity="0.337">
      <g id="Ellipse_60" data-name="Ellipse 60" transform="translate(-0.395 36.924)" fill="#fff" stroke="#95b0c6" stroke-width="1">
        <circle cx="147" cy="147" r="147" stroke="none"/>
        <circle cx="147" cy="147" r="146.5" fill="none"/>
      </g>
      <line id="Line_3" data-name="Line 3" x2="23.449" y2="30.149" transform="translate(34.057 37.965)" fill="none" stroke="#94b0c7" stroke-width="1"/>
      <line id="Line_4" data-name="Line 4" y2="37.965" transform="translate(156.884)" fill="none" stroke="#94b0c7" stroke-width="1"/>
      <line id="Line_5" data-name="Line 5" x1="31.265" y2="34.615" transform="translate(245.097 41.315)" fill="none" stroke="#94b0c7" stroke-width="1"/>
    </g>
    <circle id="Ellipse_56" data-name="Ellipse 56" cx="42.35" cy="42.35" r="42.35" transform="translate(862.401 280.132)" fill="#f7f8f9"/>
    <circle id="Ellipse_57" data-name="Ellipse 57" cx="42.35" cy="42.35" r="42.35" transform="translate(1011.892 231.21)" fill="#f7f8f9"/>
    <circle id="Ellipse_58" data-name="Ellipse 58" cx="42.35" cy="42.35" r="42.35" transform="translate(1154.403 281.057)" fill="#f7f8f9"/>
    <g id="Group_695" data-name="Group 695" transform="translate(884.533 301.607)">
      <path id="Path_664" data-name="Path 664" d="M-2119.648,657.827h1.981v1.981h1.98v1.98h-9.9v-1.98h1.979v-3.961h3.961v1.98Zm25.732,17.811h1.977v-1.98h-1.977Zm-23.752-17.811h1.98v-1.98h-1.98Zm27.705,17.811h1.981v-1.98h-1.981Zm-23.745,1.979h3.957v-1.98h-3.957Zm17.81,0v-1.98h-1.981v1.98Zm-7.916,0h1.98v-3.959h-1.98Zm-15.834-25.728v1.98h5.938v-1.98Zm-1.977,1.978v-1.98h-3.96v3.959h1.979v-1.98Zm5.937-3.959h-13.854V636.055h13.854Zm-1.98-11.873h-9.9v9.894h9.9Zm-7.917,35.623h5.936v-5.938h-5.936Zm19.791-1.981v1.981h1.982v-1.981Zm-13.854-31.663h-5.936v5.935h5.936Zm31.665-3.959v13.854h-13.854V636.055Zm-1.98,1.98h-9.894v9.894h9.894Zm-39.583,25.725h13.855v13.854h-13.855Zm1.981,11.878h9.9v-9.9h-9.9Zm0-23.749h-1.981v9.9h1.981Zm25.727,9.894v1.977h1.98v-1.977Zm-5.937,7.917v-1.98h-1.979V669.7h-3.956v3.961h3.956v1.98h1.979v-3.961h1.981V669.7h-1.981Zm-5.934-25.728h3.957V641.99h-3.957Zm15.831,15.833h3.963v1.98h1.978v-5.936h-1.978v-3.961h-1.983v5.938h-5.933v1.981h1.979v1.98h1.98v-1.98h-.006Zm1.98,5.935h-1.981V663.76h-1.98v3.961h-5.936V669.7h3.962v3.961h1.98v1.98h1.98v-3.961h7.915V669.7h-5.937v-3.961Zm0,0h1.983v-3.958h-1.983Zm-15.833,0V663.76h1.977v-1.977h1.978V659.8h1.981v-3.961h5.936v-3.961h-1.979v1.98h-1.98v-7.916h-1.98v-3.961h1.98v-5.931h-1.98v3.959h-1.98v-3.959h-5.936v3.959h1.979v-1.98h1.977v3.957h1.98v5.938h1.98v1.98h-1.98v3.959h-1.98v-3.959h-1.977v-1.978h-1.979v3.959h1.979v1.98h-1.979v5.939h1.979v-3.961h1.977v3.961h-1.977v1.98h-1.979v5.934h3.957v-1.98Zm21.768,1.98v-1.98h-3.956v1.98Zm-1.98-27.706h-5.935v5.935h5.935Zm-15.832,25.726h3.962V663.76h-1.982v-1.977h-1.981v3.958Zm3.96-3.958V659.8h-1.982v1.98Zm11.871-7.916h3.961v-1.98h-3.961Zm1.98,15.833h1.981v-1.98h-1.981Zm0-11.874h1.981v-1.98h-1.981Zm-17.811-9.9h-1.979v1.98h1.979Z" transform="translate(2129.545 -636.054)" fill="#bbe0fc"/>
    </g>
    <g id="Group_698" data-name="Group 698" transform="translate(1176.529 303.208)">
      <g id="Group_697" data-name="Group 697" transform="translate(0 0)">
        <g id="Group_696" data-name="Group 696">
          <path id="Path_665" data-name="Path 665" d="M-738.207,717.761H-773.4a3.523,3.523,0,0,0-3.519,3.519v35.193a3.523,3.523,0,0,0,3.519,3.519h35.193a3.523,3.523,0,0,0,3.519-3.519V721.28A3.524,3.524,0,0,0-738.207,717.761Zm2.112,38.713a2.111,2.111,0,0,1-2.112,2.111H-773.4a2.111,2.111,0,0,1-2.112-2.111V724.8H-736.1v31.674Zm0-33.082h-39.416V721.28a2.111,2.111,0,0,1,2.112-2.112h35.193a2.112,2.112,0,0,1,2.112,2.112v2.111Z" transform="translate(776.92 -717.761)" fill="#bbe0fc"/>
          <path id="Path_666" data-name="Path 666" d="M-758.826,731.11h-.7a.7.7,0,0,0-.7.7.7.7,0,0,0,.7.7h.7a.7.7,0,0,0,.7-.7A.7.7,0,0,0-758.826,731.11Z" transform="translate(763.753 -728.294)" fill="#bbe0fc"/>
          <path id="Path_667" data-name="Path 667" d="M-742.577,731.16a.645.645,0,0,0-.535,0,.809.809,0,0,0-.233.148.714.714,0,0,0,0,1,.81.81,0,0,0,.233.148.664.664,0,0,0,.535,0,.817.817,0,0,0,.232-.148.714.714,0,0,0,0-1A.816.816,0,0,0-742.577,731.16Z" transform="translate(750.587 -728.288)" fill="#bbe0fc"/>
          <path id="Path_668" data-name="Path 668" d="M-729.226,731.144a.7.7,0,0,0-.77.155.8.8,0,0,0-.148.232.663.663,0,0,0,0,.535.806.806,0,0,0,.148.232.713.713,0,0,0,1,0,.809.809,0,0,0,.148-.232.592.592,0,0,0,.056-.267A.7.7,0,0,0-729.226,731.144Z" transform="translate(740.054 -728.279)" fill="#bbe0fc"/>
          <path id="Path_669" data-name="Path 669" d="M-688.879,731.11H-712.81a.7.7,0,0,0-.7.7.7.7,0,0,0,.7.7h23.931a.7.7,0,0,0,.7-.7A.7.7,0,0,0-688.879,731.11Z" transform="translate(726.888 -728.294)" fill="#bbe0fc"/>
          <path id="Path_670" data-name="Path 670" d="M-739.77,788.15a.648.648,0,0,0,.1.078,14.014,14.014,0,0,0,10.212,4.412,14.013,14.013,0,0,0,10.21-4.419.679.679,0,0,0,.1-.07.7.7,0,0,0,.06-.1,13.992,13.992,0,0,0,0-18.968l0,0a.656.656,0,0,0-.06-.1.624.624,0,0,0-.1-.079,14.013,14.013,0,0,0-10.206-4.411,14.014,14.014,0,0,0-10.206,4.411.633.633,0,0,0-.1.079.661.661,0,0,0-.06.1,13.992,13.992,0,0,0,0,18.968A.682.682,0,0,0-739.77,788.15Zm14.149,2.483a12.933,12.933,0,0,0,2.4-4.434v0a12.89,12.89,0,0,1,2.487,1.53A12.671,12.671,0,0,1-725.62,790.632Zm5.855-3.929a14.273,14.273,0,0,0-3.059-1.876,25.1,25.1,0,0,0,.737-5.56h5.262A12.6,12.6,0,0,1-719.766,786.7Zm2.94-8.844h-5.262a25.1,25.1,0,0,0-.737-5.561,14.26,14.26,0,0,0,3.059-1.874A12.6,12.6,0,0,1-716.826,777.859Zm-3.911-8.461a12.885,12.885,0,0,1-2.487,1.53,12.937,12.937,0,0,0-2.4-4.437A12.673,12.673,0,0,1-720.737,769.4Zm-8.019-3.406c1.725.452,3.251,2.526,4.213,5.463a14.958,14.958,0,0,1-4.213.8Zm0,7.673a16.279,16.279,0,0,0,4.6-.844,23.832,23.832,0,0,1,.661,5.039h-5.262Zm0,5.6h5.262a23.825,23.825,0,0,1-.661,5.037,16.281,16.281,0,0,0-4.6-.843Zm0,5.6a14.954,14.954,0,0,1,4.213.8c-.962,2.937-2.488,5.011-4.213,5.463Zm-9.427,2.854A12.888,12.888,0,0,1-735.7,786.2v0a12.931,12.931,0,0,0,2.4,4.434A12.669,12.669,0,0,1-738.183,787.724Zm8.019,3.41c-1.725-.452-3.251-2.526-4.213-5.463a14.96,14.96,0,0,1,4.213-.8v6.265Zm0-7.673a16.282,16.282,0,0,0-4.6.845,23.805,23.805,0,0,1-.661-5.039h5.261Zm0-5.6h-5.261a23.81,23.81,0,0,1,.661-5.037,16.278,16.278,0,0,0,4.6.843Zm0-11.868v6.265a14.951,14.951,0,0,1-4.213-.8C-733.415,768.517-731.889,766.443-730.164,765.991Zm-3.136.5a12.934,12.934,0,0,0-2.4,4.438v0a12.871,12.871,0,0,1-2.487-1.53A12.671,12.671,0,0,1-733.3,766.49Zm-5.855,3.933A14.276,14.276,0,0,0-736.1,772.3a25.094,25.094,0,0,0-.737,5.561h-5.262A12.6,12.6,0,0,1-739.154,770.423Zm2.322,8.844a25.1,25.1,0,0,0,.737,5.56,14.274,14.274,0,0,0-3.059,1.874,12.6,12.6,0,0,1-2.939-7.435h5.262Z" transform="translate(750.576 -754.632)" fill="#bbe0fc"/>
        </g>
      </g>
    </g>
    <g id="Group_700" data-name="Group 700" transform="translate(1035.608 259.584)">
      <g id="Group_699" data-name="Group 699" transform="translate(0)">
        <path id="Path_671" data-name="Path 671" d="M-1361.733,547.993h-32.422a3.245,3.245,0,0,0-3.242,3.242v22.7a3.245,3.245,0,0,0,3.242,3.242h32.422a3.245,3.245,0,0,0,3.242-3.242v-22.7A3.245,3.245,0,0,0-1361.733,547.993Zm-32.422,1.621h32.422a1.553,1.553,0,0,1,.337.068c-2.807,2.569-12.115,11.084-15.371,14.018a1.8,1.8,0,0,1-1.177.5,1.8,1.8,0,0,1-1.177-.5c-3.257-2.934-12.565-11.449-15.371-14.017A1.55,1.55,0,0,1-1394.155,549.614Zm-1.621,24.316v-22.7a1.563,1.563,0,0,1,.091-.448c2.148,1.966,8.643,7.907,12.854,11.737-4.2,3.605-10.693,9.764-12.859,11.829A1.559,1.559,0,0,1-1395.776,573.93Zm34.043,1.621h-32.422a1.549,1.549,0,0,1-.365-.074c2.238-2.133,8.775-8.327,12.9-11.855.538.488,1.029.932,1.416,1.281a3.358,3.358,0,0,0,2.262.922,3.356,3.356,0,0,0,2.261-.921c.387-.349.879-.794,1.417-1.282,4.124,3.527,10.66,9.721,12.9,11.855A1.552,1.552,0,0,1-1361.733,575.552Zm1.621-1.621a1.559,1.559,0,0,1-.086.423c-2.167-2.066-8.661-8.224-12.859-11.829,4.211-3.829,10.7-9.77,12.854-11.737a1.575,1.575,0,0,1,.091.448Z" transform="translate(1397.397 -547.993)" fill="#bbe0fc"/>
      </g>
    </g>
    <g id="Group_693" data-name="Group 693" transform="translate(917.881 386.989)">
      <path id="Path_611" data-name="Path 611" d="M-1738.5,1090.224l250.743,67.187V1000.7l-14.66-3.928L-1738.5,933.51Z" transform="translate(1738.501 -923.771)" fill="#f3faff"/>
      <g id="Group_691" data-name="Group 691" transform="translate(33.326)">
        <g id="Group_675" data-name="Group 675">
          <g id="Group_673" data-name="Group 673" transform="translate(0 27.091)">
            <path id="Path_612" data-name="Path 612" d="M-1577.281,1022.722a4.322,4.322,0,0,1-3.2-4.366,2.943,2.943,0,0,1,3.916-2.444,4.323,4.323,0,0,1,3.2,4.366A2.943,2.943,0,0,1-1577.281,1022.722Zm.612-5.818a2.085,2.085,0,0,0-2.776,1.732,3.063,3.063,0,0,0,2.268,3.094A2.085,2.085,0,0,0-1574.4,1020,3.063,3.063,0,0,0-1576.669,1016.9Z" transform="translate(1580.499 -1015.78)" fill="#d6d6d6"/>
          </g>
          <g id="Group_674" data-name="Group 674" transform="translate(1.465)">
            <path id="Path_613" data-name="Path 613" d="M-1571.566,918.668c-.818-.221-1.686-1.066-1.927-5.656a72.579,72.579,0,0,1,.413-10.836,67.905,67.905,0,0,1,1.826-10.455c1.166-4.211,2.159-4.553,2.977-4.332s1.686,1.066,1.927,5.656a72.6,72.6,0,0,1-.413,10.836c-.141,1.346-.31,2.672-.5,3.941l-1.547-.482c.188-1.249.354-2.555.494-3.88a74.339,74.339,0,0,0,.436-9.946,15.448,15.448,0,0,0-.577-4.4,12.147,12.147,0,0,0-1.445,3.854,70,70,0,0,0-1.622,9.626,74.356,74.356,0,0,0-.436,9.946,13.741,13.741,0,0,0,.638,4.555l1.183.991A1.316,1.316,0,0,1-1571.566,918.668Z" transform="translate(1573.554 -887.338)" fill="#a0a0a0"/>
          </g>
        </g>
        <g id="Group_678" data-name="Group 678" transform="translate(35.08 9.476)">
          <g id="Group_676" data-name="Group 676" transform="translate(0 27.091)">
            <path id="Path_614" data-name="Path 614" d="M-1410.964,1067.648a4.322,4.322,0,0,1-3.2-4.366,2.943,2.943,0,0,1,3.916-2.443,4.322,4.322,0,0,1,3.2,4.366A2.942,2.942,0,0,1-1410.964,1067.648Zm.612-5.818a2.085,2.085,0,0,0-2.775,1.732,3.062,3.062,0,0,0,2.268,3.094,2.085,2.085,0,0,0,2.775-1.732A3.063,3.063,0,0,0-1410.352,1061.831Z" transform="translate(1414.182 -1060.706)" fill="#d6d6d6"/>
          </g>
          <g id="Group_677" data-name="Group 677" transform="translate(1.465)">
            <path id="Path_615" data-name="Path 615" d="M-1405.249,963.594c-.818-.221-1.686-1.066-1.927-5.657a72.579,72.579,0,0,1,.413-10.836,67.9,67.9,0,0,1,1.826-10.454c1.166-4.211,2.159-4.553,2.977-4.332s1.686,1.066,1.926,5.656a72.534,72.534,0,0,1-.413,10.836c-.141,1.345-.31,2.671-.5,3.941l-1.547-.482c.188-1.25.354-2.555.493-3.88a74.38,74.38,0,0,0,.436-9.946,15.438,15.438,0,0,0-.577-4.4,12.164,12.164,0,0,0-1.445,3.854,70.053,70.053,0,0,0-1.622,9.626,74.445,74.445,0,0,0-.436,9.946,13.731,13.731,0,0,0,.638,4.554l1.183.991A1.316,1.316,0,0,1-1405.249,963.594Z" transform="translate(1407.237 -932.264)" fill="#a0a0a0"/>
          </g>
        </g>
        <g id="Group_681" data-name="Group 681" transform="translate(70.159 18.952)">
          <g id="Group_679" data-name="Group 679" transform="translate(0 27.091)">
            <path id="Path_616" data-name="Path 616" d="M-1244.648,1112.574a4.322,4.322,0,0,1-3.2-4.366,2.942,2.942,0,0,1,3.916-2.443,4.322,4.322,0,0,1,3.2,4.366A2.942,2.942,0,0,1-1244.648,1112.574Zm.612-5.818a2.086,2.086,0,0,0-2.776,1.732,3.063,3.063,0,0,0,2.268,3.094,2.085,2.085,0,0,0,2.775-1.732A3.063,3.063,0,0,0-1244.036,1106.757Z" transform="translate(1247.866 -1105.632)" fill="#d6d6d6"/>
          </g>
          <g id="Group_680" data-name="Group 680" transform="translate(1.465)">
            <path id="Path_617" data-name="Path 617" d="M-1238.933,1008.52c-.818-.221-1.686-1.066-1.927-5.657a72.583,72.583,0,0,1,.413-10.836,67.872,67.872,0,0,1,1.826-10.454c1.167-4.211,2.159-4.553,2.977-4.332s1.686,1.066,1.927,5.656a72.615,72.615,0,0,1-.413,10.836c-.141,1.346-.31,2.672-.5,3.941l-1.547-.482c.188-1.248.354-2.554.494-3.879a74.38,74.38,0,0,0,.436-9.946,15.445,15.445,0,0,0-.577-4.4,12.161,12.161,0,0,0-1.444,3.854,69.95,69.95,0,0,0-1.622,9.626,74.381,74.381,0,0,0-.436,9.946,13.73,13.73,0,0,0,.638,4.554l1.183.991A1.317,1.317,0,0,1-1238.933,1008.52Z" transform="translate(1240.921 -977.19)" fill="#a0a0a0"/>
          </g>
        </g>
        <g id="Group_684" data-name="Group 684" transform="translate(105.239 28.427)">
          <g id="Group_682" data-name="Group 682" transform="translate(0 27.091)">
            <path id="Path_618" data-name="Path 618" d="M-1078.331,1157.5a4.322,4.322,0,0,1-3.2-4.366,2.942,2.942,0,0,1,3.916-2.443,4.322,4.322,0,0,1,3.2,4.366A2.942,2.942,0,0,1-1078.331,1157.5Zm.612-5.818a2.085,2.085,0,0,0-2.775,1.732,3.063,3.063,0,0,0,2.268,3.094,2.085,2.085,0,0,0,2.776-1.732A3.063,3.063,0,0,0-1077.719,1151.682Z" transform="translate(1081.549 -1150.557)" fill="#d6d6d6"/>
          </g>
          <g id="Group_683" data-name="Group 683" transform="translate(1.465)">
            <path id="Path_619" data-name="Path 619" d="M-1072.615,1053.446c-.818-.221-1.686-1.066-1.927-5.656a72.55,72.55,0,0,1,.413-10.836,67.9,67.9,0,0,1,1.826-10.454c1.166-4.211,2.159-4.553,2.977-4.332s1.686,1.066,1.927,5.656a72.63,72.63,0,0,1-.413,10.836c-.142,1.345-.31,2.671-.5,3.941l-1.547-.482c.188-1.25.354-2.555.493-3.88a74.383,74.383,0,0,0,.436-9.946,15.466,15.466,0,0,0-.577-4.4,12.162,12.162,0,0,0-1.445,3.855,69.98,69.98,0,0,0-1.622,9.626,74.321,74.321,0,0,0-.436,9.946,13.732,13.732,0,0,0,.638,4.555l1.183.991A1.316,1.316,0,0,1-1072.615,1053.446Z" transform="translate(1074.603 -1022.116)" fill="#a0a0a0"/>
          </g>
        </g>
        <g id="Group_687" data-name="Group 687" transform="translate(140.318 37.903)">
          <g id="Group_685" data-name="Group 685" transform="translate(0 27.091)">
            <path id="Path_620" data-name="Path 620" d="M-912.014,1202.426a4.322,4.322,0,0,1-3.2-4.366,2.943,2.943,0,0,1,3.916-2.443,4.322,4.322,0,0,1,3.2,4.366A2.942,2.942,0,0,1-912.014,1202.426Zm.612-5.818a2.085,2.085,0,0,0-2.775,1.732,3.063,3.063,0,0,0,2.268,3.094,2.085,2.085,0,0,0,2.775-1.732A3.063,3.063,0,0,0-911.4,1196.609Z" transform="translate(915.232 -1195.484)" fill="#d6d6d6"/>
          </g>
          <g id="Group_686" data-name="Group 686" transform="translate(1.465)">
            <path id="Path_621" data-name="Path 621" d="M-906.3,1098.371c-.818-.221-1.686-1.065-1.927-5.656a72.593,72.593,0,0,1,.413-10.836,67.906,67.906,0,0,1,1.826-10.454c1.166-4.211,2.159-4.553,2.977-4.332s1.686,1.066,1.927,5.656a72.556,72.556,0,0,1-.413,10.836c-.141,1.345-.31,2.671-.5,3.941l-1.547-.482c.188-1.25.354-2.555.493-3.88a74.356,74.356,0,0,0,.436-9.946,15.445,15.445,0,0,0-.577-4.4,12.156,12.156,0,0,0-1.445,3.854,70,70,0,0,0-1.622,9.626,74.372,74.372,0,0,0-.436,9.946,13.727,13.727,0,0,0,.638,4.554l1.183.991A1.316,1.316,0,0,1-906.3,1098.371Z" transform="translate(908.287 -1067.042)" fill="#a0a0a0"/>
          </g>
        </g>
        <g id="Group_690" data-name="Group 690" transform="translate(175.398 47.379)">
          <g id="Group_688" data-name="Group 688" transform="translate(0 27.091)">
            <path id="Path_622" data-name="Path 622" d="M-745.7,1247.352a4.322,4.322,0,0,1-3.2-4.366,2.942,2.942,0,0,1,3.916-2.443,4.322,4.322,0,0,1,3.2,4.366A2.942,2.942,0,0,1-745.7,1247.352Zm.612-5.818a2.086,2.086,0,0,0-2.776,1.732,3.063,3.063,0,0,0,2.268,3.094,2.085,2.085,0,0,0,2.775-1.732A3.064,3.064,0,0,0-745.086,1241.534Z" transform="translate(748.916 -1240.409)" fill="#d6d6d6"/>
          </g>
          <g id="Group_689" data-name="Group 689" transform="translate(1.465)">
            <path id="Path_623" data-name="Path 623" d="M-739.983,1143.3c-.818-.221-1.686-1.066-1.927-5.656a72.584,72.584,0,0,1,.413-10.836,67.894,67.894,0,0,1,1.826-10.454c1.166-4.211,2.159-4.553,2.977-4.332s1.686,1.066,1.927,5.656a72.6,72.6,0,0,1-.413,10.836c-.142,1.346-.31,2.672-.5,3.942l-1.547-.482c.188-1.249.354-2.554.493-3.879a74.351,74.351,0,0,0,.436-9.946,15.45,15.45,0,0,0-.577-4.4,12.162,12.162,0,0,0-1.445,3.855,70,70,0,0,0-1.622,9.626,74.362,74.362,0,0,0-.436,9.946,13.729,13.729,0,0,0,.638,4.555l1.183.991A1.317,1.317,0,0,1-739.983,1143.3Z" transform="translate(741.971 -1111.968)" fill="#a0a0a0"/>
          </g>
        </g>
      </g>
      <g id="Group_692" data-name="Group 692" transform="translate(15.546 37.203)">
        <path id="Path_624" data-name="Path 624" d="M-725.962,1385.429l-.127,7.487c-.089,5.234-4.64,8.258-10.165,6.755l-2.748-.748c-5.525-1.5-9.932-6.965-9.843-12.2l.13-7.652c.093-5.469,5.039-8.477,10.8-6.564l2.745.912C-729.911,1375.17-725.877,1380.427-725.962,1385.429Z" transform="translate(942.038 -1306.924)" fill="#e4ecf2"/>
        <path id="Path_625" data-name="Path 625" d="M-876.35,1345.979l-.1,6.124c-.1,5.622-4.984,8.871-10.919,7.256l-1.263-.344c-5.935-1.615-10.669-7.482-10.573-13.1l.105-6.2c.1-5.875,5.413-9.106,11.6-7.051l1.262.419C-880.591,1334.958-876.259,1340.606-876.35,1345.979Z" transform="translate(1060.687 -1275.447)" fill="#e4ecf2"/>
        <path id="Path_626" data-name="Path 626" d="M-1049.574,1297.552l-.136,8.016c-.086,5.084,4.194,10.388,9.56,11.849l3.323.9c5.366,1.46,9.786-1.477,9.873-6.561l.139-8.214c.09-5.312-4.571-10.809-10.173-12l-3.326-.705C-1045.437,1289.757-1049.491,1292.694-1049.574,1297.552Z" transform="translate(1179.444 -1242.761)" fill="#d9f1de"/>
        <path id="Path_627" data-name="Path 627" d="M-1208.366,1258.59l.136-8.016c.086-5.083,4.507-8.021,9.873-6.56l3.323.9c5.366,1.46,9.647,6.765,9.56,11.848l-.139,8.214c-.09,5.312-4.895,8.233-10.485,6.376l-3.319-1.1C-1204.531,1268.555-1208.448,1263.449-1208.366,1258.59Z" transform="translate(1304.636 -1205.692)" fill="#e4ecf2"/>
        <path id="Path_628" data-name="Path 628" d="M-1658.592,1136.08l.136-8.016c.086-5.083,4.506-8.021,9.873-6.56l3.323.9c5.366,1.46,9.646,6.765,9.56,11.848l-.14,8.214c-.09,5.312-4.894,8.233-10.485,6.376l-3.32-1.1C-1654.757,1146.045-1658.674,1140.939-1658.592,1136.08Z" transform="translate(1659.901 -1109.021)" fill="#e4ecf2"/>
        <path id="Path_629" data-name="Path 629" d="M-1359.753,1213.15l-.136,8.015c-.086,5.083,4.194,10.388,9.56,11.848l3.323.9c5.366,1.46,9.787-1.477,9.873-6.56l.14-8.215c.09-5.312-4.571-10.809-10.173-12l-3.326-.705C-1355.616,1205.354-1359.67,1208.292-1359.753,1213.15Z" transform="translate(1424.2 -1176.161)" fill="#e4ecf2"/>
        <path id="Path_630" data-name="Path 630" d="M-1509.137,1172.5l-.136,8.016c-.086,5.083,4.194,10.388,9.56,11.848l3.323.9c5.366,1.46,9.787-1.477,9.873-6.561l.139-8.214c.09-5.312-4.571-10.809-10.173-12l-3.326-.705C-1505,1164.706-1509.054,1167.643-1509.137,1172.5Z" transform="translate(1542.076 -1144.086)" fill="#d9f1de"/>
        <path id="Path_631" data-name="Path 631" d="M-729.043,1565.55l-.136,8.015c-.086,5.084-4.507,8.021-9.873,6.561l-3.323-.9c-5.366-1.46-9.647-6.765-9.56-11.849l.139-8.214c.09-5.312,4.894-8.233,10.485-6.375l3.32,1.1C-732.878,1555.585-728.96,1560.691-729.043,1565.55Z" transform="translate(944.476 -1449.188)" fill="#e4ecf2"/>
        <path id="Path_632" data-name="Path 632" d="M-879.463,1524.619l-.136,8.015c-.086,5.084-4.506,8.021-9.873,6.561l-3.323-.9c-5.366-1.46-9.646-6.765-9.56-11.849l.139-8.214c.09-5.312,4.894-8.233,10.485-6.376l3.319,1.1C-883.3,1514.654-879.381,1519.761-879.463,1524.619Z" transform="translate(1063.17 -1416.891)" fill="#e4ecf2"/>
        <path id="Path_633" data-name="Path 633" d="M-1052.641,1478.245l-.136,8.015c-.086,5.084,4.194,10.388,9.56,11.849l3.323.9c5.366,1.46,9.786-1.477,9.873-6.561l.139-8.214c.09-5.311-4.571-10.809-10.173-12l-3.326-.706C-1048.5,1470.449-1052.558,1473.387-1052.641,1478.245Z" transform="translate(1181.864 -1385.342)" fill="#e4ecf2"/>
        <path id="Path_634" data-name="Path 634" d="M-1661.659,1316.774l.136-8.015c.086-5.083,4.506-8.021,9.873-6.561l3.323.9c5.367,1.46,9.647,6.765,9.56,11.849l-.139,8.214c-.09,5.312-4.895,8.233-10.485,6.376l-3.32-1.1C-1657.824,1326.739-1661.741,1321.632-1661.659,1316.774Z" transform="translate(1662.321 -1251.603)" fill="#e4ecf2"/>
        <path id="Path_635" data-name="Path 635" d="M-1362.82,1393.843l-.136,8.016c-.086,5.083,4.194,10.388,9.56,11.848l3.323.9c5.366,1.46,9.786-1.477,9.873-6.561l.14-8.214c.09-5.312-4.571-10.809-10.173-12l-3.326-.706C-1358.683,1386.047-1362.737,1388.985-1362.82,1393.843Z" transform="translate(1426.62 -1318.742)" fill="#e4ecf2"/>
        <path id="Path_675" data-name="Path 675" d="M-1362.82,1393.843l-.136,8.016c-.086,5.083,4.194,10.388,9.56,11.848l3.323.9c5.366,1.46,9.786-1.477,9.873-6.561l.14-8.214c.09-5.312-4.571-10.809-10.173-12l-3.326-.706C-1358.683,1386.047-1362.737,1388.985-1362.82,1393.843Z" transform="translate(1457.886 -1308.693)" fill="#e4ecf2"/>
        <path id="Path_636" data-name="Path 636" d="M-1512.2,1353.194l-.136,8.016c-.086,5.083,4.194,10.388,9.56,11.848l3.323.9c5.366,1.46,9.786-1.477,9.873-6.561l.14-8.214c.09-5.312-4.571-10.809-10.173-12l-3.326-.706C-1508.067,1345.4-1512.121,1348.336-1512.2,1353.194Z" transform="translate(1544.496 -1286.667)" fill="#e4ecf2"/>
        <path id="Path_637" data-name="Path 637" d="M-732.176,1750.114l-.136,8.015c-.086,5.083-4.507,8.021-9.873,6.561l-3.323-.9c-5.366-1.46-9.647-6.765-9.56-11.848l.139-8.214c.09-5.312,4.895-8.233,10.485-6.376l3.319,1.1C-736.011,1740.15-732.093,1745.256-732.176,1750.114Z" transform="translate(946.948 -1594.824)" fill="#e4ecf2"/>
        <path id="Path_638" data-name="Path 638" d="M-882.6,1709.184l-.136,8.015c-.086,5.083-4.507,8.021-9.873,6.56l-3.323-.9c-5.366-1.46-9.646-6.765-9.56-11.848l.139-8.214c.09-5.312,4.894-8.233,10.485-6.376l3.319,1.1C-886.431,1699.219-882.514,1704.325-882.6,1709.184Z" transform="translate(1065.642 -1562.527)" fill="#e4ecf2"/>
        <path id="Path_639" data-name="Path 639" d="M-1055.774,1662.81l-.136,8.015c-.086,5.084,4.194,10.388,9.56,11.848l3.323.9c5.366,1.46,9.787-1.477,9.873-6.56l.139-8.214c.09-5.312-4.571-10.809-10.173-12l-3.326-.705C-1051.637,1655.015-1055.692,1657.952-1055.774,1662.81Z" transform="translate(1184.337 -1530.979)" fill="#d9f1de"/>
        <path id="Path_640" data-name="Path 640" d="M-1214.566,1623.848l.136-8.015c.086-5.084,4.506-8.021,9.873-6.561l3.323.9c5.366,1.46,9.647,6.765,9.56,11.848l-.14,8.214c-.09,5.312-4.894,8.233-10.484,6.376l-3.32-1.1C-1210.731,1633.813-1214.648,1628.707-1214.566,1623.848Z" transform="translate(1309.529 -1493.909)" fill="#e4ecf2"/>
        <path id="Path_641" data-name="Path 641" d="M-1664.792,1501.337l.136-8.015c.086-5.084,4.506-8.021,9.873-6.561l3.323.9c5.366,1.46,9.647,6.765,9.56,11.848l-.139,8.214c-.09,5.312-4.894,8.233-10.485,6.375l-3.319-1.1C-1660.957,1511.3-1664.874,1506.2-1664.792,1501.337Z" transform="translate(1664.793 -1397.239)" fill="#e4ecf2"/>
        <path id="Path_642" data-name="Path 642" d="M-1365.953,1578.407l-.136,8.015c-.086,5.084,4.194,10.388,9.56,11.849l3.323.9c5.366,1.46,9.786-1.477,9.873-6.561l.139-8.214c.09-5.312-4.571-10.809-10.173-12l-3.326-.706C-1361.816,1570.612-1365.87,1573.549-1365.953,1578.407Z" transform="translate(1429.093 -1464.378)" fill="#e4ecf2"/>
        <path id="Path_643" data-name="Path 643" d="M-1515.337,1537.759l-.136,8.015c-.086,5.083,4.194,10.388,9.56,11.848l3.323.9c5.366,1.46,9.786-1.477,9.873-6.56l.14-8.214c.09-5.312-4.571-10.809-10.173-12l-3.326-.705C-1511.2,1529.964-1515.254,1532.9-1515.337,1537.759Z" transform="translate(1546.969 -1432.304)" fill="#e4ecf2"/>
        <path id="Path_644" data-name="Path 644" d="M-1615.5,1070.661h0c1.888.514,3.443-.52,3.473-2.308l.006-.331a4.6,4.6,0,0,0-3.363-4.168h0c-1.888-.514-3.442.52-3.473,2.308l-.006.33A4.6,4.6,0,0,0-1615.5,1070.661Z" transform="translate(1628.552 -1063.723)" fill="#e4ecf2"/>
        <path id="Path_645" data-name="Path 645" d="M-1466.415,1111.229h0c1.888.514,3.443-.52,3.473-2.308l.006-.33a4.6,4.6,0,0,0-3.363-4.168h0c-1.888-.513-3.443.52-3.473,2.308l-.005.33A4.6,4.6,0,0,0-1466.415,1111.229Z" transform="translate(1510.911 -1095.735)" fill="#e4ecf2"/>
        <path id="Path_646" data-name="Path 646" d="M-1316.033,1152.149h0c1.888.514,3.443-.52,3.473-2.308l.006-.33a4.6,4.6,0,0,0-3.363-4.168h0c-1.888-.514-3.443.52-3.473,2.308l-.006.33A4.6,4.6,0,0,0-1316.033,1152.149Z" transform="translate(1392.248 -1128.024)" fill="#e4ecf2"/>
        <path id="Path_647" data-name="Path 647" d="M-1165.649,1193.07h0c1.888.514,3.443-.52,3.473-2.308l.005-.33a4.6,4.6,0,0,0-3.363-4.168h0c-1.888-.514-3.443.519-3.473,2.308l-.006.33A4.6,4.6,0,0,0-1165.649,1193.07Z" transform="translate(1273.583 -1160.314)" fill="#e4ecf2"/>
        <path id="Path_648" data-name="Path 648" d="M-1006.192,1236.459h0c1.888.514,3.443-.52,3.473-2.308l.005-.33a4.6,4.6,0,0,0-3.363-4.168h0c-1.888-.514-3.443.52-3.473,2.308l-.006.33A4.6,4.6,0,0,0-1006.192,1236.459Z" transform="translate(1147.758 -1194.551)" fill="#e4ecf2"/>
        <path id="Path_649" data-name="Path 649" d="M-855.809,1277.38h0c1.888.514,3.443-.52,3.473-2.308l.006-.33a4.6,4.6,0,0,0-3.363-4.168h0c-1.888-.514-3.443.52-3.473,2.308l-.006.33A4.6,4.6,0,0,0-855.809,1277.38Z" transform="translate(1029.094 -1226.841)" fill="#e4ecf2"/>
        <path id="Path_650" data-name="Path 650" d="M-704.129,1318.653h0c1.888.514,3.443-.52,3.473-2.308l.005-.33a4.6,4.6,0,0,0-3.363-4.168h0c-1.888-.514-3.443.52-3.473,2.308l-.005.33A4.6,4.6,0,0,0-704.129,1318.653Z" transform="translate(909.406 -1259.409)" fill="#e4ecf2"/>
      </g>
    </g>
    <path id="Path_651" data-name="Path 651" d="M-2338.24,1310.619s-38.579.772-58.641,38.58-21.6,38.579-30.092,60.956-18.518,74.073,47.839,86.418,162.034,6.944,168.207-40.123-50.925-72.53-54.011-78.7.772-10.8-6.944-16.2S-2295.8,1311.391-2338.24,1310.619Z" transform="translate(3211.185 -845.517)" fill="#bcd2e5"/>
    <path id="Path_652" data-name="Path 652" d="M-2080.66,1201.736s-18.24,11.1-8.724,28.55l4.759,1.983.793,6.741s-7.137,12.689,2.379,18.24,19.033,6.345,18.637,3.569-.793-14.275-.793-14.275a13.029,13.029,0,0,0,6.344-10.31c.4-7.137,7.138-23.792,1.586-30.929C-2058.266,1201.977-2064.005,1198.167-2080.66,1201.736Z" transform="translate(2942.126 -758.467)" fill="#b78b76"/>
    <path id="Path_653" data-name="Path 653" d="M-2164.274,1402.863s-8.327,20.223-31.326,1.189c0,0-28.153,15.861-28.153,23.4s-1.983,30.533-1.983,30.533l25.774,5.155,10.31,21.016,13.3,20.186s27.172-20.2,36.688-22.578,15.836-12.28,15.836-14.659a22.28,22.28,0,0,0-.793-5.155L-2138.1,1444.1l9.913-23S-2143.655,1396.915-2164.274,1402.863Z" transform="translate(3047.549 -917.562)" fill="#fff"/>
    <path id="Path_654" data-name="Path 654" d="M-2080.458,1196.706s17.447,2.379,17.447-.4.793-17.051-11.9-17.447-30.929,9.517-30.532,22.6,10.31,13.878,10.31,13.878-3.173-8.724-1.587-9.913,3.966-3.569,5.156-.793,3.171,7.138,3.171,7.138S-2088.389,1201.068-2080.458,1196.706Z" transform="translate(2952.631 -741.542)"/>
    <path id="Path_655" data-name="Path 655" d="M-1787.547,1257.566s-2.921-4.12-3.636-2.38c-1.292,3.145-.706,13.16-.444,14.21.408,1.632-8.717,28.211-8.717,28.211l-9.913,23s18.63,37.72,30.868-42.644c0,0,9.382-9.383,9.382-12.646s-8.975-9.383-8.975-9.383l5.3-10.2s-2.668-2.627-10.011,7.164l-2.286,2.16" transform="translate(2719.702 -794.066)" fill="#b78b76"/>
    <path id="Path_656" data-name="Path 656" d="M-1840.086,1710.425l49.315,19.444,23.336-3.876-5.838,12.974,27.244,13.622s23.379-49.229,3.2-59.435-80.257,3.015-80.257,3.015l-19.253,10.9Z" transform="translate(2745.019 -1144.316)" fill="#49376d"/>
    <path id="Path_657" data-name="Path 657" d="M-1785.286,1858.684s-43.84-39.433-64.252-48.247-86.52-40.129-86.52-40.129l-27.109,20.339a13.44,13.44,0,0,1,3.759,7.365c.8,4.773-2.237,6.316-2.237,6.316l20.716,15.155s10.67-4.407,24.587-.464,19.949,13.917,19.949,13.917,14.149-1.624,34.33,9.51,60.309,37.345,60.309,37.345A45.583,45.583,0,0,0-1785.286,1858.684Z" transform="translate(2840.361 -1208.249)" fill="#5d4484"/>
    <g id="Group_694" data-name="Group 694" transform="translate(874.459 580.546)">
      <path id="Path_658" data-name="Path 658" d="M-1889.535,1908.137l-.961-1.6c-2.006-.783-9.78-1.5-16.217-1.7l-1.429-.044-.782-1.2c-.042-.063-4.889-7.216-16.115-12.122-11.075-4.839-25.118-.278-25.259-.231l-1.342.445-1.144-.833-23.355-17.085,2.36-2.262c.994-.953,2.158-2.6.8-5.929a15.2,15.2,0,0,0-2.444-3.921l4.045-3.7a20.73,20.73,0,0,1,3.474,5.546c1.415,3.454,1.358,6.7-.111,9.416l17.373,12.709c4.176-1.153,16.857-3.958,27.8.823a46.142,46.142,0,0,1,17.631,12.956c1.616.069,4.49.214,7.468.476,8.566.754,10.714,1.769,11.679,3.378l1.232,2.053Zm-.7-1.484h0Z" transform="translate(1976.138 -1857.957)" fill="#453466"/>
    </g>
    <path id="Path_659" data-name="Path 659" d="M-1154.848,2109.742s-6.945,3.74-9.616,8.815-7.746,10.951-9.082,10.951h-4.808l-11.486,15.225s14.424,12.02,19.232,8.547,11.847-13.889,11.847-19.766S-1149.238,2118.289-1154.848,2109.742Z" transform="translate(2230.144 -1476.089)" fill="#2c373f"/>
    <path id="Path_660" data-name="Path 660" d="M-1517.425,2097.3l-28.581-19.766s-13.623-5.342-13.623-3.472,0,12.287,5.075,14.156,8.013,10.151,15.225,11.753S-1515.021,2103.713-1517.425,2097.3Z" transform="translate(2521.937 -1447.623)" fill="#2c373f"/>
    <path id="Path_661" data-name="Path 661" d="M-2013.939,1866.736s7.383,8.063,1.522,13.681l20.716,15.155s15.006-5.02,27.223.32,17.313,13.134,17.313,13.134,16.98.521,18.212,2.575l1.232,2.053,4.549,13.8-46.121-3.529-40.828-14.617-17.39-22.934Z" transform="translate(2891.133 -1284.338)" fill="#bcd2e6"/>
    <path id="Path_662" data-name="Path 662" d="M-2222,1666.9s-5.3,22.845,0,34.267,29.779-8.159,54.255,20.8c0,0,2.856,0,2.448-6.527s-17.569-21.042-23.266-22.963-15.488-3.961-15.488-3.961,5.461-8.411,5.178-17.055S-2222,1666.9-2222,1666.9Z" transform="translate(3046.464 -1125.893)" fill="#b78b76"/>
    <path id="Path_663" data-name="Path 663" d="M-1840.086,1710.425l35.874,14.283,47.072-8.06s-10.988,16.023-7.566,21.126,20.462,10.471,20.462,10.471,21.595-44.885,1.415-55.091-80.257,3.015-80.257,3.015l-19.253,10.9Z" transform="translate(2745.019 -1144.316)" fill="#5d4484"/>
  </g>
</svg>
