<svg xmlns="http://www.w3.org/2000/svg" width="245.398" height="325.109" viewBox="0 0 245.398 325.109">
  <g id="Group_1396" data-name="Group 1396" transform="translate(0)">
    <path id="Path_1070" data-name="Path 1070" d="M-991.745-859.032c-45.045-46.73-105.107,71.866-105.107,136.772s44.7,129.865,129.119,125.948c28.366-1.316,25.6-35.858,45.912-52.623,26.119-21.555,64.283-34.758,50.382-68.518-15.662-38.036,19.281-110.2-15.478-130.613C-904.353-858.305-930.271-795.26-991.745-859.032Z" transform="translate(1097.811 907.411)" fill="#f3f3f3"/>
    <path id="Path_1071" data-name="Path 1071" d="M-684.847,53.243c1.772,0,3.534-.048,5.285-.133l-6.807.116C-685.863,53.232-685.356,53.243-684.847,53.243Z" transform="translate(804.795 248.703)" fill="#d3d3d3"/>
    <path id="Path_1072" data-name="Path 1072" d="M-1052.475-787.3a16.026,16.026,0,0,1,15.753-16.3l90.319-1.53a16.027,16.027,0,0,1,16.3,15.753l3.5,206.651v0l.032,1.914a15.271,15.271,0,0,1-10.275,14.732,106.554,106.554,0,0,0,18.591-4.294q.014-.417.008-.838L-922.081-797.3a16.027,16.027,0,0,0-16.3-15.753l-106.053,1.8a16.027,16.027,0,0,0-15.753,16.3l2.34,138.076a106.5,106.5,0,0,0,8.052,28Z" transform="translate(1071.637 867)" fill="#d3d3d3"/>
    <path id="Path_1073" data-name="Path 1073" d="M-884.8-766.254a2.322,2.322,0,0,0,2.278-2.357,2.321,2.321,0,0,0-1.439-2.105,2.311,2.311,0,0,0-.917-.173,2.321,2.321,0,0,0-2.278,2.357A2.321,2.321,0,0,0-884.8-766.254Z" transform="translate(948.126 836.902)" fill="#fff"/>
    <g id="Group_1243" data-name="Group 1243" transform="translate(19.159 61.87)">
      <path id="Path_1074" data-name="Path 1074" d="M-1026.291-756.131a15.212,15.212,0,0,1,14.88-15.536l85.328-1.446a15.212,15.212,0,0,1,15.4,15.023l3.306,195.134v0l-3.5-206.651a16.027,16.027,0,0,0-16.3-15.753l-90.319,1.53a16.027,16.027,0,0,0-15.753,16.3l2.684,158.417a106.927,106.927,0,0,0,6.989,13.185Zm45.951-24.851a2.5,2.5,0,0,1,1.769-.77l25.671-.435a2.508,2.508,0,0,1,1.795.71,2.508,2.508,0,0,1,.771,1.769,2.527,2.527,0,0,1-2.48,2.566l-25.672.435a2.5,2.5,0,0,1-1-.188,2.527,2.527,0,0,1-1.567-2.292A2.506,2.506,0,0,1-980.34-780.982Zm-8.842-1.142a3.222,3.222,0,0,1,3.273,3.164,3.223,3.223,0,0,1-3.164,3.273,3.2,3.2,0,0,1-1.274-.24,3.225,3.225,0,0,1-2-2.924A3.223,3.223,0,0,1-989.183-782.124Z" transform="translate(1033.252 785.365)" fill="#fff"/>
    </g>
    <path id="Path_1075" data-name="Path 1075" d="M-846.038-767.435l25.672-.435a1.625,1.625,0,0,0,1.594-1.649,1.611,1.611,0,0,0-.5-1.136,1.642,1.642,0,0,0-.513-.337,1.6,1.6,0,0,0-.639-.12l-25.672.435a1.623,1.623,0,0,0-1.594,1.648A1.622,1.622,0,0,0-846.038-767.435Z" transform="translate(919.949 837.061)" fill="#fff"/>
    <path id="Path_1076" data-name="Path 1076" d="M-691.981-6.25l-.032-1.914A16.027,16.027,0,0,1-707.766,8.13l-23.782.4a108.21,108.21,0,0,0,12.928.954l6.807-.116q4.837-.234,9.556-.888A15.272,15.272,0,0,0-691.981-6.25Z" transform="translate(837.045 292.443)" fill="#e6f0ff"/>
    <path id="Path_1077" data-name="Path 1077" d="M-657.63,50.81a15,15,0,0,0,4.6-.8q-4.716.653-9.556.888Z" transform="translate(787.815 250.919)" fill="#e6f0ff"/>
    <path id="Path_1078" data-name="Path 1078" d="M-908.725-742.557l-85.328,1.446a15.212,15.212,0,0,0-14.88,15.536l2.714,160.2c35.533,54.576,100.444,49.272,100.444,49.272A16.027,16.027,0,0,0-890.021-532.4l-3.306-195.134A15.212,15.212,0,0,0-908.725-742.557Z" transform="translate(1035.053 816.679)" fill="#d7e7ee"/>
    <path id="Path_1079" data-name="Path 1079" d="M-888.311-767.841a3.2,3.2,0,0,0,1.274.24,3.223,3.223,0,0,0,3.164-3.273,3.223,3.223,0,0,0-3.273-3.164,3.223,3.223,0,0,0-3.164,3.273A3.225,3.225,0,0,0-888.311-767.841Zm1.181-5.3a2.31,2.31,0,0,1,.917.173,2.321,2.321,0,0,1,1.44,2.105,2.322,2.322,0,0,1-2.278,2.357,2.321,2.321,0,0,1-2.357-2.278A2.321,2.321,0,0,1-887.13-773.138Z" transform="translate(950.375 839.151)" fill="#8c8c8c"/>
    <path id="Path_1080" data-name="Path 1080" d="M-849.27-768.97a2.5,2.5,0,0,0,1,.188l25.672-.435a2.527,2.527,0,0,0,2.48-2.566,2.508,2.508,0,0,0-.771-1.769,2.508,2.508,0,0,0-1.795-.71l-25.671.435a2.5,2.5,0,0,0-1.769.77,2.505,2.505,0,0,0-.711,1.794A2.527,2.527,0,0,0-849.27-768.97Zm.928-3.956,25.672-.435a1.6,1.6,0,0,1,.639.12,1.642,1.642,0,0,1,.513.337,1.611,1.611,0,0,1,.5,1.136,1.625,1.625,0,0,1-1.594,1.649l-25.672.435a1.622,1.622,0,0,1-1.648-1.594A1.623,1.623,0,0,1-848.342-772.926Z" transform="translate(922.198 839.31)" fill="#8c8c8c"/>
    <path id="Path_1081" data-name="Path 1081" d="M-671.2-540.11a12,12,0,0,1-9.976,5.425,11.907,11.907,0,0,1-11.8-11.994,11.746,11.746,0,0,1,5.5-9.929,55.122,55.122,0,0,0-30.421-9.1,55.387,55.387,0,0,0-55.387,55.387A55.387,55.387,0,0,0-717.9-454.934a55.387,55.387,0,0,0,55.387-55.387A55.126,55.126,0,0,0-671.2-540.11Z" transform="translate(866.839 690.437)" fill="#fff"/>
    <path id="Path_1082" data-name="Path 1082" d="M-530.632-546.667a.555.555,0,0,0-.159.07c-3.845,3.253-3.845,3.254-7.529-.419-1.256-1.252-2.528-2.489-3.758-3.767-1.517-1.575-1.488-2.824.057-4.422.755-.781,1.711-1.356.928-2.792-.746-1.368-.958-2.858-3.206-2.6-2.2.256-3.062-.818-3.087-3.068q-.043-3.844.006-7.689c.029-2.191.924-3.038,3.15-3.092,1.069-.026,2.211.3,2.646-1.279.4-1.467,1.4-2.7-.427-4.106-1.712-1.315-1.555-2.8-.02-4.367q2.691-2.746,5.44-5.434c1.533-1.5,2.849-1.486,4.427.027.782.749,1.349,1.745,2.776.941,1.337-.753,2.867-.947,2.572-3.211-.278-2.133.864-3.039,3.094-3.064q3.844-.043,7.689,0c2.208.027,3.268.891,3.06,3.127s1.291,2.451,2.639,3.188c1.46.8,1.987-.318,2.753-1.035,1.573-1.472,2.856-1.475,4.437.07q2.678,2.618,5.3,5.295c1.728,1.761,1.72,2.933-.062,4.694-.766.757-1.531,1.325-.776,2.628.719,1.242.75,2.82,2.964,2.6,2.465-.246,3.28.747,3.31,3.26.03,2.5.061,5,0,7.492-.052,2.277-.879,3.122-3.159,3.057a2.436,2.436,0,0,0-2.811,1.725c-.6,1.5-.789,2.52.631,3.722,1.689,1.43,1.573,2.745-.019,4.377q-2.684,2.752-5.439,5.434c-1.6,1.562-2.729,1.513-4.424-.007-.71-.636-1.172-1.781-2.589-1.044s-3.024.958-2.754,3.316c.24,2.1-.851,2.982-2.972,3.013-2.694.038-5.389,0-8.083,0-1.5,0-2.942-.692-2.738-2.164C-526.319-545.385-528.385-546-530.632-546.667Zm14.929,3.6c-1.01-3.435.784-4.614,3.5-5.821,2.87-1.273,4.939-1.2,6.634,1.336l5.645-5.744c-2.833-1.527-2.522-3.617-1.431-6.416,1.134-2.909,2.621-4.375,5.814-3.737v-8.01c-3.24.65-4.592-.871-5.779-3.676-1.221-2.884-1.226-4.948,1.422-6.707l-5.685-5.68c-1.668,2.736-3.7,2.628-6.542,1.5-2.9-1.147-4.385-2.578-3.781-5.737H-524c.93,3.411-1.011,4.471-3.644,5.721-2.929,1.391-4.922.959-6.37-1.042l-5.709,5.323c1.107,1.331,3.091,2.439,1.991,4.631-1.371,2.732-1.429,7.013-6.469,5.611v8.1c3.18-.626,4.533.818,5.726,3.637,1.241,2.934,1.12,4.945-1.18,6.523l5.507,5.881c1.645-2.991,3.723-2.631,6.52-1.537,2.917,1.141,4.343,2.647,3.792,5.84Z" transform="translate(705.598 711.315)" fill="#0082f5" opacity="0.1" style="isolation: isolate"/>
    <path id="Path_1083" data-name="Path 1083" d="M-631.46-470.494c0,3.68.035,7.361-.02,11.041a1.881,1.881,0,0,0,1.292,2.066,6.542,6.542,0,0,1,3.773,6.924,6.633,6.633,0,0,1-5.459,5.5,6.331,6.331,0,0,1-7.047-3.81,1.88,1.88,0,0,0-2.1-1.227c-3.614.037-7.229.005-10.844.021-1.054,0-2.119-.077-2.156-1.4-.04-1.456,1.1-1.579,2.216-1.579,3.483,0,6.967-.034,10.449.022a2.323,2.323,0,0,0,2.58-1.479,6.189,6.189,0,0,1,2.677-2.725,2.654,2.654,0,0,0,1.625-2.9c-.058-6.9-.02-13.8-.016-20.7,0-.328-.136-.743.015-.969.447-.675,1.006-1.276,1.52-1.906.5.631,1.407,1.248,1.431,1.9C-631.391-477.989-631.461-474.24-631.46-470.494Z" transform="translate(781.708 631.844)"/>
    <path id="Path_1084" data-name="Path 1084" d="M-507.719-535.083h-8.138c.551-3.193-.874-4.7-3.792-5.84-2.8-1.094-4.875-1.454-6.52,1.537l-5.507-5.881c2.3-1.578,2.421-3.589,1.18-6.523-1.192-2.819-2.546-4.264-5.726-3.637v-8.1c5.039,1.4,5.1-2.879,6.469-5.611,1.1-2.192-.884-3.3-1.991-4.631l5.709-5.323c1.448,2,3.442,2.433,6.37,1.042,2.633-1.25,4.574-2.31,3.644-5.721h8.1c-.6,3.159.885,4.59,3.781,5.737,2.846,1.127,4.875,1.235,6.542-1.5l5.685,5.68c-2.647,1.76-2.642,3.823-1.422,6.707,1.187,2.8,2.538,4.326,5.779,3.675v8.01c-3.193-.638-4.68.829-5.814,3.737-1.091,2.8-1.4,4.888,1.431,6.416l-5.645,5.744c-1.7-2.535-3.764-2.609-6.634-1.336C-506.936-539.7-508.729-538.518-507.719-535.083Zm-4.259-39.272A14.884,14.884,0,0,0-526.8-559.573a14.9,14.9,0,0,0,14.856,14.965A14.947,14.947,0,0,0-497-559.506,14.9,14.9,0,0,0-511.978-574.355Z" transform="translate(697.615 703.333)" fill="#fff"/>
    <path id="Path_1085" data-name="Path 1085" d="M-488.484-550.861A14.9,14.9,0,0,1-473.5-536.012a14.947,14.947,0,0,1-14.948,14.9,14.9,14.9,0,0,1-14.856-14.965A14.884,14.884,0,0,1-488.484-550.861Zm-11.774,14.78a11.906,11.906,0,0,0,11.8,11.994A12,12,0,0,0-476.528-535.8a11.883,11.883,0,0,0-11.744-12.039A11.792,11.792,0,0,0-500.258-536.081Z" transform="translate(674.12 679.838)" fill="#0082f5" opacity="0.1" style="isolation: isolate"/>
    <g id="Group_1244" data-name="Group 1244" transform="translate(62.004 116.946)">
      <rect id="Rectangle_804" data-name="Rectangle 804" width="53.165" height="25.588" rx="12.794" transform="translate(0 21.372) rotate(-23.703)" fill="#2dca00"/>
      <rect id="Rectangle_805" data-name="Rectangle 805" width="13.697" height="13.697" rx="6.848" transform="matrix(0.916, -0.402, 0.402, 0.916, 8.221, 23.318)" fill="#fff" opacity="0.44"/>
      <path id="Path_1086" data-name="Path 1086" d="M-792.632-548.8a.341.341,0,0,1-.312-.2.341.341,0,0,1,.175-.449l18.712-8.215a.341.341,0,0,1,.449.175.341.341,0,0,1-.175.449l-18.712,8.215A.343.343,0,0,1-792.632-548.8Z" transform="translate(818.888 567.771)" fill="#fff"/>
      <path id="Path_1087" data-name="Path 1087" d="M-778.061-515.608a.341.341,0,0,1-.312-.2.341.341,0,0,1,.175-.449l18.712-8.215a.341.341,0,0,1,.449.175.341.341,0,0,1-.175.449l-18.712,8.215A.339.339,0,0,1-778.061-515.608Z" transform="translate(808.486 544.078)" fill="#fff"/>
      <path id="Path_1088" data-name="Path 1088" d="M-785.347-522.53a.34.34,0,0,1-.312-.2.341.341,0,0,1,.175-.449l9.878-4.337a.342.342,0,0,1,.449.175.341.341,0,0,1-.175.449l-9.878,4.337A.341.341,0,0,1-785.347-522.53Z" transform="translate(813.687 546.25)" fill="#fff"/>
      <path id="Path_1089" data-name="Path 1089" d="M-742.862-537.541a.34.34,0,0,1-.312-.2.341.341,0,0,1,.175-.449l6.554-2.877a.341.341,0,0,1,.449.175.341.341,0,0,1-.175.449l-6.554,2.877A.345.345,0,0,1-742.862-537.541Z" transform="translate(783.36 555.925)" fill="#fff"/>
    </g>
    <g id="Group_1245" data-name="Group 1245" transform="translate(68.615 206.963)">
      <path id="Path_1090" data-name="Path 1090" d="M-843.311-270.4l1.5,1.509a.372.372,0,0,0,.341.1l9.452-2.181.711-.164a.4.4,0,0,1,.153,0l.35-1.111a.719.719,0,0,0-.469-.9l-16.377-5.16a.719.719,0,0,0-.9.469l-.554,1.76.363.356Z" transform="translate(852.347 278.341)" fill="#fff"/>
      <path id="Path_1091" data-name="Path 1091" d="M-856.713-267.424l-2.669,8.472,8-3.246Z" transform="translate(859.682 270.548)" fill="#fff"/>
      <path id="Path_1092" data-name="Path 1092" d="M-809.188-240.991l2.889-9.17-7.609,1.756Z" transform="translate(827.222 258.225)" fill="#fff"/>
      <path id="Path_1093" data-name="Path 1093" d="M-843.042-238.271l-4.908-7.71-1.432.331a1.194,1.194,0,0,1-.606-.028,1.173,1.173,0,0,1-.48-.293l-1.056-1.063a.408.408,0,0,1-.081.046l-8.353,3.39a.4.4,0,0,1-.272.011.4.4,0,0,1-.133-.074l-.035.112a.719.719,0,0,0,.469.9l16.377,5.16a.718.718,0,0,0,.9-.469l.044-.141a.4.4,0,0,1-.218,0A.4.4,0,0,1-843.042-238.271Z" transform="translate(860.431 255.993)" fill="#fff"/>
    </g>
    <path id="Path_1094" data-name="Path 1094" d="M-1056.47-4.485c-5.227,7.108-2.725,17.826,5.587,23.938s25.063,9.551,30.29,2.443-7.515-17.067-12.268-25.853C-1039.49-16.21-1051.244-11.593-1056.47-4.485Z" transform="translate(1070.934 294.867)" fill="#0082f5" opacity="0.1" style="isolation: isolate"/>
    <path id="Path_1095" data-name="Path 1095" d="M-655.275-984.475c-5.475,13.548,2.93,29.722,18.773,36.125s44.133,5.059,49.609-8.489-19.052-24.31-30.278-36.461C-632.83-1010.247-649.8-998.023-655.275-984.475Z" transform="translate(783.793 1001.568)" fill="#0082f5" opacity="0.1" style="isolation: isolate"/>
    <g id="Group_1246" data-name="Group 1246" transform="translate(101.404 132.58)">
      <path id="Path_1096" data-name="Path 1096" d="M-698.316-443.2h-.079a.715.715,0,0,1-.715-.715.715.715,0,0,1,.715-.715h.079c1.081,0,2.174-.038,3.249-.112a.715.715,0,0,1,.764.664.715.715,0,0,1-.664.763C-696.076-443.24-697.2-443.2-698.316-443.2Zm-20.492-4.71a.715.715,0,0,1-.313-.072c-1.023-.5-2.04-1.041-3.026-1.613a.715.715,0,0,1-.26-.978.715.715,0,0,1,.978-.259c.956.555,1.943,1.081,2.934,1.564a.715.715,0,0,1,.33.956A.715.715,0,0,1-718.807-447.911Zm43.831-1.512a.714.714,0,0,1-.62-.358.715.715,0,0,1,.263-.977c.956-.551,1.906-1.145,2.824-1.766a.716.716,0,0,1,.993.192.715.715,0,0,1-.192.993c-.946.64-1.925,1.252-2.911,1.82A.711.711,0,0,1-674.977-449.423Zm-62.129-14.37a.715.715,0,0,1-.593-.314c-.64-.944-1.253-1.923-1.822-2.91a.715.715,0,0,1,.262-.977.716.716,0,0,1,.977.262c.552.957,1.147,1.907,1.767,2.822a.715.715,0,0,1-.191.994A.713.713,0,0,1-737.106-463.794Zm79.3-2.734a.712.712,0,0,1-.359-.1.715.715,0,0,1-.259-.978c.555-.954,1.082-1.941,1.566-2.934a.715.715,0,0,1,.957-.329.715.715,0,0,1,.329.956c-.5,1.024-1.043,2.041-1.615,3.025A.716.716,0,0,1-657.808-466.527Zm-87.213-20.17a.715.715,0,0,1-.713-.665c-.078-1.115-.118-2.25-.118-3.374v-.053a.715.715,0,0,1,.715-.715.715.715,0,0,1,.715.715v.053c0,1.091.038,2.193.114,3.275a.715.715,0,0,1-.663.764Zm93.526-3.219h0a.715.715,0,0,1-.713-.718v-.1c0-1.108-.04-2.227-.118-3.326a.715.715,0,0,1,.662-.765.718.718,0,0,1,.765.663c.081,1.133.122,2.286.122,3.428v.108A.716.716,0,0,1-651.5-489.916Zm-88.943-20.573a.712.712,0,0,1-.313-.072.715.715,0,0,1-.33-.956c.5-1.024,1.041-2.042,1.611-3.027a.716.716,0,0,1,.978-.26.716.716,0,0,1,.26.978c-.554.955-1.079,1.942-1.563,2.935A.715.715,0,0,1-740.439-510.489Zm15.874-18.308a.715.715,0,0,1-.593-.314.716.716,0,0,1,.191-.994c.944-.64,1.923-1.254,2.909-1.823a.715.715,0,0,1,.977.262.715.715,0,0,1-.262.977c-.957.553-1.906,1.148-2.822,1.769A.712.712,0,0,1-724.565-528.8Zm22.9-7.927a.715.715,0,0,1-.713-.665.716.716,0,0,1,.663-.764c1.125-.079,2.27-.12,3.4-.12a.727.727,0,0,1,.729.715.7.7,0,0,1-.7.715h-.038c-1.087,0-2.2.039-3.289.116Z" transform="translate(745.852 538.273)" fill="#303030"/>
    </g>
    <g id="Group_1049" data-name="Group 1049" transform="translate(165.196 258.719)">
      <path id="Path_913" data-name="Path 913" d="M-418.8-69.094a2.583,2.583,0,0,0-1.21-3.447,2.548,2.548,0,0,0-.288-.118l-45.569-18.6a2.583,2.583,0,0,0-3.447,1.21,2.566,2.566,0,0,0-.118.288L-471.5-84.7l50.631,20.665Z" transform="translate(486.22 93.223)" fill="#0082f5"/>
      <path id="Path_914" data-name="Path 914" d="M-502.578-91.258l45.567,18.6a2.584,2.584,0,0,1,1.616,3.276,2.611,2.611,0,0,1-.118.288l-16.532,40.506a2.584,2.584,0,0,1-3.277,1.616,2.571,2.571,0,0,1-.288-.118l-45.569-18.6a2.584,2.584,0,0,1-1.616-3.277,2.609,2.609,0,0,1,.118-.288l16.532-40.506a2.583,2.583,0,0,1,3.276-1.617A2.636,2.636,0,0,1-502.578-91.258Z" transform="translate(522.932 93.222)" fill="#0082f5" opacity="0.1" style="isolation: isolate"/>
      <g id="Group_1047" data-name="Group 1047" transform="translate(25.877 0)">
        <rect id="Rectangle_729" data-name="Rectangle 729" width="10.938" height="5.469" transform="translate(12.658 15.293) rotate(-67.798)" fill="#0082f5"/>
        <rect id="Rectangle_730" data-name="Rectangle 730" width="10.938" height="5.469" transform="translate(25.316 20.459) rotate(-67.798)" fill="#0082f5"/>
        <rect id="Rectangle_731" data-name="Rectangle 731" width="10.938" height="5.469" transform="translate(0 10.127) rotate(-67.798)" fill="#0082f5"/>
      </g>
      <g id="Group_1048" data-name="Group 1048" transform="translate(12.445 17.721)" opacity="0.26">
        <rect id="Rectangle_732" data-name="Rectangle 732" width="5.469" height="5.469" transform="translate(8.266 5.063) rotate(-67.798)" fill="#0082f5"/>
        <rect id="Rectangle_733" data-name="Rectangle 733" width="5.469" height="5.469" transform="translate(20.924 10.23) rotate(-67.798)" fill="#0082f5"/>
        <rect id="Rectangle_734" data-name="Rectangle 734" width="5.469" height="5.469" transform="translate(33.582 15.396) rotate(-67.798)" fill="#0082f5"/>
        <rect id="Rectangle_735" data-name="Rectangle 735" width="5.469" height="5.469" transform="translate(4.133 15.19) rotate(-67.798)" fill="#0082f5"/>
        <rect id="Rectangle_736" data-name="Rectangle 736" width="5.469" height="5.469" transform="translate(16.791 20.356) rotate(-67.798)" fill="#0082f5"/>
        <rect id="Rectangle_737" data-name="Rectangle 737" width="5.469" height="5.469" transform="translate(29.656 25.606) rotate(-67.798)" fill="#0082f5"/>
        <rect id="Rectangle_738" data-name="Rectangle 738" width="5.469" height="5.469" transform="translate(0 25.316) rotate(-67.798)" fill="#0082f5"/>
        <rect id="Rectangle_739" data-name="Rectangle 739" width="5.469" height="5.469" transform="translate(12.761 30.229) rotate(-67.798)" fill="#0082f5"/>
        <rect id="Rectangle_740" data-name="Rectangle 740" width="5.469" height="5.469" transform="translate(25.865 35.578) rotate(-67.798)" fill="#0082f5"/>
      </g>
    </g>
    <g id="Group_1051" data-name="Group 1051" transform="translate(0 3.103)">
      <path id="Path_922" data-name="Path 922" d="M-745.99-980.678l2.706-1.048a.26.26,0,0,0,.166-.247.26.26,0,0,0-.175-.241l-2.739-.963a8.027,8.027,0,0,1-4.831-4.675l-1.049-2.706a.26.26,0,0,0-.247-.166.26.26,0,0,0-.241.175l-.963,2.739a8.026,8.026,0,0,1-4.675,4.831l-2.706,1.049a.262.262,0,0,0-.166.247.262.262,0,0,0,.175.241l2.739.963a8.027,8.027,0,0,1,4.831,4.675l1.048,2.706a.261.261,0,0,0,.247.166.26.26,0,0,0,.241-.175l.963-2.739A8.025,8.025,0,0,1-745.99-980.678Z" transform="translate(858.003 990.725)" fill="#0082f5"/>
      <path id="Path_923" data-name="Path 923" d="M-282.8-710.417l-.722,2.047a6.006,6.006,0,0,1-3.5,3.611l-2.025.785a.2.2,0,0,0-.12.185.2.2,0,0,0,.13.181l2.046.722a6.007,6.007,0,0,1,3.611,3.5l.785,2.025a.2.2,0,0,0,.185.12.2.2,0,0,0,.181-.13l.722-2.046a6.007,6.007,0,0,1,3.5-3.611l2.025-.785a.194.194,0,0,0,.12-.185.194.194,0,0,0-.13-.181l-2.046-.722a6.008,6.008,0,0,1-3.611-3.5l-.785-2.025a.2.2,0,0,0-.185-.12A.2.2,0,0,0-282.8-710.417Z" transform="translate(521.257 790.725)" fill="#0082f5"/>
      <path id="Path_924" data-name="Path 924" d="M-1096.172-89.711l-.455,1.3a3.8,3.8,0,0,1-2.216,2.287l-1.282.5a.12.12,0,0,0-.078.12.12.12,0,0,0,.083.12l1.3.455a3.8,3.8,0,0,1,2.287,2.216l.5,1.283a.12.12,0,0,0,.12.078.12.12,0,0,0,.12-.083l.455-1.3a3.805,3.805,0,0,1,2.216-2.287l1.282-.5a.12.12,0,0,0,.078-.12.119.119,0,0,0-.083-.12l-1.3-.455a3.807,3.807,0,0,1-2.287-2.216l-.5-1.282a.12.12,0,0,0-.12-.078A.12.12,0,0,0-1096.172-89.711Z" transform="translate(1100.204 347.609)" fill="#0082f5"/>
      <path id="Path_926" data-name="Path 926" d="M-334.234-310.9l-.455,1.3a3.8,3.8,0,0,1-2.216,2.287l-1.282.5a.12.12,0,0,0-.08.12.12.12,0,0,0,.083.12l1.3.455A3.806,3.806,0,0,1-334.6-303.9l.5,1.283a.12.12,0,0,0,.121.078.12.12,0,0,0,.12-.083l.455-1.3a3.805,3.805,0,0,1,2.217-2.287l1.282-.5a.12.12,0,0,0,.078-.12.121.121,0,0,0-.083-.12l-1.3-.455a3.8,3.8,0,0,1-2.287-2.216l-.5-1.282a.12.12,0,0,0-.12-.078A.12.12,0,0,0-334.234-310.9Z" transform="translate(556.307 505.498)" fill="#0082f5"/>
    </g>
  </g>
</svg>
